(kicad_symbol_lib
	(version 20231120)
	(generator "kicad_symbol_editor")
	(generator_version "8.0")
	(symbol "Cable"
		(exclude_from_sim no)
		(in_bom yes)
		(on_board no)
		(property "Reference" "W"
			(at 0 5.08 0)
			(effects
				(font
					(size 1.27 1.27)
				)
			)
		)
		(property "Value" "Cable"
			(at 0 2.54 0)
			(effects
				(font
					(size 1.27 1.27)
				)
			)
		)
		(property "Footprint" ""
			(at 0 0 0)
			(effects
				(font
					(size 1.27 1.27)
				)
				(hide yes)
			)
		)
		(property "Datasheet" ""
			(at 0 0 0)
			(effects
				(font
					(size 1.27 1.27)
				)
				(hide yes)
			)
		)
		(property "Description" "Cable - for BOM management"
			(at 0 0 0)
			(effects
				(font
					(size 1.27 1.27)
				)
				(hide yes)
			)
		)
		(symbol "Cable_0_1"
			(rectangle
				(start -4.064 0.254)
				(end -2.54 -0.254)
				(stroke
					(width 0.1524)
					(type default)
				)
				(fill
					(type outline)
				)
			)
			(rectangle
				(start -4.064 0.762)
				(end -2.032 -0.762)
				(stroke
					(width 0.1524)
					(type default)
				)
				(fill
					(type none)
				)
			)
			(arc
				(start -2.032 0)
				(mid -1.016 -0.4209)
				(end 0 0)
				(stroke
					(width 0.1524)
					(type default)
				)
				(fill
					(type none)
				)
			)
			(arc
				(start -2.032 0.5081)
				(mid -1.016 0.0872)
				(end 0 0.5081)
				(stroke
					(width 0.1524)
					(type default)
				)
				(fill
					(type none)
				)
			)
			(polyline
				(pts
					(xy -2.032 -0.762) (xy -1.778 -0.508)
				)
				(stroke
					(width 0.1524)
					(type default)
				)
				(fill
					(type none)
				)
			)
			(polyline
				(pts
					(xy -1.778 -0.508) (xy -1.778 -0.254)
				)
				(stroke
					(width 0.1524)
					(type default)
				)
				(fill
					(type none)
				)
			)
			(polyline
				(pts
					(xy -1.778 1.27) (xy -1.778 0.381)
				)
				(stroke
					(width 0.1524)
					(type default)
				)
				(fill
					(type none)
				)
			)
			(polyline
				(pts
					(xy 4.318 1.27) (xy 4.318 -0.381) (xy 4.064 -0.762)
				)
				(stroke
					(width 0.1524)
					(type default)
				)
				(fill
					(type none)
				)
			)
			(polyline
				(pts
					(xy -4.064 0.762) (xy -3.81 1.27) (xy -1.778 1.27) (xy -2.032 0.762)
				)
				(stroke
					(width 0.1524)
					(type default)
				)
				(fill
					(type none)
				)
			)
			(polyline
				(pts
					(xy 2.032 0.762) (xy 2.286 1.27) (xy 4.318 1.27) (xy 4.064 0.762)
				)
				(stroke
					(width 0.1524)
					(type default)
				)
				(fill
					(type none)
				)
			)
			(arc
				(start 2.032 0)
				(mid 1.016 0.4209)
				(end 0 0)
				(stroke
					(width 0.1524)
					(type default)
				)
				(fill
					(type none)
				)
			)
			(arc
				(start 2.032 0.5081)
				(mid 1.016 0.929)
				(end 0 0.5081)
				(stroke
					(width 0.1524)
					(type default)
				)
				(fill
					(type none)
				)
			)
			(rectangle
				(start 2.032 0.762)
				(end 4.064 -0.762)
				(stroke
					(width 0.1524)
					(type default)
				)
				(fill
					(type none)
				)
			)
			(rectangle
				(start 2.54 0.254)
				(end 4.064 -0.254)
				(stroke
					(width 0.1524)
					(type default)
				)
				(fill
					(type outline)
				)
			)
		)
	)
	(symbol "Nut"
		(exclude_from_sim no)
		(in_bom yes)
		(on_board no)
		(property "Reference" "MP"
			(at 0 3.81 0)
			(effects
				(font
					(size 1.27 1.27)
				)
			)
		)
		(property "Value" "Nut"
			(at 0 2.54 0)
			(effects
				(font
					(size 1.27 1.27)
				)
			)
		)
		(property "Footprint" ""
			(at -0.254 4.064 0)
			(effects
				(font
					(size 1.27 1.27)
				)
				(hide yes)
			)
		)
		(property "Datasheet" ""
			(at -0.254 4.064 0)
			(effects
				(font
					(size 1.27 1.27)
				)
				(hide yes)
			)
		)
		(property "Description" ""
			(at 0 0 0)
			(effects
				(font
					(size 1.27 1.27)
				)
				(hide yes)
			)
		)
		(symbol "Nut_0_1"
			(arc
				(start -0.127 0.762)
				(mid -0.3394 -0.1061)
				(end 0.381 -0.635)
				(stroke
					(width 0.1524)
					(type default)
				)
				(fill
					(type none)
				)
			)
			(polyline
				(pts
					(xy -0.762 1.27) (xy -0.254 1.651)
				)
				(stroke
					(width 0.1524)
					(type default)
				)
				(fill
					(type none)
				)
			)
			(polyline
				(pts
					(xy 0.762 -1.27) (xy 1.27 -0.889)
				)
				(stroke
					(width 0.1524)
					(type default)
				)
				(fill
					(type none)
				)
			)
			(polyline
				(pts
					(xy 0.762 1.27) (xy 1.27 1.651)
				)
				(stroke
					(width 0.1524)
					(type default)
				)
				(fill
					(type none)
				)
			)
			(polyline
				(pts
					(xy 1.524 0) (xy 2.032 0.381)
				)
				(stroke
					(width 0.1524)
					(type default)
				)
				(fill
					(type none)
				)
			)
			(polyline
				(pts
					(xy 1.27 -0.889) (xy 2.032 0.381) (xy 1.27 1.651) (xy -0.254 1.651)
				)
				(stroke
					(width 0.1524)
					(type default)
				)
				(fill
					(type none)
				)
			)
			(polyline
				(pts
					(xy -0.762 1.27) (xy 0.762 1.27) (xy 1.524 0) (xy 0.762 -1.27) (xy -0.762 -1.27) (xy -1.524 0)
					(xy -0.762 1.27)
				)
				(stroke
					(width 0.1524)
					(type default)
				)
				(fill
					(type none)
				)
			)
			(circle
				(center 0 0)
				(radius 0.762)
				(stroke
					(width 0.1524)
					(type default)
				)
				(fill
					(type none)
				)
			)
		)
	)
	(symbol "Object"
		(exclude_from_sim no)
		(in_bom yes)
		(on_board no)
		(property "Reference" "X"
			(at 0 6.35 0)
			(effects
				(font
					(size 1.27 1.27)
				)
			)
		)
		(property "Value" "Object"
			(at 0 3.81 0)
			(effects
				(font
					(size 1.27 1.27)
				)
			)
		)
		(property "Footprint" ""
			(at 0 3.81 0)
			(effects
				(font
					(size 1.27 1.27)
				)
				(hide yes)
			)
		)
		(property "Datasheet" ""
			(at 0 3.81 0)
			(effects
				(font
					(size 1.27 1.27)
				)
				(hide yes)
			)
		)
		(property "Description" ""
			(at 0 0 0)
			(effects
				(font
					(size 1.27 1.27)
				)
				(hide yes)
			)
		)
		(symbol "Object_0_1"
			(rectangle
				(start -1.905 1.27)
				(end 0.635 -1.27)
				(stroke
					(width 0.1524)
					(type default)
				)
				(fill
					(type background)
				)
			)
			(polyline
				(pts
					(xy -1.905 1.27) (xy -0.635 2.54) (xy 1.905 2.54) (xy 0.635 1.27) (xy -1.905 1.27)
				)
				(stroke
					(width 0.1524)
					(type default)
				)
				(fill
					(type background)
				)
			)
			(polyline
				(pts
					(xy 0.635 -1.27) (xy 0.635 1.27) (xy 1.905 2.54) (xy 1.905 0) (xy 0.635 -1.27)
				)
				(stroke
					(width 0.1524)
					(type default)
				)
				(fill
					(type background)
				)
			)
		)
	)
	(symbol "OpenCollector"
		(exclude_from_sim no)
		(in_bom no)
		(on_board no)
		(property "Reference" "#SYM"
			(at 0 2.54 0)
			(effects
				(font
					(size 1.27 1.27)
				)
				(hide yes)
			)
		)
		(property "Value" "OpenCollector"
			(at 0 2.54 0)
			(effects
				(font
					(size 1.27 1.27)
				)
				(hide yes)
			)
		)
		(property "Footprint" ""
			(at 0 2.54 0)
			(effects
				(font
					(size 1.27 1.27)
				)
				(hide yes)
			)
		)
		(property "Datasheet" ""
			(at 0 2.54 0)
			(effects
				(font
					(size 1.27 1.27)
				)
				(hide yes)
			)
		)
		(property "Description" ""
			(at 0 0 0)
			(effects
				(font
					(size 1.27 1.27)
				)
				(hide yes)
			)
		)
		(symbol "OpenCollector_0_1"
			(polyline
				(pts
					(xy -0.635 -0.635) (xy 0.635 -0.635)
				)
				(stroke
					(width 0)
					(type default)
				)
				(fill
					(type none)
				)
			)
			(polyline
				(pts
					(xy 0 0.635) (xy -0.635 0) (xy 0 -0.635) (xy 0.635 0) (xy 0 0.635)
				)
				(stroke
					(width 0)
					(type default)
				)
				(fill
					(type none)
				)
			)
		)
	)
	(symbol "SYM_Arrow_Curved45_Small"
		(exclude_from_sim no)
		(in_bom no)
		(on_board no)
		(property "Reference" "#G"
			(at 0.635 3.175 0)
			(effects
				(font
					(size 1.27 1.27)
				)
				(hide yes)
			)
		)
		(property "Value" "SYM_Arrow_Curved45_Small"
			(at 0.635 3.175 0)
			(effects
				(font
					(size 1.27 1.27)
				)
				(hide yes)
			)
		)
		(property "Footprint" ""
			(at 0.635 3.175 0)
			(effects
				(font
					(size 1.27 1.27)
				)
				(hide yes)
			)
		)
		(property "Datasheet" ""
			(at 0.635 3.175 0)
			(effects
				(font
					(size 1.27 1.27)
				)
				(hide yes)
			)
		)
		(property "Description" ""
			(at 0 0 0)
			(effects
				(font
					(size 1.27 1.27)
				)
				(hide yes)
			)
		)
		(symbol "SYM_Arrow_Curved45_Small_0_1"
			(polyline
				(pts
					(xy -1.397 -1.016) (xy -0.635 -1.016) (xy -1.016 -2.032) (xy -1.397 -1.016)
				)
				(stroke
					(width 0.1524)
					(type default)
				)
				(fill
					(type outline)
				)
			)
			(arc
				(start 1.524 1.27)
				(mid -0.2665 0.5205)
				(end -1.016 -1.27)
				(stroke
					(width 0.254)
					(type default)
				)
				(fill
					(type none)
				)
			)
		)
	)
	(symbol "SYM_Arrow_Curved_Long"
		(exclude_from_sim no)
		(in_bom no)
		(on_board no)
		(property "Reference" "#G"
			(at 0.635 3.175 0)
			(effects
				(font
					(size 1.27 1.27)
				)
				(hide yes)
			)
		)
		(property "Value" "SYM_Arrow_Curved_Long"
			(at 0.635 3.175 0)
			(effects
				(font
					(size 1.27 1.27)
				)
				(hide yes)
			)
		)
		(property "Footprint" ""
			(at 0.635 3.175 0)
			(effects
				(font
					(size 1.27 1.27)
				)
				(hide yes)
			)
		)
		(property "Datasheet" ""
			(at 0.635 3.175 0)
			(effects
				(font
					(size 1.27 1.27)
				)
				(hide yes)
			)
		)
		(property "Description" ""
			(at 0 0 0)
			(effects
				(font
					(size 1.27 1.27)
				)
				(hide yes)
			)
		)
		(symbol "SYM_Arrow_Curved_Long_0_1"
			(polyline
				(pts
					(xy 0 -2.54) (xy 0.508 -2.032) (xy 1.016 -3.048) (xy 0 -2.54)
				)
				(stroke
					(width 0.1524)
					(type default)
				)
				(fill
					(type outline)
				)
			)
			(arc
				(start 0.254 2.286)
				(mid -0.6877 0)
				(end 0.254 -2.286)
				(stroke
					(width 0.254)
					(type default)
				)
				(fill
					(type none)
				)
			)
		)
	)
	(symbol "SYM_Arrow_Curved_Med"
		(exclude_from_sim no)
		(in_bom no)
		(on_board no)
		(property "Reference" "#G"
			(at 0.635 3.175 0)
			(effects
				(font
					(size 1.27 1.27)
				)
				(hide yes)
			)
		)
		(property "Value" "SYM_Arrow_Curved_Med"
			(at 0.635 3.175 0)
			(effects
				(font
					(size 1.27 1.27)
				)
				(hide yes)
			)
		)
		(property "Footprint" ""
			(at 0.635 3.175 0)
			(effects
				(font
					(size 1.27 1.27)
				)
				(hide yes)
			)
		)
		(property "Datasheet" ""
			(at 0.635 3.175 0)
			(effects
				(font
					(size 1.27 1.27)
				)
				(hide yes)
			)
		)
		(property "Description" ""
			(at 0 0 0)
			(effects
				(font
					(size 1.27 1.27)
				)
				(hide yes)
			)
		)
		(symbol "SYM_Arrow_Curved_Med_0_1"
			(polyline
				(pts
					(xy 0 -2.032) (xy 0.508 -1.524) (xy 1.016 -2.54) (xy 0 -2.032)
				)
				(stroke
					(width 0.1524)
					(type default)
				)
				(fill
					(type outline)
				)
			)
			(arc
				(start 0.254 1.778)
				(mid -0.4801 0)
				(end 0.254 -1.778)
				(stroke
					(width 0.254)
					(type default)
				)
				(fill
					(type none)
				)
			)
		)
	)
	(symbol "SYM_Arrow_Curved_Small"
		(exclude_from_sim no)
		(in_bom no)
		(on_board no)
		(property "Reference" "#G"
			(at 0.635 3.175 0)
			(effects
				(font
					(size 1.27 1.27)
				)
				(hide yes)
			)
		)
		(property "Value" "SYM_Arrow_Curved_Small"
			(at 0.635 3.175 0)
			(effects
				(font
					(size 1.27 1.27)
				)
				(hide yes)
			)
		)
		(property "Footprint" ""
			(at 0.635 3.175 0)
			(effects
				(font
					(size 1.27 1.27)
				)
				(hide yes)
			)
		)
		(property "Datasheet" ""
			(at 0.635 3.175 0)
			(effects
				(font
					(size 1.27 1.27)
				)
				(hide yes)
			)
		)
		(property "Description" ""
			(at 0 0 0)
			(effects
				(font
					(size 1.27 1.27)
				)
				(hide yes)
			)
		)
		(symbol "SYM_Arrow_Curved_Small_0_1"
			(polyline
				(pts
					(xy 0 -1.524) (xy 0.508 -1.016) (xy 1.016 -2.032) (xy 0 -1.524)
				)
				(stroke
					(width 0.1524)
					(type default)
				)
				(fill
					(type outline)
				)
			)
			(arc
				(start 0.254 1.27)
				(mid -0.272 0)
				(end 0.254 -1.27)
				(stroke
					(width 0.254)
					(type default)
				)
				(fill
					(type none)
				)
			)
		)
	)
	(symbol "SYM_DigiTrim"
		(exclude_from_sim no)
		(in_bom no)
		(on_board no)
		(property "Reference" "G"
			(at 0 3.81 0)
			(effects
				(font
					(size 1.778 1.778)
				)
				(hide yes)
			)
		)
		(property "Value" "SYM_DigiTrim"
			(at 0 3.81 0)
			(effects
				(font
					(size 1.778 1.778)
				)
				(hide yes)
			)
		)
		(property "Footprint" ""
			(at 0 2.54 0)
			(effects
				(font
					(size 1.27 1.27)
				)
				(hide yes)
			)
		)
		(property "Datasheet" ""
			(at 0 2.54 0)
			(effects
				(font
					(size 1.27 1.27)
				)
				(hide yes)
			)
		)
		(property "Description" ""
			(at 0 0 0)
			(effects
				(font
					(size 1.27 1.27)
				)
				(hide yes)
			)
		)
		(symbol "SYM_DigiTrim_0_1"
			(arc
				(start -0.0051 -0.762)
				(mid 0.6237 0)
				(end -0.0051 0.762)
				(stroke
					(width 0)
					(type default)
				)
				(fill
					(type none)
				)
			)
			(polyline
				(pts
					(xy -0.4064 -0.762) (xy 0 -0.762)
				)
				(stroke
					(width 0)
					(type default)
				)
				(fill
					(type none)
				)
			)
			(polyline
				(pts
					(xy -0.4064 0.762) (xy -0.4064 -0.762)
				)
				(stroke
					(width 0)
					(type default)
				)
				(fill
					(type none)
				)
			)
			(polyline
				(pts
					(xy -0.4064 0.762) (xy 0 0.762)
				)
				(stroke
					(width 0)
					(type default)
				)
				(fill
					(type none)
				)
			)
			(circle
				(center 0 0)
				(radius 1.27)
				(stroke
					(width 0.254)
					(type default)
				)
				(fill
					(type none)
				)
			)
		)
	)
	(symbol "SYM_HighVoltage_500mil"
		(pin_names
			(offset 1.016)
		)
		(exclude_from_sim no)
		(in_bom no)
		(on_board no)
		(property "Reference" "#G"
			(at 0 1.27 0)
			(effects
				(font
					(size 1.27 1.27)
				)
				(hide yes)
			)
		)
		(property "Value" "SYM_HighVoltage_500mil"
			(at 0 0 0)
			(effects
				(font
					(size 1.27 1.27)
				)
				(hide yes)
			)
		)
		(property "Footprint" ""
			(at 0 0.6604 0)
			(effects
				(font
					(size 1.27 1.27)
				)
				(hide yes)
			)
		)
		(property "Datasheet" ""
			(at 0 0.6604 0)
			(effects
				(font
					(size 1.27 1.27)
				)
				(hide yes)
			)
		)
		(property "Description" ""
			(at 0 0 0)
			(effects
				(font
					(size 1.27 1.27)
				)
				(hide yes)
			)
		)
		(symbol "SYM_HighVoltage_500mil_0_1"
			(polyline
				(pts
					(xy 0 4.826) (xy -4.572 -3.048) (xy 4.318 -3.048) (xy 0 4.826)
				)
				(stroke
					(width 0.889)
					(type default)
				)
				(fill
					(type none)
				)
			)
			(polyline
				(pts
					(xy -0.254 3.302) (xy -1.1684 0.0508) (xy 0 0.4064) (xy -0.6096 -1.4224) (xy -0.9144 -0.9144) (xy -0.762 -2.3876)
					(xy 0.3556 -1.5748) (xy -0.254 -1.5748) (xy 1.1176 1.3208) (xy -0.254 0.9652) (xy 0.4064 2.794)
					(xy 0 2.794) (xy -0.254 3.302)
				)
				(stroke
					(width 0.0254)
					(type default)
				)
				(fill
					(type outline)
				)
			)
		)
	)
	(symbol "SYM_ScrewTrim"
		(exclude_from_sim no)
		(in_bom no)
		(on_board no)
		(property "Reference" "G"
			(at 0 3.81 0)
			(effects
				(font
					(size 1.778 1.778)
				)
				(hide yes)
			)
		)
		(property "Value" "SYM_ScrewTrim"
			(at 0 3.81 0)
			(effects
				(font
					(size 1.778 1.778)
				)
				(hide yes)
			)
		)
		(property "Footprint" ""
			(at 0 2.54 0)
			(effects
				(font
					(size 1.27 1.27)
				)
				(hide yes)
			)
		)
		(property "Datasheet" ""
			(at 0 2.54 0)
			(effects
				(font
					(size 1.27 1.27)
				)
				(hide yes)
			)
		)
		(property "Description" ""
			(at 0 0 0)
			(effects
				(font
					(size 1.27 1.27)
				)
				(hide yes)
			)
		)
		(symbol "SYM_ScrewTrim_0_1"
			(polyline
				(pts
					(xy -1.143 -0.635) (xy 0.635 1.143)
				)
				(stroke
					(width 0.1524)
					(type default)
				)
				(fill
					(type none)
				)
			)
			(polyline
				(pts
					(xy -0.635 -1.143) (xy 1.143 0.635)
				)
				(stroke
					(width 0.1524)
					(type default)
				)
				(fill
					(type none)
				)
			)
			(polyline
				(pts
					(xy -0.508 -1.143) (xy 1.143 0.508) (xy 1.27 0.1524) (xy 1.27 -0.2794) (xy 1.0922 -0.635) (xy 0.8382 -0.9906)
					(xy 0.2032 -1.2954) (xy -0.3556 -1.2446) (xy -0.508 -1.143)
				)
				(stroke
					(width 0.1524)
					(type default)
				)
				(fill
					(type outline)
				)
			)
			(polyline
				(pts
					(xy 0.508 1.0922) (xy -1.143 -0.5588) (xy -1.27 -0.2032) (xy -1.27 0.2286) (xy -1.0922 0.5842)
					(xy -0.8382 0.9398) (xy -0.2032 1.2446) (xy 0.3556 1.1938) (xy 0.508 1.0922)
				)
				(stroke
					(width 0.1524)
					(type default)
				)
				(fill
					(type outline)
				)
			)
			(circle
				(center 0 0)
				(radius 1.27)
				(stroke
					(width 0.254)
					(type default)
				)
				(fill
					(type none)
				)
			)
		)
	)
	(symbol "Screw"
		(exclude_from_sim no)
		(in_bom yes)
		(on_board no)
		(property "Reference" "MP"
			(at 0 3.81 0)
			(effects
				(font
					(size 1.27 1.27)
				)
			)
		)
		(property "Value" "Screw"
			(at 0 2.54 0)
			(effects
				(font
					(size 1.27 1.27)
				)
			)
		)
		(property "Footprint" ""
			(at 0.381 0.381 0)
			(effects
				(font
					(size 1.27 1.27)
				)
				(hide yes)
			)
		)
		(property "Datasheet" ""
			(at 0.381 0.381 0)
			(effects
				(font
					(size 1.27 1.27)
				)
				(hide yes)
			)
		)
		(property "Description" ""
			(at 0 0 0)
			(effects
				(font
					(size 1.27 1.27)
				)
				(hide yes)
			)
		)
		(symbol "Screw_0_1"
			(polyline
				(pts
					(xy -1.143 -0.381) (xy -0.127 -0.889)
				)
				(stroke
					(width 0.1524)
					(type default)
				)
				(fill
					(type none)
				)
			)
			(polyline
				(pts
					(xy -0.889 -0.127) (xy 0.127 -0.635)
				)
				(stroke
					(width 0.1524)
					(type default)
				)
				(fill
					(type none)
				)
			)
			(polyline
				(pts
					(xy -0.635 0.127) (xy 0.381 -0.381)
				)
				(stroke
					(width 0.1524)
					(type default)
				)
				(fill
					(type none)
				)
			)
			(polyline
				(pts
					(xy -0.381 0.381) (xy 0.635 -0.127)
				)
				(stroke
					(width 0.1524)
					(type default)
				)
				(fill
					(type none)
				)
			)
			(polyline
				(pts
					(xy 0.127 0.889) (xy -1.143 -0.381)
				)
				(stroke
					(width 0.1524)
					(type default)
				)
				(fill
					(type none)
				)
			)
			(polyline
				(pts
					(xy 0.127 0.889) (xy -0.127 1.397)
				)
				(stroke
					(width 0.1524)
					(type default)
				)
				(fill
					(type none)
				)
			)
			(polyline
				(pts
					(xy 0.889 0.127) (xy -0.381 -1.143)
				)
				(stroke
					(width 0.1524)
					(type default)
				)
				(fill
					(type none)
				)
			)
			(polyline
				(pts
					(xy 0.889 0.127) (xy 1.397 -0.127)
				)
				(stroke
					(width 0.1524)
					(type default)
				)
				(fill
					(type none)
				)
			)
			(polyline
				(pts
					(xy -1.143 -0.381) (xy -1.143 -1.143) (xy -0.381 -1.143)
				)
				(stroke
					(width 0.1524)
					(type default)
				)
				(fill
					(type none)
				)
			)
			(polyline
				(pts
					(xy -0.127 1.397) (xy 0.127 1.651) (xy 1.651 0.127) (xy 1.397 -0.127)
				)
				(stroke
					(width 0.1524)
					(type default)
				)
				(fill
					(type none)
				)
			)
			(polyline
				(pts
					(xy 0.762 1.016) (xy 0.635 0.889) (xy 0.889 0.635) (xy 1.016 0.762)
				)
				(stroke
					(width 0.1524)
					(type default)
				)
				(fill
					(type none)
				)
			)
		)
	)
)