(footprint "C_0402_1005Metric_Pad0.74x0.62mm_HandSolder" (version 20210228) (generator pcbnew) (layer "F.Cu")
  (tedit 605BEC32)
  (descr "Capacitor SMD 0402 (1005 Metric), square (rectangular) end terminal, IPC_7351 nominal with elongated pad for handsoldering. (Body size source: IPC-SM-782 page 76, https://www.pcb-3d.com/wordpress/wp-content/uploads/ipc-sm-782a_amendment_1_and_2.pdf), generated with kicad-footprint-generator")
  (tags "capacitor handsolder")
  (attr smd)
  (fp_text reference "REF**" (at 0 0) (layer "F.SilkS") hide
    (effects (font (size 0.8 0.8) (thickness 0.2)))
    (tstamp ad5ae5c7-bd34-4d7c-b42a-273f08201fdc)
  )
  (fp_text value "C_0402_1005Metric_Pad0.74x0.62mm_HandSolder" (at 0 0.15) (layer "F.Fab")
    (effects (font (size 0.25 0.25) (thickness 0.04)))
    (tstamp 51d9385e-f4ff-475a-939a-601d2c330ff9)
  )
  (fp_text user "${REFERENCE}" (at 0 -0.2) (layer "F.Fab")
    (effects (font (size 0.25 0.25) (thickness 0.04)))
    (tstamp d58be6fe-dcb1-4720-b78c-1eb6106c7a3b)
  )
  (fp_poly (pts (xy 0 -0.3)
    (xy -0.05 -0.4)
    (xy 0.05 -0.4)) (layer "F.SilkS") (width 0.153) (fill solid) (tstamp a0e32097-9d25-4420-bd5e-7320d1036fa8))
  (fp_poly (pts (xy 0 0.3)
    (xy 0.05 0.4)
    (xy -0.05 0.4)) (layer "F.SilkS") (width 0.153) (fill solid) (tstamp b7f7e17e-5f94-4c1d-b155-dbe69e6d14d4))
  (fp_line (start 1.08 0.46) (end -1.08 0.46) (layer "F.CrtYd") (width 0.05) (tstamp 038c74d1-a34b-44c3-9389-a3a8328a1f9f))
  (fp_line (start -1.08 -0.46) (end 1.08 -0.46) (layer "F.CrtYd") (width 0.05) (tstamp 20bfdc40-e0e8-4ff5-b8c1-13632ff49ab7))
  (fp_line (start -1.08 0.46) (end -1.08 -0.46) (layer "F.CrtYd") (width 0.05) (tstamp bce2446a-60c3-476b-9a82-aa9441b0da07))
  (fp_line (start 1.08 -0.46) (end 1.08 0.46) (layer "F.CrtYd") (width 0.05) (tstamp f6b4877e-531c-47bc-a228-8ce303543b00))
  (fp_rect (start -1.05 -0.45) (end 1.05 0.45) (layer "F.Fab") (width 0.05) (fill none) (tstamp 71b160ae-2f3c-4f0e-bda2-5b852b74d296))
  (pad "1" smd roundrect (at -0.5675 0) (locked) (size 0.735 0.62) (layers "F.Cu" "F.Paste" "F.Mask") (roundrect_rratio 0.25) (tstamp 13b595c9-10e0-441f-943d-a5a35dbcce6c))
  (pad "2" smd roundrect (at 0.5675 0) (locked) (size 0.735 0.62) (layers "F.Cu" "F.Paste" "F.Mask") (roundrect_rratio 0.25) (tstamp 10f9030f-229c-4223-bf3b-ceaffca60ff7))
  (model "${KICAD6_3DMODEL_DIR}/Capacitor_SMD.3dshapes/C_0402_1005Metric.wrl"
    (offset (xyz 0 0 0))
    (scale (xyz 1 1 1))
    (rotate (xyz 0 0 0))
  )
)
