(footprint "Crystal_SMD_HC49-SD" (version 20211014) (generator pcbnew)
  (layer "F.Cu")
  (tedit 5A1AD52C)
  (descr "SMD Crystal HC-49-SD http://cdn-reichelt.de/documents/datenblatt/B400/xxx-HC49-SMD.pdf, 11.4x4.7mm^2 package")
  (tags "SMD SMT crystal")
  (attr smd)
  (fp_text reference "REF**" (at 0 -3.55) (layer "F.SilkS")
    (effects (font (size 1 1) (thickness 0.15)))
    (tstamp 16087cc7-57f1-4ca5-b342-3b23c512f64a)
  )
  (fp_text value "Crystal_SMD_HC49-SD" (at 0 3.55) (layer "F.Fab")
    (effects (font (size 1 1) (thickness 0.15)))
    (tstamp 94e9d57c-7125-4b21-b9d0-ba098c05339a)
  )
  (fp_text user "${REFERENCE}" (at 0 0) (layer "F.Fab")
    (effects (font (size 1 1) (thickness 0.15)))
    (tstamp 0ce69d0d-3dce-4a90-8b52-ad4f567557e6)
  )
  (fp_rect (start -6.8 -2.6) (end 6.8 2.6) (layer "F.SilkS") (width 0.12) (fill none) (tstamp 5ca66cf4-92af-44ae-961c-9dd3ffecd691))
  (fp_line (start 6.8 -2.6) (end -6.8 -2.6) (layer "F.CrtYd") (width 0.05) (tstamp 0be4d119-5b29-4cff-a7e8-9e9ee7f27d67))
  (fp_line (start 6.8 2.6) (end 6.8 -2.6) (layer "F.CrtYd") (width 0.05) (tstamp 2090127c-5e91-41c9-a49e-92db8746156a))
  (fp_line (start -6.8 -2.6) (end -6.8 2.6) (layer "F.CrtYd") (width 0.05) (tstamp 5f961309-7c54-4c08-b383-11a56d970f9b))
  (fp_line (start -6.8 2.6) (end 6.8 2.6) (layer "F.CrtYd") (width 0.05) (tstamp a13757b7-b8b7-40a2-bd71-f8b0fa54c749))
  (fp_line (start -5.7 2.35) (end 5.7 2.35) (layer "F.Fab") (width 0.1) (tstamp 12796998-b446-4d3a-926c-3ce314938b3d))
  (fp_line (start 5.7 -2.35) (end -5.7 -2.35) (layer "F.Fab") (width 0.1) (tstamp 2a012a98-67c3-4210-9244-7c6c34d3af7f))
  (fp_line (start -5.7 -2.35) (end -5.7 2.35) (layer "F.Fab") (width 0.1) (tstamp b2efd2bf-6373-4ff8-a283-2c1cfdacb747))
  (fp_line (start 5.7 2.35) (end 5.7 -2.35) (layer "F.Fab") (width 0.1) (tstamp ceb75154-2994-4436-ac41-84d85682d966))
  (fp_line (start -3.015 2.115) (end 3.015 2.115) (layer "F.Fab") (width 0.1) (tstamp d0aff63e-de82-404b-adde-370821ef416f))
  (fp_line (start -3.015 -2.115) (end 3.015 -2.115) (layer "F.Fab") (width 0.1) (tstamp e7e9eb2b-3f5e-4c46-892f-9cbf361f46ba))
  (fp_arc (start 3.015 -2.115) (mid 5.13 0) (end 3.015 2.115) (layer "F.Fab") (width 0.1) (tstamp 4d32ac99-6a47-4f1a-b433-94019fa15537))
  (fp_arc (start -3.015 2.115) (mid -5.13 0) (end -3.015 -2.115) (layer "F.Fab") (width 0.1) (tstamp 77db3ec6-3e8a-442e-85fb-57e796625e34))
  (pad "1" smd roundrect (at -4.25 0) (size 4.5 2) (layers "F.Cu" "F.Paste" "F.Mask") (roundrect_rratio 0.25) (tstamp 07b08812-82c5-4476-8b77-35c76732c9ba))
  (pad "2" smd roundrect (at 4.25 0) (size 4.5 2) (layers "F.Cu" "F.Paste" "F.Mask") (roundrect_rratio 0.25) (tstamp 5f538755-304d-492f-b5bf-16960ddfef52))
  (model "${KICAD6_3DMODEL_DIR}/Crystal.3dshapes/Crystal_SMD_HC49-SD.wrl"
    (offset (xyz 0 0 0))
    (scale (xyz 1 1 1))
    (rotate (xyz 0 0 0))
  )
)
