(footprint "D_SMA" (version 20210228) (generator pcbnew) (layer "F.Cu")
  (tedit 605BEDD4)
  (descr "Diode SMA (DO-214AC)")
  (tags "Diode SMA (DO-214AC)")
  (attr smd)
  (fp_text reference "REF**" (at 0 -2.5) (layer "F.SilkS")
    (effects (font (size 0.8 0.8) (thickness 0.2)))
    (tstamp b941d074-a918-4167-9807-6a44cab95c1b)
  )
  (fp_text value "D_SMA" (at 0 1.2) (layer "F.Fab")
    (effects (font (size 0.5 0.5) (thickness 0.06)))
    (tstamp 633fad76-698f-4af8-916b-9dce9dec360a)
  )
  (fp_text user "${REFERENCE}" (at 0 -1) (layer "F.Fab")
    (effects (font (size 0.5 0.5) (thickness 0.06)))
    (tstamp 12a8171a-573c-40a1-9e28-4f26e5b2e8bc)
  )
  (fp_line (start 0.4 -0.6) (end 0.4 0.6) (layer "F.SilkS") (width 0.2) (tstamp 063220af-1f21-49eb-90c2-8eb4cd43f9c2))
  (fp_line (start -3.4 1.2) (end -3.4 1.6) (layer "F.SilkS") (width 0.2) (tstamp 16453d1a-0557-4b6b-811a-bb5e31aab75e))
  (fp_line (start 1.6 -1.6) (end -3.4 -1.6) (layer "F.SilkS") (width 0.2) (tstamp 48743955-c199-437b-a75c-bd2efbca3b25))
  (fp_line (start 1.6 1.6) (end -3.4 1.6) (layer "F.SilkS") (width 0.2) (tstamp 6a1565f0-31c0-45fa-beaf-8397df031395))
  (fp_line (start -0.4 0) (end 0.4 -0.6) (layer "F.SilkS") (width 0.2) (tstamp 74739358-6a92-4bdd-b465-0e7d8ab73b69))
  (fp_line (start -0.4 -0.6) (end -0.4 0.6) (layer "F.SilkS") (width 0.2) (tstamp 8b509229-0da1-43d9-9fd3-57fede7f36c7))
  (fp_line (start -3.4 -1.6) (end -3.4 -1.2) (layer "F.SilkS") (width 0.2) (tstamp a20481b8-1518-4bb7-bac3-a529922f150b))
  (fp_line (start 0.4 0.6) (end -0.4 0) (layer "F.SilkS") (width 0.2) (tstamp d3181317-42ec-49f3-a2fb-bfbe487479ae))
  (fp_poly (pts (xy -2.8 -1.2)
    (xy -3.4 -1.2)
    (xy -3.4 -1.6)
    (xy -2.8 -1.6)) (layer "F.SilkS") (width 0.2) (fill solid) (tstamp 514914d2-0026-4987-bc81-817a86cbf156))
  (fp_poly (pts (xy -2.8 1.6)
    (xy -3.4 1.6)
    (xy -3.4 1.2)
    (xy -2.8 1.2)) (layer "F.SilkS") (width 0.2) (fill solid) (tstamp a6581f17-0840-4d85-b7a0-41a170913569))
  (fp_line (start -3.5 1.75) (end -3.5 -1.75) (layer "F.CrtYd") (width 0.05) (tstamp 0b3727ca-7fd5-4071-8889-03fdf454f395))
  (fp_line (start 3.5 -1.75) (end 3.5 1.75) (layer "F.CrtYd") (width 0.05) (tstamp 8bd0b29c-d7ce-46b8-acc4-2da30e05f00c))
  (fp_line (start 3.5 1.75) (end -3.5 1.75) (layer "F.CrtYd") (width 0.05) (tstamp 8d2ecf17-cef6-48cc-a6aa-2fa6dcbd9ccf))
  (fp_line (start -3.5 -1.75) (end 3.5 -1.75) (layer "F.CrtYd") (width 0.05) (tstamp ce53b285-2756-4797-aa2a-ae62b473e780))
  (fp_line (start 0.50118 0.00102) (end 1.4994 0.00102) (layer "F.Fab") (width 0.1) (tstamp 0cbb6916-f3b5-480e-ad7f-2a57f891e874))
  (fp_line (start -0.64944 0.00102) (end -1.55114 0.00102) (layer "F.Fab") (width 0.1) (tstamp 1954f763-9239-4a0b-ae29-62a837a4f111))
  (fp_line (start -0.64944 -0.79908) (end -0.64944 0.80112) (layer "F.Fab") (width 0.1) (tstamp 411acfe2-e969-4eb1-b8a7-6c3748b691fc))
  (fp_line (start -0.64944 0.00102) (end 0.50118 -0.79908) (layer "F.Fab") (width 0.1) (tstamp 6468992e-77df-4002-a655-29e455ae4072))
  (fp_line (start -2.3 1.5) (end -2.3 -1.5) (layer "F.Fab") (width 0.1) (tstamp 71b718f0-331e-4c10-8236-44d1624427dd))
  (fp_line (start 2.3 -1.5) (end 2.3 1.5) (layer "F.Fab") (width 0.1) (tstamp 903fa947-44d2-43f1-9c57-3005d83d71e9))
  (fp_line (start 2.3 1.5) (end -2.3 1.5) (layer "F.Fab") (width 0.1) (tstamp 98ddc211-0d56-4f02-98e8-58baa81cad56))
  (fp_line (start 0.50118 0.75032) (end 0.50118 -0.79908) (layer "F.Fab") (width 0.1) (tstamp ceb204ea-8bba-4c16-913a-ab60f2aa7f5d))
  (fp_line (start -0.64944 0.00102) (end 0.50118 0.75032) (layer "F.Fab") (width 0.1) (tstamp e40c6f7c-cd10-425c-9bf6-bb512a3a8cb4))
  (fp_line (start 2.3 -1.5) (end -2.3 -1.5) (layer "F.Fab") (width 0.1) (tstamp e73a1e30-39f4-4b26-b21f-58f88cd63bb8))
  (pad "1" smd roundrect (at -2 0) (locked) (size 2.5 1.8) (layers "F.Cu" "F.Paste" "F.Mask") (roundrect_rratio 0.2) (tstamp 5196be23-8fca-4959-a1c5-c5f3458bf6a3))
  (pad "2" smd roundrect (at 2 0) (locked) (size 2.5 1.8) (layers "F.Cu" "F.Paste" "F.Mask") (roundrect_rratio 0.2) (tstamp b628cf34-73fb-4ff9-aeef-6ff6909ab071))
  (model "${KICAD6_3DMODEL_DIR}/Diode_SMD.3dshapes/D_SMA.wrl"
    (offset (xyz 0 0 0))
    (scale (xyz 1 1 1))
    (rotate (xyz 0 0 0))
  )
)
