(footprint "SOT-143" (version 20210228) (generator pcbnew) (layer "F.Cu")
  (tedit 605BF570)
  (descr "SOT-143")
  (tags "SOT-143")
  (attr smd)
  (fp_text reference "REF**" (at 0.02 -2.38) (layer "F.SilkS")
    (effects (font (size 0.8 0.8) (thickness 0.2)))
    (tstamp f5b3c28a-e719-4c29-8d32-49d3ecba5e94)
  )
  (fp_text value "SOT-143" (at -0.28 2.48) (layer "F.Fab")
    (effects (font (size 1 1) (thickness 0.15)))
    (tstamp 79d9db42-4602-4fe6-90e0-b06ffc5e1224)
  )
  (fp_text user "${REFERENCE}" (at 0 0 90) (layer "F.Fab")
    (effects (font (size 0.5 0.5) (thickness 0.075)))
    (tstamp a6204884-ee2a-4c70-9672-d5666096a9ac)
  )
  (fp_line (start -1.7 -1.65) (end -0.9 -1.65) (layer "F.SilkS") (width 0.2) (tstamp 6697bb8f-0274-4e44-843d-9d89b1c9bda5))
  (fp_poly (pts (xy 0.1 1.4)
    (xy -0.1 1.4)
    (xy -0.1 -1.4)
    (xy 0.1 -1.4)) (layer "F.SilkS") (width 0.2) (fill solid) (tstamp 8d372410-4ab0-4f04-b161-e3618ff5a7ac))
  (fp_line (start -2.05 1.75) (end 2.05 1.75) (layer "F.CrtYd") (width 0.05) (tstamp 21545ef5-ce0f-4a98-b6b3-d1d03c94b827))
  (fp_line (start 2.05 -1.75) (end 2.05 1.75) (layer "F.CrtYd") (width 0.05) (tstamp 591168b5-18e5-4753-9bd3-1ca1c9ffd8cf))
  (fp_line (start -2.05 1.75) (end -2.05 -1.75) (layer "F.CrtYd") (width 0.05) (tstamp 8dcbab89-5c1f-4f01-9c51-95ceb2891cdb))
  (fp_line (start 2.05 -1.75) (end -2.05 -1.75) (layer "F.CrtYd") (width 0.05) (tstamp b7e6b91f-cbb8-4b8a-9e42-b93cb20f676e))
  (fp_line (start -1.2 1.5) (end -1.2 -1) (layer "F.Fab") (width 0.1) (tstamp 07e3996d-833e-4a27-9aa1-72c5a9ebf3b2))
  (fp_line (start -1.2 -1) (end -0.7 -1.5) (layer "F.Fab") (width 0.1) (tstamp 32c3ff6f-e72e-4539-84e6-9fb7762fe84a))
  (fp_line (start 1.2 -1.5) (end 1.2 1.5) (layer "F.Fab") (width 0.1) (tstamp 851baa4a-82d0-4a80-8841-c3397ac67d3f))
  (fp_line (start -0.7 -1.5) (end 1.2 -1.5) (layer "F.Fab") (width 0.1) (tstamp ae7b2de1-8609-41c5-9ed9-a221c9f61c9a))
  (fp_line (start 1.2 1.5) (end -1.2 1.5) (layer "F.Fab") (width 0.1) (tstamp b6d73059-c783-4d68-8ec7-5955d6b1dd40))
  (pad "1" smd roundrect (at -1.1 -0.77 270) (locked) (size 1.2 1.4) (layers "F.Cu" "F.Paste" "F.Mask") (roundrect_rratio 0.167) (tstamp de204ffc-41fb-4e9a-bff3-f08416307b32))
  (pad "2" smd roundrect (at -1.1 0.95 270) (locked) (size 1 1.4) (layers "F.Cu" "F.Paste" "F.Mask") (roundrect_rratio 0.2) (tstamp 3c25c06f-bb8f-4c2c-b8a2-e23127a3f7ee))
  (pad "3" smd roundrect (at 1.1 0.95 270) (locked) (size 1 1.4) (layers "F.Cu" "F.Paste" "F.Mask") (roundrect_rratio 0.2) (tstamp b949ef31-09ad-4b64-a7cc-a283b7e4c9ec))
  (pad "4" smd roundrect (at 1.1 -0.95 270) (locked) (size 1 1.4) (layers "F.Cu" "F.Paste" "F.Mask") (roundrect_rratio 0.2) (tstamp a462f866-630b-47cc-9a02-f7f36e39f31c))
  (model "${KICAD6_3DMODEL_DIR}/Package_TO_SOT_SMD.3dshapes/SOT-143.wrl"
    (offset (xyz 0 0 0))
    (scale (xyz 1 1 1))
    (rotate (xyz 0 0 0))
  )
)
