(footprint "TestPoint_Keystone_5019_Minature" (version 20221018) (generator pcbnew)
  (layer "F.Cu")
  (descr "SMT Test Point- Micro Miniature 5019, http://www.keyelco.com/product-pdf.cfm?p=1357")
  (tags "Test Point")
  (zone_connect 2)
  (attr smd)
  (fp_text reference "REF**" (at 0 -2.25) (layer "F.SilkS")
      (effects (font (size 1 1) (thickness 0.15)))
    (tstamp 69a3276c-35bd-4961-b473-03df27aca21b)
  )
  (fp_text value "TestPoint_Keystone_5019_Minature" (at 0 2.25) (layer "F.Fab")
      (effects (font (size 1 1) (thickness 0.15)))
    (tstamp 852056a4-738e-4d0e-9f0e-10e0b2d31d46)
  )
  (fp_text user "${REFERENCE}" (at 0 0) (layer "F.Fab")
      (effects (font (size 0.9 0.9) (thickness 0.135)))
    (tstamp 146808ce-6aef-467b-8b8d-12bc510d8290)
  )
  (fp_line (start -2.2 -1.3) (end 2.2 -1.3)
    (stroke (width 0.2) (type solid)) (layer "F.SilkS") (tstamp 388e7ae1-fd96-466a-9718-b38d0d35280d))
  (fp_line (start -2.2 1.3) (end -2.2 -1.3)
    (stroke (width 0.2) (type solid)) (layer "F.SilkS") (tstamp e237423a-d4d0-40e7-ac0a-29faa3a415a4))
  (fp_line (start 2.2 -1.3) (end 2.2 1.3)
    (stroke (width 0.2) (type solid)) (layer "F.SilkS") (tstamp c1471a66-2e69-45cb-8803-2c72c5f879a8))
  (fp_line (start 2.2 1.3) (end -2.2 1.3)
    (stroke (width 0.2) (type solid)) (layer "F.SilkS") (tstamp 5e6eb570-3000-4198-8336-8c38ada30398))
  (fp_line (start -2.35 -1.45) (end 2.35 -1.45)
    (stroke (width 0.05) (type solid)) (layer "F.CrtYd") (tstamp 3154cb9c-78e1-420e-a4de-f02b1cbd1f0a))
  (fp_line (start -2.35 1.45) (end -2.35 -1.45)
    (stroke (width 0.05) (type solid)) (layer "F.CrtYd") (tstamp 0de66363-bb49-4fc5-9ced-4405c1ab0554))
  (fp_line (start 2.35 -1.45) (end 2.35 1.45)
    (stroke (width 0.05) (type solid)) (layer "F.CrtYd") (tstamp 5cfd1f94-25d8-4af8-bd8e-63c6b5668e3a))
  (fp_line (start 2.35 1.45) (end -2.35 1.45)
    (stroke (width 0.05) (type solid)) (layer "F.CrtYd") (tstamp 9c468e6d-5442-40b2-9e7c-85cca134a44f))
  (fp_line (start -1.9 -0.5) (end -1.9 0.5)
    (stroke (width 0.15) (type solid)) (layer "F.Fab") (tstamp 053e2db7-35dd-4948-88ee-3686dce538f7))
  (fp_line (start -1.9 -0.5) (end 1.9 -0.5)
    (stroke (width 0.15) (type solid)) (layer "F.Fab") (tstamp dc485671-3f0f-4892-b540-612a2d6aa932))
  (fp_line (start -1.75 0.5) (end -1.25 0.5)
    (stroke (width 0.15) (type solid)) (layer "F.Fab") (tstamp 874930bd-bdd8-4c00-8c01-22ef17a7971e))
  (fp_line (start -1.25 -1) (end -1.25 -0.5)
    (stroke (width 0.15) (type solid)) (layer "F.Fab") (tstamp 3fbe5a31-511d-44f2-9f59-f1bcf31d9ce8))
  (fp_line (start -1.25 -0.5) (end -1.75 -0.5)
    (stroke (width 0.15) (type solid)) (layer "F.Fab") (tstamp 3eabc792-30e5-4ab2-ae32-c32d967dd51d))
  (fp_line (start -1.25 0.5) (end -1.25 1)
    (stroke (width 0.15) (type solid)) (layer "F.Fab") (tstamp d38e89b8-1476-4a2f-8c05-c66b32758a6b))
  (fp_line (start -1.25 1) (end 1.25 1)
    (stroke (width 0.15) (type solid)) (layer "F.Fab") (tstamp e6fea80c-9cbd-476b-b4aa-e4780d0fdf69))
  (fp_line (start 0 -1) (end 0 -0.5)
    (stroke (width 0.15) (type solid)) (layer "F.Fab") (tstamp 36ce42bb-907a-44e4-909b-c9b09afb3b36))
  (fp_line (start 0 0.5) (end 0 1)
    (stroke (width 0.15) (type solid)) (layer "F.Fab") (tstamp d7024ec8-4579-4c8e-94ef-7b1ff9555249))
  (fp_line (start 1.25 -1) (end -1.25 -1)
    (stroke (width 0.15) (type solid)) (layer "F.Fab") (tstamp 898e9651-9722-4a85-8059-a5f7e1262658))
  (fp_line (start 1.25 -0.5) (end 1.25 -1)
    (stroke (width 0.15) (type solid)) (layer "F.Fab") (tstamp b389e1f7-eb7a-491f-b5c5-9bdc20d5011b))
  (fp_line (start 1.25 0.5) (end 1.75 0.5)
    (stroke (width 0.15) (type solid)) (layer "F.Fab") (tstamp 9b287da6-d9d0-4685-a790-a20c15638ffd))
  (fp_line (start 1.25 1) (end 1.25 0.5)
    (stroke (width 0.15) (type solid)) (layer "F.Fab") (tstamp f06633a8-2108-4d1f-b06c-473708bb0cf1))
  (fp_line (start 1.75 -0.5) (end 1.25 -0.5)
    (stroke (width 0.15) (type solid)) (layer "F.Fab") (tstamp ad2ae11b-2a9a-4e88-bd76-f5e310806d25))
  (fp_line (start 1.9 0.5) (end -1.9 0.5)
    (stroke (width 0.15) (type solid)) (layer "F.Fab") (tstamp 0d9ced67-82fb-41ec-9d0e-7982105e6676))
  (fp_line (start 1.9 0.5) (end 1.9 -0.5)
    (stroke (width 0.15) (type solid)) (layer "F.Fab") (tstamp b129668f-ce13-4911-97d1-94458b6021a4))
  (pad "1" smd roundrect (at 0 0) (size 3.8 2) (layers "F.Cu" "F.Paste" "F.Mask") (roundrect_rratio 0.15)
    (solder_paste_margin -0.2) (tstamp 1320b4be-ef31-48e3-b5e2-e06d8e6bb399))
  (model "${XANLIB}/3d/5019--3DModel-STEP-56544.STEP"
    (offset (xyz 0 0 1.15))
    (scale (xyz 1 1 1))
    (rotate (xyz -90 0 0))
  )
)
