(footprint "BGA48-P0.75mm-ISSI"
	(version 20240108)
	(generator "pcbnew")
	(generator_version "8.0")
	(layer "F.Cu")
	(property "Reference" "REF**"
		(at 0 -8.4 0)
		(unlocked yes)
		(layer "F.SilkS")
		(uuid "da56d515-a6c4-401a-a005-13951ad61d9d")
		(effects
			(font
				(size 1 1)
				(thickness 0.15)
			)
		)
	)
	(property "Value" "BGA48-P0.75mm-ISSI"
		(at 0 -6.9 0)
		(unlocked yes)
		(layer "F.Fab")
		(uuid "fd4fbb12-b2f1-446f-9d2e-176d5c9911ab")
		(effects
			(font
				(size 1 1)
				(thickness 0.15)
			)
		)
	)
	(property "Footprint" ""
		(at 0 0 0)
		(unlocked yes)
		(layer "F.Fab")
		(hide yes)
		(uuid "31cbdbf2-6417-4307-9e2e-b0380dc27c51")
		(effects
			(font
				(size 1.27 1.27)
			)
		)
	)
	(property "Datasheet" ""
		(at 0 0 0)
		(unlocked yes)
		(layer "F.Fab")
		(hide yes)
		(uuid "f74ca4bf-c046-4eed-b8df-b5d9d64cfe17")
		(effects
			(font
				(size 1.27 1.27)
			)
		)
	)
	(property "Description" ""
		(at 0 0 0)
		(unlocked yes)
		(layer "F.Fab")
		(hide yes)
		(uuid "ba68941b-51b5-422a-8c08-2e119978a27b")
		(effects
			(font
				(size 1.27 1.27)
			)
		)
	)
	(attr smd)
	(fp_line
		(start -3.3 -4)
		(end -3.3 -2.6)
		(stroke
			(width 0.12)
			(type solid)
		)
		(layer "F.SilkS")
		(uuid "2532bc86-5b23-4a96-9f11-9679066826f0")
	)
	(fp_rect
		(start -3 -4)
		(end 3 4)
		(stroke
			(width 0.12)
			(type solid)
		)
		(fill none)
		(layer "F.SilkS")
		(uuid "385057d5-cb2e-4a01-b265-05ba8b1c9c90")
	)
	(fp_rect
		(start -3.5 -4.5)
		(end 3.5 4.5)
		(stroke
			(width 0.05)
			(type solid)
		)
		(fill none)
		(layer "F.CrtYd")
		(uuid "54a5bd1b-f46b-4619-9c9c-dc396ee63c2d")
	)
	(fp_text user "${REFERENCE}"
		(at 0 -5.4 0)
		(unlocked yes)
		(layer "F.Fab")
		(uuid "ac6f5985-2499-4527-83ea-0c1aee2a6308")
		(effects
			(font
				(size 1 1)
				(thickness 0.15)
			)
		)
	)
	(pad "A1" smd circle
		(at -1.875 -2.625)
		(size 0.3 0.3)
		(layers "F.Cu" "F.Paste" "F.Mask")
		(uuid "d01eda3a-014a-4fd6-9c05-ea79d4976532")
	)
	(pad "A2" smd circle
		(at -1.125 -2.625)
		(size 0.3 0.3)
		(layers "F.Cu" "F.Paste" "F.Mask")
		(uuid "e61fdd99-463a-476e-beca-a861aafc2810")
	)
	(pad "A3" smd circle
		(at -0.375 -2.625)
		(size 0.3 0.3)
		(layers "F.Cu" "F.Paste" "F.Mask")
		(uuid "84d2c8d9-9bf4-4ec8-b931-a81441de3485")
	)
	(pad "A4" smd circle
		(at 0.375 -2.625)
		(size 0.3 0.3)
		(layers "F.Cu" "F.Paste" "F.Mask")
		(uuid "6d9ddd21-b39f-4c50-bb3f-1e3d60ed95b2")
	)
	(pad "A5" smd circle
		(at 1.125 -2.625)
		(size 0.3 0.3)
		(layers "F.Cu" "F.Paste" "F.Mask")
		(uuid "c5c1e31a-7dc6-4d44-a558-a86fa47774fd")
	)
	(pad "A6" smd circle
		(at 1.875 -2.625)
		(size 0.3 0.3)
		(layers "F.Cu" "F.Paste" "F.Mask")
		(uuid "3872879d-e2bc-452f-b5cc-270174bf6781")
	)
	(pad "B1" smd circle
		(at -1.875 -1.875)
		(size 0.3 0.3)
		(layers "F.Cu" "F.Paste" "F.Mask")
		(uuid "6e8a815c-c6de-4617-8019-65c775a6fc13")
	)
	(pad "B2" smd circle
		(at -1.125 -1.875)
		(size 0.3 0.3)
		(layers "F.Cu" "F.Paste" "F.Mask")
		(uuid "defe3f35-249f-4794-8d6f-2a1ff460d195")
	)
	(pad "B3" smd circle
		(at -0.375 -1.875)
		(size 0.3 0.3)
		(layers "F.Cu" "F.Paste" "F.Mask")
		(uuid "0b4846ae-01c1-4813-8ecc-dd5b65db887d")
	)
	(pad "B4" smd circle
		(at 0.375 -1.875)
		(size 0.3 0.3)
		(layers "F.Cu" "F.Paste" "F.Mask")
		(uuid "fa42d1f0-26ae-4f99-a00b-ac37f724dac3")
	)
	(pad "B5" smd circle
		(at 1.125 -1.875)
		(size 0.3 0.3)
		(layers "F.Cu" "F.Paste" "F.Mask")
		(uuid "9adb4d5d-7e23-4c45-9e92-2b3026d12858")
	)
	(pad "B6" smd circle
		(at 1.875 -1.875)
		(size 0.3 0.3)
		(layers "F.Cu" "F.Paste" "F.Mask")
		(uuid "84474267-6d39-4cc6-8023-45281285a8e2")
	)
	(pad "C1" smd circle
		(at -1.875 -1.125)
		(size 0.3 0.3)
		(layers "F.Cu" "F.Paste" "F.Mask")
		(uuid "4c070286-d088-4d9c-ac02-87a5d0aa506b")
	)
	(pad "C2" smd circle
		(at -1.125 -1.125)
		(size 0.3 0.3)
		(layers "F.Cu" "F.Paste" "F.Mask")
		(uuid "91e10978-6b9a-4275-9180-4a38cb42f2a2")
	)
	(pad "C3" smd circle
		(at -0.375 -1.125)
		(size 0.3 0.3)
		(layers "F.Cu" "F.Paste" "F.Mask")
		(uuid "418266a1-452d-48e4-a30b-48cde6e93e15")
	)
	(pad "C4" smd circle
		(at 0.375 -1.125)
		(size 0.3 0.3)
		(layers "F.Cu" "F.Paste" "F.Mask")
		(uuid "f5b8e88e-c211-4582-b546-8efe575a7f81")
	)
	(pad "C5" smd circle
		(at 1.125 -1.125)
		(size 0.3 0.3)
		(layers "F.Cu" "F.Paste" "F.Mask")
		(uuid "dd896fc1-1201-429f-811c-f6fc2876858e")
	)
	(pad "C6" smd circle
		(at 1.875 -1.125)
		(size 0.3 0.3)
		(layers "F.Cu" "F.Paste" "F.Mask")
		(uuid "a954a946-e382-47f0-8dab-064756c7c3f7")
	)
	(pad "D1" smd circle
		(at -1.875 -0.375)
		(size 0.3 0.3)
		(layers "F.Cu" "F.Paste" "F.Mask")
		(uuid "9f95d9e5-0e78-4e28-aaea-58c883de4850")
	)
	(pad "D2" smd circle
		(at -1.125 -0.375)
		(size 0.3 0.3)
		(layers "F.Cu" "F.Paste" "F.Mask")
		(uuid "ca637da9-450d-4ea5-9dc6-3373ec5321f7")
	)
	(pad "D3" smd circle
		(at -0.375 -0.375)
		(size 0.3 0.3)
		(layers "F.Cu" "F.Paste" "F.Mask")
		(uuid "f0ceab95-05c2-490a-a6b8-4f6683812f1a")
	)
	(pad "D4" smd circle
		(at 0.375 -0.375)
		(size 0.3 0.3)
		(layers "F.Cu" "F.Paste" "F.Mask")
		(uuid "a6680a98-8e88-433d-ac7f-1d783951c3c2")
	)
	(pad "D5" smd circle
		(at 1.125 -0.375)
		(size 0.3 0.3)
		(layers "F.Cu" "F.Paste" "F.Mask")
		(uuid "3b73819e-92cb-4395-b7a7-a05415ae2b5f")
	)
	(pad "D6" smd circle
		(at 1.875 -0.375)
		(size 0.3 0.3)
		(layers "F.Cu" "F.Paste" "F.Mask")
		(uuid "b852a9c6-9552-4588-8c1e-1ccb4882f34d")
	)
	(pad "E1" smd circle
		(at -1.875 0.375)
		(size 0.3 0.3)
		(layers "F.Cu" "F.Paste" "F.Mask")
		(uuid "82368187-b3f7-4ca4-a1b5-40f8d2b82ae4")
	)
	(pad "E2" smd circle
		(at -1.125 0.375)
		(size 0.3 0.3)
		(layers "F.Cu" "F.Paste" "F.Mask")
		(uuid "d1da70ba-f5f9-4c8d-972a-81322b0cfc33")
	)
	(pad "E3" smd circle
		(at -0.375 0.375)
		(size 0.3 0.3)
		(layers "F.Cu" "F.Paste" "F.Mask")
		(uuid "ffbbdfae-3588-479d-a67e-b2f47194ac3b")
	)
	(pad "E4" smd circle
		(at 0.375 0.375)
		(size 0.3 0.3)
		(layers "F.Cu" "F.Paste" "F.Mask")
		(uuid "741bea59-9b37-4e0e-8359-fa8515c928df")
	)
	(pad "E5" smd circle
		(at 1.125 0.375)
		(size 0.3 0.3)
		(layers "F.Cu" "F.Paste" "F.Mask")
		(uuid "4b7a756a-f058-4f4a-a4b3-2aea1ce00c4c")
	)
	(pad "E6" smd circle
		(at 1.875 0.375)
		(size 0.3 0.3)
		(layers "F.Cu" "F.Paste" "F.Mask")
		(uuid "1fcc888e-cb5e-49b5-9f22-5f8a0690380f")
	)
	(pad "F1" smd circle
		(at -1.875 1.125)
		(size 0.3 0.3)
		(layers "F.Cu" "F.Paste" "F.Mask")
		(uuid "28ff986d-58f8-4d70-b17b-fc2073fe7fc5")
	)
	(pad "F2" smd circle
		(at -1.125 1.125)
		(size 0.3 0.3)
		(layers "F.Cu" "F.Paste" "F.Mask")
		(uuid "016f164a-ae6d-478b-acff-efe07f2b8fd9")
	)
	(pad "F3" smd circle
		(at -0.375 1.125)
		(size 0.3 0.3)
		(layers "F.Cu" "F.Paste" "F.Mask")
		(uuid "1e72100e-5353-4cf0-85be-1170a4ee63d6")
	)
	(pad "F4" smd circle
		(at 0.375 1.125)
		(size 0.3 0.3)
		(layers "F.Cu" "F.Paste" "F.Mask")
		(uuid "db317484-f8cf-4fd6-9383-28053226de8d")
	)
	(pad "F5" smd circle
		(at 1.125 1.125)
		(size 0.3 0.3)
		(layers "F.Cu" "F.Paste" "F.Mask")
		(uuid "d12f7276-adcd-4ee4-8f2d-6d7ca4ee0e92")
	)
	(pad "F6" smd circle
		(at 1.875 1.125)
		(size 0.3 0.3)
		(layers "F.Cu" "F.Paste" "F.Mask")
		(uuid "d2fc1cd0-07fa-4b8a-8191-142567889842")
	)
	(pad "G1" smd circle
		(at -1.875 1.875)
		(size 0.3 0.3)
		(layers "F.Cu" "F.Paste" "F.Mask")
		(uuid "d05aedd6-4282-4bad-81bd-b96f19c79a17")
	)
	(pad "G2" smd circle
		(at -1.125 1.875)
		(size 0.3 0.3)
		(layers "F.Cu" "F.Paste" "F.Mask")
		(uuid "8e426ec9-363f-4056-ae72-aa426deeac69")
	)
	(pad "G3" smd circle
		(at -0.375 1.875)
		(size 0.3 0.3)
		(layers "F.Cu" "F.Paste" "F.Mask")
		(uuid "11f87552-a64e-4e1e-8834-4150068676da")
	)
	(pad "G4" smd circle
		(at 0.375 1.875)
		(size 0.3 0.3)
		(layers "F.Cu" "F.Paste" "F.Mask")
		(uuid "4afd8121-ddab-48bb-8f1e-14477ee9bded")
	)
	(pad "G5" smd circle
		(at 1.125 1.875)
		(size 0.3 0.3)
		(layers "F.Cu" "F.Paste" "F.Mask")
		(uuid "fd4e0495-a439-492d-bb54-a8c692c69298")
	)
	(pad "G6" smd circle
		(at 1.875 1.875)
		(size 0.3 0.3)
		(layers "F.Cu" "F.Paste" "F.Mask")
		(uuid "682fde70-76bc-41a3-a607-f1710bd62703")
	)
	(pad "H1" smd circle
		(at -1.875 2.625)
		(size 0.3 0.3)
		(layers "F.Cu" "F.Paste" "F.Mask")
		(uuid "0ffbe69f-6e5d-4b55-9cb6-9fd556eca16d")
	)
	(pad "H2" smd circle
		(at -1.125 2.625)
		(size 0.3 0.3)
		(layers "F.Cu" "F.Paste" "F.Mask")
		(uuid "ff2ed90e-2199-42b1-8dfb-228f5671fa06")
	)
	(pad "H3" smd circle
		(at -0.375 2.625)
		(size 0.3 0.3)
		(layers "F.Cu" "F.Paste" "F.Mask")
		(uuid "7de8895b-082f-40dc-a32f-8c23b56214ff")
	)
	(pad "H4" smd circle
		(at 0.375 2.625)
		(size 0.3 0.3)
		(layers "F.Cu" "F.Paste" "F.Mask")
		(uuid "c1d8895c-6cd9-4442-9ffc-fa9578c67b90")
	)
	(pad "H5" smd circle
		(at 1.125 2.625)
		(size 0.3 0.3)
		(layers "F.Cu" "F.Paste" "F.Mask")
		(uuid "4463093b-81e4-45c0-b3e1-7cefc4c1f4b7")
	)
	(pad "H6" smd circle
		(at 1.875 2.625)
		(size 0.3 0.3)
		(layers "F.Cu" "F.Paste" "F.Mask")
		(uuid "a29652d5-0082-49d8-bd93-fd8492d1fb51")
	)
)