(footprint "Bourns_2093"
	(version 20240108)
	(generator "pcbnew")
	(generator_version "8.0")
	(layer "F.Cu")
	(descr "GDT")
	(property "Reference" "REF**"
		(at 0 0 0)
		(unlocked yes)
		(layer "F.SilkS")
		(uuid "7703e206-ef1a-4233-879e-baeaa85bb9da")
		(effects
			(font
				(size 1 1)
				(thickness 0.15)
			)
		)
	)
	(property "Value" "Bourns_2093"
		(at 0 -0.5 0)
		(unlocked yes)
		(layer "F.Fab")
		(uuid "72c69f50-b987-4e93-aece-9e3c2394b9ac")
		(effects
			(font
				(size 1 1)
				(thickness 0.15)
			)
		)
	)
	(property "Footprint" ""
		(at 0 0 0)
		(unlocked yes)
		(layer "F.Fab")
		(hide yes)
		(uuid "66a1b3db-28bf-4d23-b963-7b6586be8b43")
		(effects
			(font
				(size 1.27 1.27)
			)
		)
	)
	(property "Datasheet" ""
		(at 0 0 0)
		(unlocked yes)
		(layer "F.Fab")
		(hide yes)
		(uuid "537809a2-e9d6-4de0-830a-037dd8239ee6")
		(effects
			(font
				(size 1.27 1.27)
			)
		)
	)
	(property "Description" ""
		(at 0 0 0)
		(unlocked yes)
		(layer "F.Fab")
		(hide yes)
		(uuid "e279a4ea-c8cb-465a-b3f7-91e38d8f94fe")
		(effects
			(font
				(size 1.27 1.27)
			)
		)
	)
	(attr smd)
	(fp_rect
		(start -2.65 -3.85)
		(end -2.65 3.85)
		(stroke
			(width 0.05)
			(type solid)
		)
		(fill none)
		(layer "F.CrtYd")
		(uuid "28dab9f4-9696-4102-883b-1672093364ac")
	)
	(fp_rect
		(start -2.65 3.85)
		(end 2.65 3.85)
		(stroke
			(width 0.05)
			(type solid)
		)
		(fill none)
		(layer "F.CrtYd")
		(uuid "4f452890-29f6-42e6-97e0-a9a4139b1e41")
	)
	(fp_rect
		(start 2.65 -3.85)
		(end -2.65 -3.85)
		(stroke
			(width 0.05)
			(type solid)
		)
		(fill none)
		(layer "F.CrtYd")
		(uuid "6c90cf74-40c0-474e-b1ca-0536b0be9923")
	)
	(fp_rect
		(start 2.65 3.85)
		(end 2.65 -3.85)
		(stroke
			(width 0.05)
			(type solid)
		)
		(fill none)
		(layer "F.CrtYd")
		(uuid "a92bc674-b98e-4933-96de-37767365edc2")
	)
	(fp_text user "${REF}"
		(at 0 1 0)
		(unlocked yes)
		(layer "F.Fab")
		(uuid "3e72798a-53ce-40c8-8ac5-4de2c94ea61e")
		(effects
			(font
				(size 1 1)
				(thickness 0.15)
			)
		)
	)
	(pad "1" smd roundrect
		(at -1.75 0)
		(size 1.3 7.2)
		(layers "F.Cu" "F.Paste" "F.Mask")
		(roundrect_rratio 0.35)
		(uuid "7d9df301-562d-47d7-a71b-761113a429c9")
	)
	(pad "3" smd roundrect
		(at 1.75 0)
		(size 1.3 7.2)
		(layers "F.Cu" "F.Paste" "F.Mask")
		(roundrect_rratio 0.35)
		(uuid "88c19851-3838-41f9-bc2d-72416bcc9e51")
	)
	(model "${KIPRJMOD}/../../libraries/3d/2093-xxx-sm.stp"
		(offset
			(xyz -2.1 0 3.1)
		)
		(scale
			(xyz 1 1 1)
		)
		(rotate
			(xyz 0 0 0)
		)
	)
)