(footprint "Conn-QC-Tab-4.75mm" (version 20221018) (generator pcbnew)
  (layer "F.Cu")
  (attr through_hole)
  (fp_text reference "REF**" (at 0 -4 unlocked) (layer "F.SilkS")
      (effects (font (size 1 1) (thickness 0.15)))
    (tstamp ccddcd4f-b2e4-41c8-ad4d-10d60b2943d3)
  )
  (fp_text value "Conn-QC-Tab-4.75mm" (at 0 -1 unlocked) (layer "F.Fab")
      (effects (font (size 1 1) (thickness 0.15)))
    (tstamp e3930f20-6e71-4538-8368-3c5baf84c79b)
  )
  (fp_text user "${REFERENCE}" (at 0 0.5 unlocked) (layer "F.Fab")
      (effects (font (size 1 1) (thickness 0.15)))
    (tstamp 2bb57bd8-a219-4998-b11e-bac5d55df059)
  )
  (fp_poly
    (pts
      (xy -1.4 -1.85)
      (xy -1.4 1.85)
      (xy 1.4 1.85)
      (xy 1.4 -1.85)
    )

    (stroke (width 0.1) (type solid)) (fill solid) (layer "F.Mask") (tstamp 832dce95-553c-4ca5-928c-124c711df5db))
  (fp_rect (start -5 -2.5) (end 5 2.5)
    (stroke (width 0.05) (type default)) (fill none) (layer "F.CrtYd") (tstamp f115864d-6c46-4b4a-935e-a2f4d53193ff))
  (pad "1" thru_hole circle (at -2.54 0) (size 2.32 2.32) (drill 1.32) (layers "*.Cu" "*.Mask") (tstamp 5456d04b-ebef-4b60-a825-0907f58c403f))
  (pad "1" thru_hole circle (at 2.54 0) (size 2.32 2.32) (drill 1.32) (layers "*.Cu" "*.Mask") (tstamp 70b5a3d9-68b3-4f72-8416-b663d01f0a33))
  (zone (net 0) (net_name "") (layer "F.Cu") (tstamp 9366686a-08a4-40b8-b2a7-9b36faf576cc) (hatch edge 0.5)
    (connect_pads (clearance 0))
    (min_thickness 0.25) (filled_areas_thickness no)
    (keepout (tracks not_allowed) (vias not_allowed) (pads allowed) (copperpour not_allowed) (footprints allowed))
    (fill (thermal_gap 0.5) (thermal_bridge_width 0.5))
    (polygon
      (pts
        (xy -1.5 -2)
        (xy -1.5 2)
        (xy 1.5 2)
        (xy 1.5 -2)
      )
    )
  )
  (model ":XANLIB:3d/c-63823-1-ab-3d.stp"
    (offset (xyz 0 0 8.75))
    (scale (xyz 1 1 1))
    (rotate (xyz 0 0 0))
  )
)
