(footprint "CP_Radial_D16.0mm_P7.50mm_H33.5mm" (version 20221018) (generator pcbnew)
  (layer "F.Cu")
  (descr "CP, Radial series, Radial, pin pitch=7.50mm, , diameter=16mm, Electrolytic Capacitor")
  (tags "CP Radial series Radial pin pitch 7.50mm  diameter 16mm Electrolytic Capacitor")
  (attr through_hole)
  (fp_text reference "REF**" (at 3.75 -9.25) (layer "F.SilkS")
      (effects (font (size 1 1) (thickness 0.15)))
    (tstamp 769b289c-48de-4209-bf3a-86eef4491b57)
  )
  (fp_text value "CP_Radial_D16.0mm_P7.50mm_H33.5mm" (at 3.75 9.25) (layer "F.Fab")
      (effects (font (size 1 1) (thickness 0.15)))
    (tstamp e34440ae-c2a8-43e7-95b0-44c3194cf7b9)
  )
  (fp_text user "+" (at -4.3 -4.7 unlocked) (layer "F.SilkS")
      (effects (font (size 1.5 1.5) (thickness 0.15)))
    (tstamp 7b38d8ae-ced3-495e-b63b-24213cb468c6)
  )
  (fp_text user "${REFERENCE}" (at 3.75 0) (layer "F.Fab")
      (effects (font (size 1 1) (thickness 0.15)))
    (tstamp cdd97837-ce57-4101-a35c-7b5ee6037d9f)
  )
  (fp_line (start 3.75 -8.081) (end 3.75 8.081)
    (stroke (width 0.12) (type solid)) (layer "F.SilkS") (tstamp cf672e1a-4407-4aad-b85f-4ba9ca8008a6))
  (fp_line (start 3.79 -8.08) (end 3.79 8.08)
    (stroke (width 0.12) (type solid)) (layer "F.SilkS") (tstamp 1309d600-94f7-4d8d-8a96-9e35c557dfa6))
  (fp_line (start 3.83 -8.08) (end 3.83 8.08)
    (stroke (width 0.12) (type solid)) (layer "F.SilkS") (tstamp 87e9818d-f418-4c79-93fd-283714695ef1))
  (fp_line (start 3.87 -8.08) (end 3.87 8.08)
    (stroke (width 0.12) (type solid)) (layer "F.SilkS") (tstamp f1bd457f-5760-4f6e-a87b-fec7fcded9d8))
  (fp_line (start 3.91 -8.079) (end 3.91 8.079)
    (stroke (width 0.12) (type solid)) (layer "F.SilkS") (tstamp 5ede9d95-3fee-4a90-87da-3ccfe7acb687))
  (fp_line (start 3.95 -8.078) (end 3.95 8.078)
    (stroke (width 0.12) (type solid)) (layer "F.SilkS") (tstamp 63b3b002-23d9-405a-b247-dd569d066d1f))
  (fp_line (start 3.99 -8.077) (end 3.99 8.077)
    (stroke (width 0.12) (type solid)) (layer "F.SilkS") (tstamp 418b590e-47aa-472e-afbe-d9974d9bf5b9))
  (fp_line (start 4.03 -8.076) (end 4.03 8.076)
    (stroke (width 0.12) (type solid)) (layer "F.SilkS") (tstamp 2a9b0908-9ce6-4333-a4ea-40d4f6a7dde7))
  (fp_line (start 4.07 -8.074) (end 4.07 8.074)
    (stroke (width 0.12) (type solid)) (layer "F.SilkS") (tstamp c8b9e6d2-5b28-4dc8-bb32-8c7a80cd5918))
  (fp_line (start 4.11 -8.073) (end 4.11 8.073)
    (stroke (width 0.12) (type solid)) (layer "F.SilkS") (tstamp e8e3ae91-efc6-4dc0-87a6-85e134ef6ce9))
  (fp_line (start 4.15 -8.071) (end 4.15 8.071)
    (stroke (width 0.12) (type solid)) (layer "F.SilkS") (tstamp 97899b95-0631-4c84-b6df-70deb6980f6f))
  (fp_line (start 4.19 -8.069) (end 4.19 8.069)
    (stroke (width 0.12) (type solid)) (layer "F.SilkS") (tstamp d28e6bab-5c7b-43e7-9f22-182283391430))
  (fp_line (start 4.23 -8.066) (end 4.23 8.066)
    (stroke (width 0.12) (type solid)) (layer "F.SilkS") (tstamp 464acf5f-55a7-4029-858b-46e4c7a69948))
  (fp_line (start 4.27 -8.064) (end 4.27 8.064)
    (stroke (width 0.12) (type solid)) (layer "F.SilkS") (tstamp 4f1cac1d-9afd-476b-ab56-7dc0a20b5020))
  (fp_line (start 4.31 -8.061) (end 4.31 8.061)
    (stroke (width 0.12) (type solid)) (layer "F.SilkS") (tstamp 284058c8-02f1-4a91-aaa4-f438d907a95c))
  (fp_line (start 4.35 -8.058) (end 4.35 8.058)
    (stroke (width 0.12) (type solid)) (layer "F.SilkS") (tstamp d54b58b3-3c8e-4565-ad38-e4c35a8b5c66))
  (fp_line (start 4.39 -8.055) (end 4.39 8.055)
    (stroke (width 0.12) (type solid)) (layer "F.SilkS") (tstamp 6ba17ebb-b00e-4187-9509-b04dc388c20a))
  (fp_line (start 4.43 -8.052) (end 4.43 8.052)
    (stroke (width 0.12) (type solid)) (layer "F.SilkS") (tstamp 7a8a0750-9d6e-4512-a388-f9d503c7f543))
  (fp_line (start 4.471 -8.049) (end 4.471 8.049)
    (stroke (width 0.12) (type solid)) (layer "F.SilkS") (tstamp b628dc13-87fe-4174-a836-c87e2196ed42))
  (fp_line (start 4.511 -8.045) (end 4.511 8.045)
    (stroke (width 0.12) (type solid)) (layer "F.SilkS") (tstamp e9fc4bce-cd58-4ae6-b141-ae0d94d2b58c))
  (fp_line (start 4.551 -8.041) (end 4.551 8.041)
    (stroke (width 0.12) (type solid)) (layer "F.SilkS") (tstamp 3a89a39b-8e4a-427e-a1f3-2d0f5274956a))
  (fp_line (start 4.591 -8.037) (end 4.591 8.037)
    (stroke (width 0.12) (type solid)) (layer "F.SilkS") (tstamp d8a28d41-bae9-497e-8b63-d1ddd33aa8b8))
  (fp_line (start 4.631 -8.033) (end 4.631 8.033)
    (stroke (width 0.12) (type solid)) (layer "F.SilkS") (tstamp a460e20e-79c9-48db-a4d0-7b0255b6fc6f))
  (fp_line (start 4.671 -8.028) (end 4.671 8.028)
    (stroke (width 0.12) (type solid)) (layer "F.SilkS") (tstamp b4ad4dfe-870e-4bfc-8916-ce4a6324ec5d))
  (fp_line (start 4.711 -8.024) (end 4.711 8.024)
    (stroke (width 0.12) (type solid)) (layer "F.SilkS") (tstamp ef83fedf-b051-4bd8-a612-32c112c77ede))
  (fp_line (start 4.751 -8.019) (end 4.751 8.019)
    (stroke (width 0.12) (type solid)) (layer "F.SilkS") (tstamp c8a8481c-023c-4400-82da-5c87b29ae52c))
  (fp_line (start 4.791 -8.014) (end 4.791 8.014)
    (stroke (width 0.12) (type solid)) (layer "F.SilkS") (tstamp 3c58d3ae-142e-4c2d-88d0-9b73564de649))
  (fp_line (start 4.831 -8.008) (end 4.831 8.008)
    (stroke (width 0.12) (type solid)) (layer "F.SilkS") (tstamp 967dd722-386a-4da1-b230-cfe3092176ee))
  (fp_line (start 4.871 -8.003) (end 4.871 8.003)
    (stroke (width 0.12) (type solid)) (layer "F.SilkS") (tstamp 8e87e847-79c3-410d-80e0-ddb16b27c324))
  (fp_line (start 4.911 -7.997) (end 4.911 7.997)
    (stroke (width 0.12) (type solid)) (layer "F.SilkS") (tstamp 7d40ea49-a4f5-45ab-b819-770c77bb9276))
  (fp_line (start 4.951 -7.991) (end 4.951 7.991)
    (stroke (width 0.12) (type solid)) (layer "F.SilkS") (tstamp cd492b5d-b46f-4cfa-8004-ed5ea16b7037))
  (fp_line (start 4.991 -7.985) (end 4.991 7.985)
    (stroke (width 0.12) (type solid)) (layer "F.SilkS") (tstamp cf2f0803-bbc8-4107-bd1f-6db3b674e477))
  (fp_line (start 5.031 -7.979) (end 5.031 7.979)
    (stroke (width 0.12) (type solid)) (layer "F.SilkS") (tstamp ea0b0fe5-ea6c-4c78-9bda-54fd5cea8d1f))
  (fp_line (start 5.071 -7.972) (end 5.071 7.972)
    (stroke (width 0.12) (type solid)) (layer "F.SilkS") (tstamp b2830df8-e2b9-4175-8b69-38cf22b56bd4))
  (fp_line (start 5.111 -7.966) (end 5.111 7.966)
    (stroke (width 0.12) (type solid)) (layer "F.SilkS") (tstamp d229b76f-9c18-4b6e-ae27-610c92cbf85c))
  (fp_line (start 5.151 -7.959) (end 5.151 7.959)
    (stroke (width 0.12) (type solid)) (layer "F.SilkS") (tstamp 2a8afdb4-bc51-4137-a4e5-bbe89a32452c))
  (fp_line (start 5.191 -7.952) (end 5.191 7.952)
    (stroke (width 0.12) (type solid)) (layer "F.SilkS") (tstamp 75505081-43e6-4c14-8f52-1362b853b295))
  (fp_line (start 5.231 -7.944) (end 5.231 7.944)
    (stroke (width 0.12) (type solid)) (layer "F.SilkS") (tstamp d72a78f1-f583-4250-b104-0b34faedce2d))
  (fp_line (start 5.271 -7.937) (end 5.271 7.937)
    (stroke (width 0.12) (type solid)) (layer "F.SilkS") (tstamp 9734729a-2875-4633-8c10-1cd1222639f9))
  (fp_line (start 5.311 -7.929) (end 5.311 7.929)
    (stroke (width 0.12) (type solid)) (layer "F.SilkS") (tstamp a19cb5e9-8543-4cb8-a1ea-fa6bd014c1d5))
  (fp_line (start 5.351 -7.921) (end 5.351 7.921)
    (stroke (width 0.12) (type solid)) (layer "F.SilkS") (tstamp 68fb345e-7903-4fde-9564-f1705e5ccc31))
  (fp_line (start 5.391 -7.913) (end 5.391 7.913)
    (stroke (width 0.12) (type solid)) (layer "F.SilkS") (tstamp a3b1a034-e077-443a-a071-f7d1b0bfc479))
  (fp_line (start 5.431 -7.905) (end 5.431 7.905)
    (stroke (width 0.12) (type solid)) (layer "F.SilkS") (tstamp 08049245-ea10-4e1d-b8d6-f87314d41e1e))
  (fp_line (start 5.471 -7.896) (end 5.471 7.896)
    (stroke (width 0.12) (type solid)) (layer "F.SilkS") (tstamp 32fb0e55-785f-4981-bffa-27f4a488e681))
  (fp_line (start 5.511 -7.887) (end 5.511 7.887)
    (stroke (width 0.12) (type solid)) (layer "F.SilkS") (tstamp 7bfa0bcb-8d9d-4723-aad4-00e8a330267c))
  (fp_line (start 5.551 -7.878) (end 5.551 7.878)
    (stroke (width 0.12) (type solid)) (layer "F.SilkS") (tstamp c1725f43-23f2-4e7d-aca3-128da9064c4d))
  (fp_line (start 5.591 -7.869) (end 5.591 7.869)
    (stroke (width 0.12) (type solid)) (layer "F.SilkS") (tstamp 04114637-58c5-4971-b738-059bfca742e4))
  (fp_line (start 5.631 -7.86) (end 5.631 7.86)
    (stroke (width 0.12) (type solid)) (layer "F.SilkS") (tstamp 04e2f5e4-bb72-4a08-89ba-a1c6d311593d))
  (fp_line (start 5.671 -7.85) (end 5.671 7.85)
    (stroke (width 0.12) (type solid)) (layer "F.SilkS") (tstamp 0545e674-ba55-4093-ac01-493e5f3a5eed))
  (fp_line (start 5.711 -7.84) (end 5.711 7.84)
    (stroke (width 0.12) (type solid)) (layer "F.SilkS") (tstamp 1526c61a-9809-4d0f-89a2-cb207249ee65))
  (fp_line (start 5.751 -7.83) (end 5.751 7.83)
    (stroke (width 0.12) (type solid)) (layer "F.SilkS") (tstamp 676add23-b0fb-451a-9010-cab2dbd07e91))
  (fp_line (start 5.791 -7.82) (end 5.791 7.82)
    (stroke (width 0.12) (type solid)) (layer "F.SilkS") (tstamp b471c65a-dbb6-442f-b3b8-4aac744158a1))
  (fp_line (start 5.831 -7.81) (end 5.831 7.81)
    (stroke (width 0.12) (type solid)) (layer "F.SilkS") (tstamp cb75a9e5-b341-4ea1-8589-b2ac5cef2652))
  (fp_line (start 5.871 -7.799) (end 5.871 7.799)
    (stroke (width 0.12) (type solid)) (layer "F.SilkS") (tstamp 0d0057b3-fcea-4c42-8032-57c2980ddb0d))
  (fp_line (start 5.911 -7.788) (end 5.911 7.788)
    (stroke (width 0.12) (type solid)) (layer "F.SilkS") (tstamp 45317c7f-0d1f-49fc-abd8-939ad9865782))
  (fp_line (start 5.951 -7.777) (end 5.951 7.777)
    (stroke (width 0.12) (type solid)) (layer "F.SilkS") (tstamp 45e3d6c9-9b00-4505-91db-feaf6e777034))
  (fp_line (start 5.991 -7.765) (end 5.991 7.765)
    (stroke (width 0.12) (type solid)) (layer "F.SilkS") (tstamp c1ff7417-ac1c-45f3-ab3c-71c7fa274f1e))
  (fp_line (start 6.031 -7.754) (end 6.031 7.754)
    (stroke (width 0.12) (type solid)) (layer "F.SilkS") (tstamp 24b06fb2-a236-480d-a43a-7484ccdccaf9))
  (fp_line (start 6.071 -7.742) (end 6.071 -1.44)
    (stroke (width 0.12) (type solid)) (layer "F.SilkS") (tstamp 4c15e6b6-b4bc-46d9-a0b7-0a14d8db6042))
  (fp_line (start 6.071 1.44) (end 6.071 7.742)
    (stroke (width 0.12) (type solid)) (layer "F.SilkS") (tstamp 5814ebec-a16d-4918-b9a5-9a0367888edd))
  (fp_line (start 6.111 -7.73) (end 6.111 -1.44)
    (stroke (width 0.12) (type solid)) (layer "F.SilkS") (tstamp 8adae175-be55-42a7-8589-6df50d3a738b))
  (fp_line (start 6.111 1.44) (end 6.111 7.73)
    (stroke (width 0.12) (type solid)) (layer "F.SilkS") (tstamp d1695075-9c42-454a-8ec7-7e77ddbc3f37))
  (fp_line (start 6.151 -7.718) (end 6.151 -1.44)
    (stroke (width 0.12) (type solid)) (layer "F.SilkS") (tstamp 3095b8ca-a0e3-409c-9e38-3e25de8be8bb))
  (fp_line (start 6.151 1.44) (end 6.151 7.718)
    (stroke (width 0.12) (type solid)) (layer "F.SilkS") (tstamp cc8cba0e-ea02-4a2c-8b5b-1c2099d76036))
  (fp_line (start 6.191 -7.705) (end 6.191 -1.44)
    (stroke (width 0.12) (type solid)) (layer "F.SilkS") (tstamp 197d6edc-3cd8-4256-b903-e320f2a1b15c))
  (fp_line (start 6.191 1.44) (end 6.191 7.705)
    (stroke (width 0.12) (type solid)) (layer "F.SilkS") (tstamp 8cf1960b-05db-440d-8580-f6cd2894cff1))
  (fp_line (start 6.231 -7.693) (end 6.231 -1.44)
    (stroke (width 0.12) (type solid)) (layer "F.SilkS") (tstamp b4edc9a1-8038-4b49-a194-0bf51a0b2da5))
  (fp_line (start 6.231 1.44) (end 6.231 7.693)
    (stroke (width 0.12) (type solid)) (layer "F.SilkS") (tstamp 8c2a4625-6139-460c-9f4f-802b505c3ed9))
  (fp_line (start 6.271 -7.68) (end 6.271 -1.44)
    (stroke (width 0.12) (type solid)) (layer "F.SilkS") (tstamp 55af201b-b1d0-4e87-9e01-41053f337dc7))
  (fp_line (start 6.271 1.44) (end 6.271 7.68)
    (stroke (width 0.12) (type solid)) (layer "F.SilkS") (tstamp ec14fd51-cee8-4af0-9f28-b9fe536ede05))
  (fp_line (start 6.311 -7.666) (end 6.311 -1.44)
    (stroke (width 0.12) (type solid)) (layer "F.SilkS") (tstamp 28503e81-1768-42dc-ab21-3a0efa8a9763))
  (fp_line (start 6.311 1.44) (end 6.311 7.666)
    (stroke (width 0.12) (type solid)) (layer "F.SilkS") (tstamp 82ca7a41-ead5-4b5c-86af-38bc2e8030b7))
  (fp_line (start 6.351 -7.653) (end 6.351 -1.44)
    (stroke (width 0.12) (type solid)) (layer "F.SilkS") (tstamp c9f0be60-d6d0-4908-ad76-d9d75b671a54))
  (fp_line (start 6.351 1.44) (end 6.351 7.653)
    (stroke (width 0.12) (type solid)) (layer "F.SilkS") (tstamp b0ee7a32-5649-4361-9906-2996d2800c0c))
  (fp_line (start 6.391 -7.639) (end 6.391 -1.44)
    (stroke (width 0.12) (type solid)) (layer "F.SilkS") (tstamp 5a00dbda-f218-438e-8f65-fb82fd2687fd))
  (fp_line (start 6.391 1.44) (end 6.391 7.639)
    (stroke (width 0.12) (type solid)) (layer "F.SilkS") (tstamp 2f1c6a0e-972c-4fd4-896c-80221339996a))
  (fp_line (start 6.431 -7.625) (end 6.431 -1.44)
    (stroke (width 0.12) (type solid)) (layer "F.SilkS") (tstamp f93af3c3-942f-4326-a8be-f53d2162afd9))
  (fp_line (start 6.431 1.44) (end 6.431 7.625)
    (stroke (width 0.12) (type solid)) (layer "F.SilkS") (tstamp bffc7077-b1ea-4447-a24e-c268ea417a8a))
  (fp_line (start 6.471 -7.611) (end 6.471 -1.44)
    (stroke (width 0.12) (type solid)) (layer "F.SilkS") (tstamp 6703633a-dfec-4802-bce3-42039e30959a))
  (fp_line (start 6.471 1.44) (end 6.471 7.611)
    (stroke (width 0.12) (type solid)) (layer "F.SilkS") (tstamp 108597d6-9ebf-47ee-8504-b23dd0c530f0))
  (fp_line (start 6.511 -7.597) (end 6.511 -1.44)
    (stroke (width 0.12) (type solid)) (layer "F.SilkS") (tstamp 4aacaa13-5a79-4768-98bd-dc2a8c8f0e23))
  (fp_line (start 6.511 1.44) (end 6.511 7.597)
    (stroke (width 0.12) (type solid)) (layer "F.SilkS") (tstamp 27211bec-2661-4fdb-bd8d-ba5674729058))
  (fp_line (start 6.551 -7.582) (end 6.551 -1.44)
    (stroke (width 0.12) (type solid)) (layer "F.SilkS") (tstamp 3a1f5872-4aaa-4534-8c72-7b338196b9be))
  (fp_line (start 6.551 1.44) (end 6.551 7.582)
    (stroke (width 0.12) (type solid)) (layer "F.SilkS") (tstamp 22f3b58f-9e2c-456f-8033-300322e9bd76))
  (fp_line (start 6.591 -7.568) (end 6.591 -1.44)
    (stroke (width 0.12) (type solid)) (layer "F.SilkS") (tstamp c0da1b13-b82c-480a-8ed3-a7cd756bb36a))
  (fp_line (start 6.591 1.44) (end 6.591 7.568)
    (stroke (width 0.12) (type solid)) (layer "F.SilkS") (tstamp f33ee117-e6c1-4d4b-86f0-a4993708720e))
  (fp_line (start 6.631 -7.553) (end 6.631 -1.44)
    (stroke (width 0.12) (type solid)) (layer "F.SilkS") (tstamp 5d8e018e-558d-45ec-8ea9-33d6e68334b3))
  (fp_line (start 6.631 1.44) (end 6.631 7.553)
    (stroke (width 0.12) (type solid)) (layer "F.SilkS") (tstamp 62c1de7c-2d03-4b5a-9cbf-e5271cccdc44))
  (fp_line (start 6.671 -7.537) (end 6.671 -1.44)
    (stroke (width 0.12) (type solid)) (layer "F.SilkS") (tstamp b4ddf38e-5a9b-4bc8-87fe-784ad7b00d41))
  (fp_line (start 6.671 1.44) (end 6.671 7.537)
    (stroke (width 0.12) (type solid)) (layer "F.SilkS") (tstamp f9bff39f-7b52-40a1-8abd-af9ab3a30bdc))
  (fp_line (start 6.711 -7.522) (end 6.711 -1.44)
    (stroke (width 0.12) (type solid)) (layer "F.SilkS") (tstamp 32236980-624d-42a9-92de-9ece1a753157))
  (fp_line (start 6.711 1.44) (end 6.711 7.522)
    (stroke (width 0.12) (type solid)) (layer "F.SilkS") (tstamp b20fe1dd-b2b3-44f5-b7d4-7865392cc2c3))
  (fp_line (start 6.751 -7.506) (end 6.751 -1.44)
    (stroke (width 0.12) (type solid)) (layer "F.SilkS") (tstamp 88c0948e-fe4b-4259-9bfd-ef584d790c65))
  (fp_line (start 6.751 1.44) (end 6.751 7.506)
    (stroke (width 0.12) (type solid)) (layer "F.SilkS") (tstamp 14326140-6204-4ada-af7b-fd3aa27fc574))
  (fp_line (start 6.791 -7.49) (end 6.791 -1.44)
    (stroke (width 0.12) (type solid)) (layer "F.SilkS") (tstamp 6849f71b-88fa-4cba-add6-f1d402ed509c))
  (fp_line (start 6.791 1.44) (end 6.791 7.49)
    (stroke (width 0.12) (type solid)) (layer "F.SilkS") (tstamp a2813978-779d-49e9-adb8-6d2d560f7140))
  (fp_line (start 6.831 -7.474) (end 6.831 -1.44)
    (stroke (width 0.12) (type solid)) (layer "F.SilkS") (tstamp 891ef2f3-b8fb-4dd4-a976-7da8554d603d))
  (fp_line (start 6.831 1.44) (end 6.831 7.474)
    (stroke (width 0.12) (type solid)) (layer "F.SilkS") (tstamp 1453d112-79df-496d-83d8-ee0a3fe09800))
  (fp_line (start 6.871 -7.457) (end 6.871 -1.44)
    (stroke (width 0.12) (type solid)) (layer "F.SilkS") (tstamp a56a6645-5350-441e-a703-c05c6997de4b))
  (fp_line (start 6.871 1.44) (end 6.871 7.457)
    (stroke (width 0.12) (type solid)) (layer "F.SilkS") (tstamp de880467-2249-49c5-a70d-67c508947d05))
  (fp_line (start 6.911 -7.44) (end 6.911 -1.44)
    (stroke (width 0.12) (type solid)) (layer "F.SilkS") (tstamp 5388cba1-8d2c-49e5-aa4e-810b16d2f836))
  (fp_line (start 6.911 1.44) (end 6.911 7.44)
    (stroke (width 0.12) (type solid)) (layer "F.SilkS") (tstamp 87a19e41-3ae0-4dd1-8a5d-efd58761c7b0))
  (fp_line (start 6.951 -7.423) (end 6.951 -1.44)
    (stroke (width 0.12) (type solid)) (layer "F.SilkS") (tstamp 69aa1913-fc4e-45a1-bc33-22082b6b9cdf))
  (fp_line (start 6.951 1.44) (end 6.951 7.423)
    (stroke (width 0.12) (type solid)) (layer "F.SilkS") (tstamp 42c818d1-e34a-4bd8-bf5f-f7829f705765))
  (fp_line (start 6.991 -7.406) (end 6.991 -1.44)
    (stroke (width 0.12) (type solid)) (layer "F.SilkS") (tstamp 344fd975-29dd-4114-b6fb-d6a96e1647fb))
  (fp_line (start 6.991 1.44) (end 6.991 7.406)
    (stroke (width 0.12) (type solid)) (layer "F.SilkS") (tstamp 0d0d85f5-e32b-4a99-a15f-c6bf3d14cefa))
  (fp_line (start 7.031 -7.389) (end 7.031 -1.44)
    (stroke (width 0.12) (type solid)) (layer "F.SilkS") (tstamp 802791e6-152c-400b-a2d6-7f3b4daa2552))
  (fp_line (start 7.031 1.44) (end 7.031 7.389)
    (stroke (width 0.12) (type solid)) (layer "F.SilkS") (tstamp c968c7b3-c8d8-4217-a8f7-f58238c68b94))
  (fp_line (start 7.071 -7.371) (end 7.071 -1.44)
    (stroke (width 0.12) (type solid)) (layer "F.SilkS") (tstamp 5c999465-37e6-4089-b3f8-c295117fa9f7))
  (fp_line (start 7.071 1.44) (end 7.071 7.371)
    (stroke (width 0.12) (type solid)) (layer "F.SilkS") (tstamp 9f3bd547-f04d-486d-b246-23f2873522de))
  (fp_line (start 7.111 -7.353) (end 7.111 -1.44)
    (stroke (width 0.12) (type solid)) (layer "F.SilkS") (tstamp 037f9cf6-c52e-468a-947a-c8c49cadf84b))
  (fp_line (start 7.111 1.44) (end 7.111 7.353)
    (stroke (width 0.12) (type solid)) (layer "F.SilkS") (tstamp 310f0ec8-9b51-4a8d-92cd-f09ea76bb8f8))
  (fp_line (start 7.151 -7.334) (end 7.151 -1.44)
    (stroke (width 0.12) (type solid)) (layer "F.SilkS") (tstamp 2df14c9e-0fb8-4a00-82ec-feb18af1358a))
  (fp_line (start 7.151 1.44) (end 7.151 7.334)
    (stroke (width 0.12) (type solid)) (layer "F.SilkS") (tstamp 17786426-a5de-4558-9d43-571d635d7f57))
  (fp_line (start 7.191 -7.316) (end 7.191 -1.44)
    (stroke (width 0.12) (type solid)) (layer "F.SilkS") (tstamp 82eab810-389e-46e3-a0c8-4678fbc053fe))
  (fp_line (start 7.191 1.44) (end 7.191 7.316)
    (stroke (width 0.12) (type solid)) (layer "F.SilkS") (tstamp 09936018-2a7e-47b0-9517-d90cbeceeb95))
  (fp_line (start 7.231 -7.297) (end 7.231 -1.44)
    (stroke (width 0.12) (type solid)) (layer "F.SilkS") (tstamp 9fef9d65-7103-4107-be57-db48253eb3a0))
  (fp_line (start 7.231 1.44) (end 7.231 7.297)
    (stroke (width 0.12) (type solid)) (layer "F.SilkS") (tstamp 20f27e4e-2a2c-46cb-8731-2cc63e4981fc))
  (fp_line (start 7.271 -7.278) (end 7.271 -1.44)
    (stroke (width 0.12) (type solid)) (layer "F.SilkS") (tstamp 0882b098-397d-4a63-a062-b00825d73479))
  (fp_line (start 7.271 1.44) (end 7.271 7.278)
    (stroke (width 0.12) (type solid)) (layer "F.SilkS") (tstamp 89dd7822-4690-412a-baef-68ac35adcbd3))
  (fp_line (start 7.311 -7.258) (end 7.311 -1.44)
    (stroke (width 0.12) (type solid)) (layer "F.SilkS") (tstamp 8e4a4525-b433-4fa9-91d5-cda238b416f6))
  (fp_line (start 7.311 1.44) (end 7.311 7.258)
    (stroke (width 0.12) (type solid)) (layer "F.SilkS") (tstamp 884318b3-89f6-429d-84ad-f73e7f4b8d38))
  (fp_line (start 7.351 -7.239) (end 7.351 -1.44)
    (stroke (width 0.12) (type solid)) (layer "F.SilkS") (tstamp fbbb8522-7a13-4133-a0ae-2cb0f2460379))
  (fp_line (start 7.351 1.44) (end 7.351 7.239)
    (stroke (width 0.12) (type solid)) (layer "F.SilkS") (tstamp 24ce53e4-84c9-4b4e-a49e-d6ccb1bf913b))
  (fp_line (start 7.391 -7.219) (end 7.391 -1.44)
    (stroke (width 0.12) (type solid)) (layer "F.SilkS") (tstamp 74ba7bd1-6874-444a-9daa-3e0ba0bf1771))
  (fp_line (start 7.391 1.44) (end 7.391 7.219)
    (stroke (width 0.12) (type solid)) (layer "F.SilkS") (tstamp 12d1639d-afac-4072-a306-4b8201128bdf))
  (fp_line (start 7.431 -7.199) (end 7.431 -1.44)
    (stroke (width 0.12) (type solid)) (layer "F.SilkS") (tstamp c1af71be-e3e5-4adb-9701-ec9ebd0c258e))
  (fp_line (start 7.431 1.44) (end 7.431 7.199)
    (stroke (width 0.12) (type solid)) (layer "F.SilkS") (tstamp 952030dd-5c0c-474e-ba45-61e567b7ae58))
  (fp_line (start 7.471 -7.178) (end 7.471 -1.44)
    (stroke (width 0.12) (type solid)) (layer "F.SilkS") (tstamp f7e4aff1-bc1d-4ccd-8ebe-a50f8bbd1940))
  (fp_line (start 7.471 1.44) (end 7.471 7.178)
    (stroke (width 0.12) (type solid)) (layer "F.SilkS") (tstamp 269f7322-b607-4d67-b94b-5084932d668e))
  (fp_line (start 7.511 -7.157) (end 7.511 -1.44)
    (stroke (width 0.12) (type solid)) (layer "F.SilkS") (tstamp 7e453bdf-ae4d-4565-95b1-d129a13354d0))
  (fp_line (start 7.511 1.44) (end 7.511 7.157)
    (stroke (width 0.12) (type solid)) (layer "F.SilkS") (tstamp 2879ef72-dfea-4526-9654-70e682ccca24))
  (fp_line (start 7.551 -7.136) (end 7.551 -1.44)
    (stroke (width 0.12) (type solid)) (layer "F.SilkS") (tstamp e600ad50-408a-459d-bf82-b9d1d5b77858))
  (fp_line (start 7.551 1.44) (end 7.551 7.136)
    (stroke (width 0.12) (type solid)) (layer "F.SilkS") (tstamp 92719fb5-c050-48c8-af7a-0acd54632ee0))
  (fp_line (start 7.591 -7.115) (end 7.591 -1.44)
    (stroke (width 0.12) (type solid)) (layer "F.SilkS") (tstamp 2f7a2ad3-2810-4af0-a036-363212365668))
  (fp_line (start 7.591 1.44) (end 7.591 7.115)
    (stroke (width 0.12) (type solid)) (layer "F.SilkS") (tstamp e2525d2f-9033-4922-a4b6-e7752b9fa272))
  (fp_line (start 7.631 -7.094) (end 7.631 -1.44)
    (stroke (width 0.12) (type solid)) (layer "F.SilkS") (tstamp 882edb5a-882a-4661-948f-e2b96df5dfcf))
  (fp_line (start 7.631 1.44) (end 7.631 7.094)
    (stroke (width 0.12) (type solid)) (layer "F.SilkS") (tstamp 5168625d-ad04-4921-9f6b-a1ca50697280))
  (fp_line (start 7.671 -7.072) (end 7.671 -1.44)
    (stroke (width 0.12) (type solid)) (layer "F.SilkS") (tstamp c477eb1a-5af0-4710-8b25-694b669d29da))
  (fp_line (start 7.671 1.44) (end 7.671 7.072)
    (stroke (width 0.12) (type solid)) (layer "F.SilkS") (tstamp 5bd3a0ee-594e-4617-a9d5-4cc80b68d745))
  (fp_line (start 7.711 -7.049) (end 7.711 -1.44)
    (stroke (width 0.12) (type solid)) (layer "F.SilkS") (tstamp e4ec4112-33dc-4615-a68a-173c7273ccf5))
  (fp_line (start 7.711 1.44) (end 7.711 7.049)
    (stroke (width 0.12) (type solid)) (layer "F.SilkS") (tstamp 73f5ef4d-3803-4615-9e17-cfabcfe54f87))
  (fp_line (start 7.751 -7.027) (end 7.751 -1.44)
    (stroke (width 0.12) (type solid)) (layer "F.SilkS") (tstamp 27960dbd-3042-4f39-91ec-f6e8b7fab61e))
  (fp_line (start 7.751 1.44) (end 7.751 7.027)
    (stroke (width 0.12) (type solid)) (layer "F.SilkS") (tstamp 1d3cb038-edd5-4616-bdd0-d8e2e4417895))
  (fp_line (start 7.791 -7.004) (end 7.791 -1.44)
    (stroke (width 0.12) (type solid)) (layer "F.SilkS") (tstamp 99787706-1612-4b4c-8ca4-cfde5b6b0281))
  (fp_line (start 7.791 1.44) (end 7.791 7.004)
    (stroke (width 0.12) (type solid)) (layer "F.SilkS") (tstamp 05f1297b-159b-478f-a1e5-a47d18389d58))
  (fp_line (start 7.831 -6.981) (end 7.831 -1.44)
    (stroke (width 0.12) (type solid)) (layer "F.SilkS") (tstamp 6f327dbc-6217-4f30-a532-a305c5586583))
  (fp_line (start 7.831 1.44) (end 7.831 6.981)
    (stroke (width 0.12) (type solid)) (layer "F.SilkS") (tstamp ac2aff22-8f54-4a0c-85e8-23fb38d2b056))
  (fp_line (start 7.871 -6.958) (end 7.871 -1.44)
    (stroke (width 0.12) (type solid)) (layer "F.SilkS") (tstamp df8ed424-89f1-47c2-b55a-b663d67a303e))
  (fp_line (start 7.871 1.44) (end 7.871 6.958)
    (stroke (width 0.12) (type solid)) (layer "F.SilkS") (tstamp b720855c-379c-41c9-ae1e-c025188e90c8))
  (fp_line (start 7.911 -6.934) (end 7.911 -1.44)
    (stroke (width 0.12) (type solid)) (layer "F.SilkS") (tstamp d45b49e5-a110-4e52-a63a-38959111a42a))
  (fp_line (start 7.911 1.44) (end 7.911 6.934)
    (stroke (width 0.12) (type solid)) (layer "F.SilkS") (tstamp ff2786ef-273c-4fc8-82ea-6123b18fc02c))
  (fp_line (start 7.951 -6.91) (end 7.951 -1.44)
    (stroke (width 0.12) (type solid)) (layer "F.SilkS") (tstamp 31d7b433-910b-4d3d-b652-ea2be7483b70))
  (fp_line (start 7.951 1.44) (end 7.951 6.91)
    (stroke (width 0.12) (type solid)) (layer "F.SilkS") (tstamp 925fac11-1608-42e0-8c91-bf0987435a63))
  (fp_line (start 7.991 -6.886) (end 7.991 -1.44)
    (stroke (width 0.12) (type solid)) (layer "F.SilkS") (tstamp 06a28f06-a795-4f71-adf7-3c891e715d5f))
  (fp_line (start 7.991 1.44) (end 7.991 6.886)
    (stroke (width 0.12) (type solid)) (layer "F.SilkS") (tstamp 0fc6f992-cd45-47e5-aecd-28a4dfc68ad9))
  (fp_line (start 8.031 -6.861) (end 8.031 -1.44)
    (stroke (width 0.12) (type solid)) (layer "F.SilkS") (tstamp b370034d-6119-4d48-8957-cc4ee8d96bd3))
  (fp_line (start 8.031 1.44) (end 8.031 6.861)
    (stroke (width 0.12) (type solid)) (layer "F.SilkS") (tstamp 3d0a88c0-c1ba-429c-8344-49e1be849272))
  (fp_line (start 8.071 -6.836) (end 8.071 -1.44)
    (stroke (width 0.12) (type solid)) (layer "F.SilkS") (tstamp 341e7d56-6415-4705-bd2f-a8e1b7b1044d))
  (fp_line (start 8.071 1.44) (end 8.071 6.836)
    (stroke (width 0.12) (type solid)) (layer "F.SilkS") (tstamp 7ea29530-57f0-4551-a94b-251b6644f8a6))
  (fp_line (start 8.111 -6.811) (end 8.111 -1.44)
    (stroke (width 0.12) (type solid)) (layer "F.SilkS") (tstamp d50ce9c1-1e68-430e-bab5-f13d955ac003))
  (fp_line (start 8.111 1.44) (end 8.111 6.811)
    (stroke (width 0.12) (type solid)) (layer "F.SilkS") (tstamp edd89e8b-0d7a-41cf-9c20-27313edee6ff))
  (fp_line (start 8.151 -6.785) (end 8.151 -1.44)
    (stroke (width 0.12) (type solid)) (layer "F.SilkS") (tstamp da784e01-57ec-4c56-be51-87e37141203a))
  (fp_line (start 8.151 1.44) (end 8.151 6.785)
    (stroke (width 0.12) (type solid)) (layer "F.SilkS") (tstamp 37ce8b17-3f2a-47d4-94a6-668bac9d95d8))
  (fp_line (start 8.191 -6.759) (end 8.191 -1.44)
    (stroke (width 0.12) (type solid)) (layer "F.SilkS") (tstamp a75bce6e-18cf-45ea-8792-7f939ea19b0a))
  (fp_line (start 8.191 1.44) (end 8.191 6.759)
    (stroke (width 0.12) (type solid)) (layer "F.SilkS") (tstamp 011d6a78-04cb-4457-937a-7ead191d09a0))
  (fp_line (start 8.231 -6.733) (end 8.231 -1.44)
    (stroke (width 0.12) (type solid)) (layer "F.SilkS") (tstamp 5ba78817-f5cf-4eb1-9d45-87b86e651e82))
  (fp_line (start 8.231 1.44) (end 8.231 6.733)
    (stroke (width 0.12) (type solid)) (layer "F.SilkS") (tstamp 6c5c2400-dc7d-4a1d-af24-1cd67deb56d7))
  (fp_line (start 8.271 -6.706) (end 8.271 -1.44)
    (stroke (width 0.12) (type solid)) (layer "F.SilkS") (tstamp be6d65b2-d771-494b-8494-f40e66650e88))
  (fp_line (start 8.271 1.44) (end 8.271 6.706)
    (stroke (width 0.12) (type solid)) (layer "F.SilkS") (tstamp 7a1f0990-bca3-4a20-86b0-683e3a8d8a75))
  (fp_line (start 8.311 -6.679) (end 8.311 -1.44)
    (stroke (width 0.12) (type solid)) (layer "F.SilkS") (tstamp 48f8e029-d9fb-4d29-94d4-47213aa55c63))
  (fp_line (start 8.311 1.44) (end 8.311 6.679)
    (stroke (width 0.12) (type solid)) (layer "F.SilkS") (tstamp c5cd4e02-75d6-4b47-b86d-e37ff75cd7d9))
  (fp_line (start 8.351 -6.652) (end 8.351 -1.44)
    (stroke (width 0.12) (type solid)) (layer "F.SilkS") (tstamp 30947402-d8e1-4886-8e5b-eb739d046006))
  (fp_line (start 8.351 1.44) (end 8.351 6.652)
    (stroke (width 0.12) (type solid)) (layer "F.SilkS") (tstamp 96747a69-8cdc-4808-b59f-0c7f533915af))
  (fp_line (start 8.391 -6.624) (end 8.391 -1.44)
    (stroke (width 0.12) (type solid)) (layer "F.SilkS") (tstamp 92522cb4-8251-4e05-bbb6-a39de9c1e4af))
  (fp_line (start 8.391 1.44) (end 8.391 6.624)
    (stroke (width 0.12) (type solid)) (layer "F.SilkS") (tstamp c1d7189c-af63-4b9a-aa68-7a5561407fd8))
  (fp_line (start 8.431 -6.596) (end 8.431 -1.44)
    (stroke (width 0.12) (type solid)) (layer "F.SilkS") (tstamp 58233b0b-5638-4e31-add0-61d83190cf19))
  (fp_line (start 8.431 1.44) (end 8.431 6.596)
    (stroke (width 0.12) (type solid)) (layer "F.SilkS") (tstamp e4c4df88-6594-472d-9a83-6e73d1e663a1))
  (fp_line (start 8.471 -6.568) (end 8.471 -1.44)
    (stroke (width 0.12) (type solid)) (layer "F.SilkS") (tstamp e3dc6cc8-e5b1-41c8-ad98-b6d83f50da0e))
  (fp_line (start 8.471 1.44) (end 8.471 6.568)
    (stroke (width 0.12) (type solid)) (layer "F.SilkS") (tstamp 3e314e99-7b67-40f9-aee5-66d7d6569faa))
  (fp_line (start 8.511 -6.539) (end 8.511 -1.44)
    (stroke (width 0.12) (type solid)) (layer "F.SilkS") (tstamp 89fd5db6-e5ac-4763-b000-a8766b4896c1))
  (fp_line (start 8.511 1.44) (end 8.511 6.539)
    (stroke (width 0.12) (type solid)) (layer "F.SilkS") (tstamp 52b306ec-9943-4098-87c1-baffe402aab5))
  (fp_line (start 8.551 -6.51) (end 8.551 -1.44)
    (stroke (width 0.12) (type solid)) (layer "F.SilkS") (tstamp f1e6eed2-5509-4a55-b69e-2ca0b842d242))
  (fp_line (start 8.551 1.44) (end 8.551 6.51)
    (stroke (width 0.12) (type solid)) (layer "F.SilkS") (tstamp 6d4b9d02-a49a-41a1-b8e3-3ec7b5b27e98))
  (fp_line (start 8.591 -6.48) (end 8.591 -1.44)
    (stroke (width 0.12) (type solid)) (layer "F.SilkS") (tstamp eacc0f4d-8fbd-48ab-8bef-8ee23bf49391))
  (fp_line (start 8.591 1.44) (end 8.591 6.48)
    (stroke (width 0.12) (type solid)) (layer "F.SilkS") (tstamp 8b73774f-5a38-4d45-83d0-9ce992e18a37))
  (fp_line (start 8.631 -6.45) (end 8.631 -1.44)
    (stroke (width 0.12) (type solid)) (layer "F.SilkS") (tstamp bc7873ba-ee55-4dfd-8205-db145f09a434))
  (fp_line (start 8.631 1.44) (end 8.631 6.45)
    (stroke (width 0.12) (type solid)) (layer "F.SilkS") (tstamp 85181835-174f-4653-868b-727035d2c89a))
  (fp_line (start 8.671 -6.42) (end 8.671 -1.44)
    (stroke (width 0.12) (type solid)) (layer "F.SilkS") (tstamp 26f5cad9-ab47-4be4-97b5-c47a92593a2a))
  (fp_line (start 8.671 1.44) (end 8.671 6.42)
    (stroke (width 0.12) (type solid)) (layer "F.SilkS") (tstamp cbaa5a81-fa4d-4109-83af-765fe0010ef2))
  (fp_line (start 8.711 -6.39) (end 8.711 -1.44)
    (stroke (width 0.12) (type solid)) (layer "F.SilkS") (tstamp 7f90c1de-c508-482d-b3c1-ce2237c561f4))
  (fp_line (start 8.711 1.44) (end 8.711 6.39)
    (stroke (width 0.12) (type solid)) (layer "F.SilkS") (tstamp b2b3b0a6-e2be-496e-87f4-16119850f567))
  (fp_line (start 8.751 -6.358) (end 8.751 -1.44)
    (stroke (width 0.12) (type solid)) (layer "F.SilkS") (tstamp 90feacf5-3329-4c5c-b049-414607f1d05d))
  (fp_line (start 8.751 1.44) (end 8.751 6.358)
    (stroke (width 0.12) (type solid)) (layer "F.SilkS") (tstamp 5300f2b0-fb95-4ee6-986e-3f392e568b03))
  (fp_line (start 8.791 -6.327) (end 8.791 -1.44)
    (stroke (width 0.12) (type solid)) (layer "F.SilkS") (tstamp 5477ec4c-e355-4778-ad2a-7a8c7c67b784))
  (fp_line (start 8.791 1.44) (end 8.791 6.327)
    (stroke (width 0.12) (type solid)) (layer "F.SilkS") (tstamp af71000b-409b-4e53-8064-f1dec56c36f9))
  (fp_line (start 8.831 -6.295) (end 8.831 -1.44)
    (stroke (width 0.12) (type solid)) (layer "F.SilkS") (tstamp 76251a55-adb4-490a-a65f-389f8b78cc6c))
  (fp_line (start 8.831 1.44) (end 8.831 6.295)
    (stroke (width 0.12) (type solid)) (layer "F.SilkS") (tstamp c3921f39-d7a1-4e58-848e-b1561795a782))
  (fp_line (start 8.871 -6.263) (end 8.871 -1.44)
    (stroke (width 0.12) (type solid)) (layer "F.SilkS") (tstamp e55ee16c-1e7f-40d9-b2d2-9cef57d32c85))
  (fp_line (start 8.871 1.44) (end 8.871 6.263)
    (stroke (width 0.12) (type solid)) (layer "F.SilkS") (tstamp 1ab64811-b361-4067-84aa-c259292634a5))
  (fp_line (start 8.911 -6.23) (end 8.911 -1.44)
    (stroke (width 0.12) (type solid)) (layer "F.SilkS") (tstamp 4179b5ee-786c-4dfa-8b3e-9194e01d9a14))
  (fp_line (start 8.911 1.44) (end 8.911 6.23)
    (stroke (width 0.12) (type solid)) (layer "F.SilkS") (tstamp c5e5b878-92dc-461f-922f-d04beefe2d28))
  (fp_line (start 8.951 -6.197) (end 8.951 6.197)
    (stroke (width 0.12) (type solid)) (layer "F.SilkS") (tstamp 0ada6a7e-4570-49a2-ac9a-b05c0a4dbe13))
  (fp_line (start 8.991 -6.163) (end 8.991 6.163)
    (stroke (width 0.12) (type solid)) (layer "F.SilkS") (tstamp 501116f8-ed62-4667-a6d0-e298cb041b1f))
  (fp_line (start 9.031 -6.129) (end 9.031 6.129)
    (stroke (width 0.12) (type solid)) (layer "F.SilkS") (tstamp 6ad544da-029c-4794-9b49-086c398606e2))
  (fp_line (start 9.071 -6.095) (end 9.071 6.095)
    (stroke (width 0.12) (type solid)) (layer "F.SilkS") (tstamp 9272df09-226a-4a13-8d4f-4fc8cd864f90))
  (fp_line (start 9.111 -6.06) (end 9.111 6.06)
    (stroke (width 0.12) (type solid)) (layer "F.SilkS") (tstamp a40b0dfc-36f6-4009-97f1-a6592e09abe5))
  (fp_line (start 9.151 -6.025) (end 9.151 6.025)
    (stroke (width 0.12) (type solid)) (layer "F.SilkS") (tstamp 143cc7bc-7120-4539-bf73-5a53f85fffe2))
  (fp_line (start 9.191 -5.989) (end 9.191 5.989)
    (stroke (width 0.12) (type solid)) (layer "F.SilkS") (tstamp 38a325d2-0293-40e2-947f-db1b36b83e53))
  (fp_line (start 9.231 -5.952) (end 9.231 5.952)
    (stroke (width 0.12) (type solid)) (layer "F.SilkS") (tstamp b66fc58a-5306-437f-bb3e-b204019af39d))
  (fp_line (start 9.271 -5.916) (end 9.271 5.916)
    (stroke (width 0.12) (type solid)) (layer "F.SilkS") (tstamp a86650e8-8384-4af0-ad6f-4f8ca55c473b))
  (fp_line (start 9.311 -5.878) (end 9.311 5.878)
    (stroke (width 0.12) (type solid)) (layer "F.SilkS") (tstamp 5ba41736-f595-4244-bc56-3346a0ae7cd0))
  (fp_line (start 9.351 -5.84) (end 9.351 5.84)
    (stroke (width 0.12) (type solid)) (layer "F.SilkS") (tstamp 1ccb014f-e034-4f2e-8478-358210a4f311))
  (fp_line (start 9.391 -5.802) (end 9.391 5.802)
    (stroke (width 0.12) (type solid)) (layer "F.SilkS") (tstamp bd5f5de8-d00e-482f-bf8c-4bf4703c541d))
  (fp_line (start 9.431 -5.763) (end 9.431 5.763)
    (stroke (width 0.12) (type solid)) (layer "F.SilkS") (tstamp 7bfe72fe-eb25-4c21-9c92-98fee8d0ca51))
  (fp_line (start 9.471 -5.724) (end 9.471 5.724)
    (stroke (width 0.12) (type solid)) (layer "F.SilkS") (tstamp 2bf97d70-10f9-4733-8274-ff75aa1c21b6))
  (fp_line (start 9.511 -5.684) (end 9.511 5.684)
    (stroke (width 0.12) (type solid)) (layer "F.SilkS") (tstamp 512944ee-fc66-4985-89cf-e7ea1fd5ef1f))
  (fp_line (start 9.551 -5.643) (end 9.551 5.643)
    (stroke (width 0.12) (type solid)) (layer "F.SilkS") (tstamp fd12f385-1a19-47fe-80ca-b3334e3308a9))
  (fp_line (start 9.591 -5.602) (end 9.591 5.602)
    (stroke (width 0.12) (type solid)) (layer "F.SilkS") (tstamp 1e2bc496-f898-4376-b506-a4a4aab66e11))
  (fp_line (start 9.631 -5.56) (end 9.631 5.56)
    (stroke (width 0.12) (type solid)) (layer "F.SilkS") (tstamp 63712190-3f11-4843-9bc1-ad588fd06efb))
  (fp_line (start 9.671 -5.518) (end 9.671 5.518)
    (stroke (width 0.12) (type solid)) (layer "F.SilkS") (tstamp 2df9ebf6-c05d-4532-ae96-0719e7ac3ae1))
  (fp_line (start 9.711 -5.475) (end 9.711 5.475)
    (stroke (width 0.12) (type solid)) (layer "F.SilkS") (tstamp 97a419a4-8048-47b9-9991-151dcb94cf12))
  (fp_line (start 9.751 -5.432) (end 9.751 5.432)
    (stroke (width 0.12) (type solid)) (layer "F.SilkS") (tstamp 78739a25-5fe2-493e-bf46-140d1a0511d9))
  (fp_line (start 9.791 -5.388) (end 9.791 5.388)
    (stroke (width 0.12) (type solid)) (layer "F.SilkS") (tstamp 64c322a3-8d05-4a44-b779-46b3ebbb248d))
  (fp_line (start 9.831 -5.343) (end 9.831 5.343)
    (stroke (width 0.12) (type solid)) (layer "F.SilkS") (tstamp 54bf0ac2-fcb7-4d5d-ac78-d07dbd196825))
  (fp_line (start 9.871 -5.297) (end 9.871 5.297)
    (stroke (width 0.12) (type solid)) (layer "F.SilkS") (tstamp 912e106f-4040-4441-ab21-7262b0f1c879))
  (fp_line (start 9.911 -5.251) (end 9.911 5.251)
    (stroke (width 0.12) (type solid)) (layer "F.SilkS") (tstamp 69043ed7-b942-4b03-96a7-233a465545a9))
  (fp_line (start 9.951 -5.204) (end 9.951 5.204)
    (stroke (width 0.12) (type solid)) (layer "F.SilkS") (tstamp 62f88737-bf4d-4c92-b991-960b138dda36))
  (fp_line (start 9.991 -5.156) (end 9.991 5.156)
    (stroke (width 0.12) (type solid)) (layer "F.SilkS") (tstamp f3fb64f1-9f46-4c53-97b5-c81a7a332728))
  (fp_line (start 10.031 -5.108) (end 10.031 5.108)
    (stroke (width 0.12) (type solid)) (layer "F.SilkS") (tstamp ebc746eb-d97e-4426-b50e-627955dcae43))
  (fp_line (start 10.071 -5.059) (end 10.071 5.059)
    (stroke (width 0.12) (type solid)) (layer "F.SilkS") (tstamp a8f728d5-31a7-4a72-80d3-61a0ac08bed6))
  (fp_line (start 10.111 -5.009) (end 10.111 5.009)
    (stroke (width 0.12) (type solid)) (layer "F.SilkS") (tstamp 49751470-b346-4421-a90e-8de077b4edd6))
  (fp_line (start 10.151 -4.958) (end 10.151 4.958)
    (stroke (width 0.12) (type solid)) (layer "F.SilkS") (tstamp 46ea77c5-3323-4258-87f6-70e85f0de392))
  (fp_line (start 10.191 -4.906) (end 10.191 4.906)
    (stroke (width 0.12) (type solid)) (layer "F.SilkS") (tstamp afcefd19-c7d6-4cf8-8d2f-f000ac0201fd))
  (fp_line (start 10.231 -4.854) (end 10.231 4.854)
    (stroke (width 0.12) (type solid)) (layer "F.SilkS") (tstamp c3caad7e-8668-412b-a5b8-e210ca25a278))
  (fp_line (start 10.271 -4.8) (end 10.271 4.8)
    (stroke (width 0.12) (type solid)) (layer "F.SilkS") (tstamp 964b63ae-2906-4282-966e-c5d27d48018d))
  (fp_line (start 10.311 -4.746) (end 10.311 4.746)
    (stroke (width 0.12) (type solid)) (layer "F.SilkS") (tstamp e4bba2aa-1cef-4174-8080-7e6fbe64c247))
  (fp_line (start 10.351 -4.691) (end 10.351 4.691)
    (stroke (width 0.12) (type solid)) (layer "F.SilkS") (tstamp 77ad52ca-f1ad-4cb4-9450-ca3b83dc1bf0))
  (fp_line (start 10.391 -4.634) (end 10.391 4.634)
    (stroke (width 0.12) (type solid)) (layer "F.SilkS") (tstamp 8c14cc18-545f-4169-b8aa-85c0361d6ddb))
  (fp_line (start 10.431 -4.577) (end 10.431 4.577)
    (stroke (width 0.12) (type solid)) (layer "F.SilkS") (tstamp ccdb5196-5611-4268-ad94-9df51f587ca0))
  (fp_line (start 10.471 -4.519) (end 10.471 4.519)
    (stroke (width 0.12) (type solid)) (layer "F.SilkS") (tstamp aa9a9fff-89de-4300-a25a-93882be63a46))
  (fp_line (start 10.511 -4.459) (end 10.511 4.459)
    (stroke (width 0.12) (type solid)) (layer "F.SilkS") (tstamp 3518422a-7e42-4248-98b1-48b08826e740))
  (fp_line (start 10.551 -4.398) (end 10.551 4.398)
    (stroke (width 0.12) (type solid)) (layer "F.SilkS") (tstamp 1639f819-10de-40bf-bfc3-6a4108f52cb0))
  (fp_line (start 10.591 -4.336) (end 10.591 4.336)
    (stroke (width 0.12) (type solid)) (layer "F.SilkS") (tstamp 2d7a8a0b-a0d5-489e-a5c4-3f4ff1d4dbf8))
  (fp_line (start 10.631 -4.273) (end 10.631 4.273)
    (stroke (width 0.12) (type solid)) (layer "F.SilkS") (tstamp 10df9005-6238-47a3-b7f2-cc999ad517bb))
  (fp_line (start 10.671 -4.209) (end 10.671 4.209)
    (stroke (width 0.12) (type solid)) (layer "F.SilkS") (tstamp a8afe646-5c09-495d-a880-b354fe84f94a))
  (fp_line (start 10.711 -4.143) (end 10.711 4.143)
    (stroke (width 0.12) (type solid)) (layer "F.SilkS") (tstamp 92ce238d-437d-49ac-9a64-6c2554dddc0c))
  (fp_line (start 10.751 -4.076) (end 10.751 4.076)
    (stroke (width 0.12) (type solid)) (layer "F.SilkS") (tstamp 8c6358de-6c10-470a-83e1-221fd05f4421))
  (fp_line (start 10.791 -4.007) (end 10.791 4.007)
    (stroke (width 0.12) (type solid)) (layer "F.SilkS") (tstamp a4c68fa2-c47b-4b99-aa5a-228b36bb0af6))
  (fp_line (start 10.831 -3.936) (end 10.831 3.936)
    (stroke (width 0.12) (type solid)) (layer "F.SilkS") (tstamp af3ff4b7-ee53-4cc2-a7a7-518608fcb6cb))
  (fp_line (start 10.871 -3.864) (end 10.871 3.864)
    (stroke (width 0.12) (type solid)) (layer "F.SilkS") (tstamp 66c59cbf-45fb-4b39-b205-d4ce01d3e346))
  (fp_line (start 10.911 -3.79) (end 10.911 3.79)
    (stroke (width 0.12) (type solid)) (layer "F.SilkS") (tstamp 79276818-0c7c-4691-878e-cd5e8e776ca2))
  (fp_line (start 10.951 -3.715) (end 10.951 3.715)
    (stroke (width 0.12) (type solid)) (layer "F.SilkS") (tstamp 65b11900-21d1-48c6-af5b-8726f6e85a6c))
  (fp_line (start 10.991 -3.637) (end 10.991 3.637)
    (stroke (width 0.12) (type solid)) (layer "F.SilkS") (tstamp 64a19e13-6af0-4e71-b3c0-3b8b963d94d2))
  (fp_line (start 11.031 -3.557) (end 11.031 3.557)
    (stroke (width 0.12) (type solid)) (layer "F.SilkS") (tstamp 8b3c2601-00af-4c6c-96a3-9dc7b98c89c5))
  (fp_line (start 11.071 -3.475) (end 11.071 3.475)
    (stroke (width 0.12) (type solid)) (layer "F.SilkS") (tstamp e50d50d3-307f-4816-8e62-e7bc5f6c1d99))
  (fp_line (start 11.111 -3.39) (end 11.111 3.39)
    (stroke (width 0.12) (type solid)) (layer "F.SilkS") (tstamp c04b16c7-49f3-47f2-8cc1-d5728a877dc3))
  (fp_line (start 11.151 -3.303) (end 11.151 3.303)
    (stroke (width 0.12) (type solid)) (layer "F.SilkS") (tstamp 826c10f5-6364-47ca-b607-8906cfe4e853))
  (fp_line (start 11.191 -3.213) (end 11.191 3.213)
    (stroke (width 0.12) (type solid)) (layer "F.SilkS") (tstamp e35440c2-0fbe-4b8f-b1c9-c88a89534af1))
  (fp_line (start 11.231 -3.12) (end 11.231 3.12)
    (stroke (width 0.12) (type solid)) (layer "F.SilkS") (tstamp 741670f3-e54d-41bf-9152-602ab24e3d34))
  (fp_line (start 11.271 -3.024) (end 11.271 3.024)
    (stroke (width 0.12) (type solid)) (layer "F.SilkS") (tstamp f38815fa-073a-46c5-87b1-57afec7a8760))
  (fp_line (start 11.311 -2.924) (end 11.311 2.924)
    (stroke (width 0.12) (type solid)) (layer "F.SilkS") (tstamp 35375f57-0098-40cc-b764-05eefe230301))
  (fp_line (start 11.351 -2.82) (end 11.351 2.82)
    (stroke (width 0.12) (type solid)) (layer "F.SilkS") (tstamp cdafca79-1b8d-4f44-af57-4e6f0b69e59b))
  (fp_line (start 11.391 -2.711) (end 11.391 2.711)
    (stroke (width 0.12) (type solid)) (layer "F.SilkS") (tstamp bfff87a5-4a9b-4e5f-8d80-121619b6a670))
  (fp_line (start 11.431 -2.597) (end 11.431 2.597)
    (stroke (width 0.12) (type solid)) (layer "F.SilkS") (tstamp 304965f7-109c-4680-afce-5752a7128d22))
  (fp_line (start 11.471 -2.478) (end 11.471 2.478)
    (stroke (width 0.12) (type solid)) (layer "F.SilkS") (tstamp e2897d82-142c-4bc6-ad59-69039183354e))
  (fp_line (start 11.511 -2.351) (end 11.511 2.351)
    (stroke (width 0.12) (type solid)) (layer "F.SilkS") (tstamp 7fc1a54e-27ae-4a61-9788-6dcb6fdc0e1e))
  (fp_line (start 11.551 -2.218) (end 11.551 2.218)
    (stroke (width 0.12) (type solid)) (layer "F.SilkS") (tstamp 0e4b711b-da11-4cc5-ba01-2be65cd474ed))
  (fp_line (start 11.591 -2.074) (end 11.591 2.074)
    (stroke (width 0.12) (type solid)) (layer "F.SilkS") (tstamp f1310660-b6d1-46fa-91d1-90580f995262))
  (fp_line (start 11.631 -1.92) (end 11.631 1.92)
    (stroke (width 0.12) (type solid)) (layer "F.SilkS") (tstamp dd31056a-2022-4136-a6e9-7457fe000aec))
  (fp_line (start 11.671 -1.752) (end 11.671 1.752)
    (stroke (width 0.12) (type solid)) (layer "F.SilkS") (tstamp ed48c60f-e41a-4365-9947-09bcb0ee7e06))
  (fp_line (start 11.711 -1.564) (end 11.711 1.564)
    (stroke (width 0.12) (type solid)) (layer "F.SilkS") (tstamp 6054b991-c214-446e-bbb1-2b9209e8207c))
  (fp_line (start 11.751 -1.351) (end 11.751 1.351)
    (stroke (width 0.12) (type solid)) (layer "F.SilkS") (tstamp 2378f227-d56d-45cc-b049-7f1bdad83189))
  (fp_line (start 11.791 -1.098) (end 11.791 1.098)
    (stroke (width 0.12) (type solid)) (layer "F.SilkS") (tstamp 52766dad-880b-4f69-9772-f27873498287))
  (fp_line (start 11.831 -0.765) (end 11.831 0.765)
    (stroke (width 0.12) (type solid)) (layer "F.SilkS") (tstamp d698bc00-7602-4500-bcf5-371483189d65))
  (fp_circle (center 3.75 0) (end 11.87 0)
    (stroke (width 0.12) (type solid)) (fill none) (layer "F.SilkS") (tstamp fae1c974-d8d8-45ac-89a8-aef3eb4bd795))
  (fp_circle (center 3.75 0) (end 12 0)
    (stroke (width 0.05) (type solid)) (fill none) (layer "F.CrtYd") (tstamp ac0b1d76-fb2d-4299-a78e-1a1a0e9606f7))
  (fp_line (start -3.125168 -3.5075) (end -1.525168 -3.5075)
    (stroke (width 0.1) (type solid)) (layer "F.Fab") (tstamp fd3a35c6-b17b-463b-99fd-426cdecaa26e))
  (fp_line (start -2.325168 -4.3075) (end -2.325168 -2.7075)
    (stroke (width 0.1) (type solid)) (layer "F.Fab") (tstamp 2dd255eb-39f9-466d-adc4-acd86a7635b2))
  (fp_circle (center 3.75 0) (end 11.75 0)
    (stroke (width 0.1) (type solid)) (fill none) (layer "F.Fab") (tstamp 10942e53-7169-42ec-8514-92d0cefd5e91))
  (pad "1" thru_hole rect (at 0 0) (size 2.4 2.4) (drill 1.2) (layers "*.Cu" "*.Mask") (tstamp cd8e5efd-c17a-485e-9f53-61c1f1153755))
  (pad "2" thru_hole circle (at 7.5 0) (size 2.4 2.4) (drill 1.2) (layers "*.Cu" "*.Mask") (tstamp 4d7bfbba-79c9-4319-892b-a0ed2b2890c3))
  (model "${KICAD6_3DMODEL_DIR}/Capacitor_THT.3dshapes/CP_Radial_D16.0mm_P7.50mm.wrl"
    (offset (xyz 0 0 0))
    (scale (xyz 1 1 2.1))
    (rotate (xyz 0 0 0))
  )
)
