(footprint "CUI_SDS-50J"
	(version 20240108)
	(generator "pcbnew")
	(generator_version "8.0")
	(layer "F.Cu")
	(descr "DIN-5 connector")
	(property "Reference" "REF**"
		(at -6.825 -9.635 0)
		(layer "F.SilkS")
		(uuid "ee4ce453-e10d-48d2-80ce-6c5c07e14696")
		(effects
			(font
				(size 1 1)
				(thickness 0.15)
			)
		)
	)
	(property "Value" "CUI_SDS-50J"
		(at -3.015 8.635 0)
		(layer "F.Fab")
		(uuid "f17e73f3-e557-4fad-8f12-a2bf3f450dcd")
		(effects
			(font
				(size 1 1)
				(thickness 0.15)
			)
		)
	)
	(property "Footprint" ""
		(at 0 0 0)
		(unlocked yes)
		(layer "F.Fab")
		(hide yes)
		(uuid "d28d7d86-b4fd-43e6-91a5-0d8642098b23")
		(effects
			(font
				(size 1.27 1.27)
			)
		)
	)
	(property "Datasheet" ""
		(at 0 0 0)
		(unlocked yes)
		(layer "F.Fab")
		(hide yes)
		(uuid "51746cf6-18b3-4b27-ae29-6459490260ff")
		(effects
			(font
				(size 1.27 1.27)
			)
		)
	)
	(property "Description" ""
		(at 0 0 0)
		(unlocked yes)
		(layer "F.Fab")
		(hide yes)
		(uuid "0b6ac727-af1b-4816-895e-d9b22ddd7146")
		(effects
			(font
				(size 1.27 1.27)
			)
		)
	)
	(attr through_hole)
	(fp_line
		(start -10 -8.3)
		(end -6.5 -8.3)
		(stroke
			(width 0.127)
			(type solid)
		)
		(layer "F.SilkS")
		(uuid "6f38ab5d-1a9a-4efb-a8c2-7fadefa909df")
	)
	(fp_line
		(start -10 7)
		(end -10 -8.3)
		(stroke
			(width 0.127)
			(type solid)
		)
		(layer "F.SilkS")
		(uuid "65a51cda-2555-41d9-b342-1bb27cc41cd3")
	)
	(fp_line
		(start 6.5 -8.3)
		(end 10 -8.3)
		(stroke
			(width 0.127)
			(type solid)
		)
		(layer "F.SilkS")
		(uuid "44dec005-5910-475c-8034-d6ed9cfd3277")
	)
	(fp_line
		(start 10 -8.3)
		(end 10 7)
		(stroke
			(width 0.127)
			(type solid)
		)
		(layer "F.SilkS")
		(uuid "db80fca0-2c3c-4cc4-b478-c4244c77c884")
	)
	(fp_line
		(start -10.25 -8.55)
		(end -6.25 -8.55)
		(stroke
			(width 0.05)
			(type solid)
		)
		(layer "F.CrtYd")
		(uuid "b0d3151e-7463-4221-a740-73cca32dddb3")
	)
	(fp_line
		(start -10.25 7.75)
		(end -10.25 -8.55)
		(stroke
			(width 0.05)
			(type solid)
		)
		(layer "F.CrtYd")
		(uuid "a669066f-7e7e-43f8-8bb4-258aa993a6db")
	)
	(fp_line
		(start -6.25 -8.75)
		(end 6.25 -8.75)
		(stroke
			(width 0.05)
			(type solid)
		)
		(layer "F.CrtYd")
		(uuid "05eada3a-c970-4822-9f19-2a779cde7c26")
	)
	(fp_line
		(start -6.25 -8.55)
		(end -6.25 -8.75)
		(stroke
			(width 0.05)
			(type solid)
		)
		(layer "F.CrtYd")
		(uuid "df215b0d-f0ce-4317-9d83-f11adcc9ffb5")
	)
	(fp_line
		(start 6.25 -8.75)
		(end 6.25 -8.55)
		(stroke
			(width 0.05)
			(type solid)
		)
		(layer "F.CrtYd")
		(uuid "0073fea0-c01f-459f-ac3d-0ec849a3d374")
	)
	(fp_line
		(start 6.25 -8.55)
		(end 10.25 -8.55)
		(stroke
			(width 0.05)
			(type solid)
		)
		(layer "F.CrtYd")
		(uuid "f778082c-f637-4843-9ffb-2c9008b91b16")
	)
	(fp_line
		(start 10.25 -8.55)
		(end 10.25 7.75)
		(stroke
			(width 0.05)
			(type solid)
		)
		(layer "F.CrtYd")
		(uuid "2d3b9f28-504c-4957-87bb-d382dce15baf")
	)
	(fp_line
		(start 10.25 7.75)
		(end -10.25 7.75)
		(stroke
			(width 0.05)
			(type solid)
		)
		(layer "F.CrtYd")
		(uuid "5d03df3d-18c1-4e23-9f92-eb2c604b6dc6")
	)
	(fp_line
		(start -10 -8.3)
		(end 10 -8.3)
		(stroke
			(width 0.127)
			(type solid)
		)
		(layer "F.Fab")
		(uuid "b9fffaf1-dac2-4ae0-98a1-ca75a2d5f9b0")
	)
	(fp_line
		(start -10 7)
		(end -10 -8.3)
		(stroke
			(width 0.127)
			(type solid)
		)
		(layer "F.Fab")
		(uuid "5dc7e54f-e775-4b9b-a16a-9b23454def16")
	)
	(fp_line
		(start -10 7.5)
		(end 10 7.5)
		(stroke
			(width 0.1)
			(type default)
		)
		(layer "F.Fab")
		(uuid "55c63335-de1a-47e5-8457-b2b4ab523fa8")
	)
	(fp_line
		(start 10 -8.3)
		(end 10 7)
		(stroke
			(width 0.127)
			(type solid)
		)
		(layer "F.Fab")
		(uuid "b44c6f0d-6cd7-4774-9511-9b3b6b6a6fa5")
	)
	(fp_text user "CONNECTOR FACE"
		(at -3.5 7.5 0)
		(unlocked yes)
		(layer "F.Fab")
		(uuid "e3416845-7175-4f51-8937-7758da6980b6")
		(effects
			(font
				(size 0.5 0.5)
				(thickness 0.07)
				(italic yes)
			)
			(justify left bottom)
		)
	)
	(pad "" np_thru_hole circle
		(at -7.5 0)
		(size 2.4 2.4)
		(drill 2.4)
		(layers "*.Cu" "*.Mask")
		(uuid "81feb28c-fdd2-48bf-bb42-d3b69e99d94a")
	)
	(pad "" np_thru_hole circle
		(at 7.5 0)
		(size 2.4 2.4)
		(drill 2.4)
		(layers "*.Cu" "*.Mask")
		(uuid "9801aaec-0f81-4ea5-a2da-cbd26094d454")
	)
	(pad "1" thru_hole rect
		(at 7.5 -5)
		(size 1.95 1.95)
		(drill 1.3)
		(layers "*.Cu" "*.Mask")
		(remove_unused_layers no)
		(uuid "62cc1e7d-48ba-42a6-abdc-005bfa33cb06")
	)
	(pad "2" thru_hole circle
		(at 0 -5)
		(size 1.95 1.95)
		(drill 1.3)
		(layers "*.Cu" "*.Mask")
		(remove_unused_layers no)
		(uuid "b0833f34-ae1c-4a08-b4b7-509e1eb37007")
	)
	(pad "3" thru_hole circle
		(at -7.5 -5)
		(size 1.95 1.95)
		(drill 1.3)
		(layers "*.Cu" "*.Mask")
		(remove_unused_layers no)
		(uuid "fb7980b1-e060-4bc6-a539-3f54ed5ef20e")
	)
	(pad "4" thru_hole circle
		(at 5 -7.5)
		(size 1.95 1.95)
		(drill 1.3)
		(layers "*.Cu" "*.Mask")
		(remove_unused_layers no)
		(uuid "79f07371-ef47-43e3-bfb2-25191e0272fe")
	)
	(pad "5" thru_hole circle
		(at -5 -7.5)
		(size 1.95 1.95)
		(drill 1.3)
		(layers "*.Cu" "*.Mask")
		(remove_unused_layers no)
		(uuid "eb2f6d84-888f-4638-bfa5-cc88e20cb3f7")
	)
	(pad "SH" thru_hole circle
		(at -2.5 5)
		(size 1.95 1.95)
		(drill 1.3)
		(layers "*.Cu" "*.Mask")
		(remove_unused_layers no)
		(uuid "0bab7fcf-45de-4037-b773-21e23121fa52")
	)
	(pad "SH" thru_hole circle
		(at 2.5 5)
		(size 1.95 1.95)
		(drill 1.3)
		(layers "*.Cu" "*.Mask")
		(remove_unused_layers no)
		(uuid "45d83b76-c009-487b-8e8b-de03b158ffde")
	)
	(model "${XANLIB}/3d/SDS-50J--3DModel-STEP-56544.STEP"
		(offset
			(xyz 0 0 0)
		)
		(scale
			(xyz 1 1 1)
		)
		(rotate
			(xyz -90 0 0)
		)
	)
)