(footprint "Disp-14seg-5241BS" (version 20221018) (generator pcbnew)
  (layer "F.Cu")
  (attr through_hole)
  (fp_text reference "REF**" (at 0 -1.5 unlocked) (layer "F.SilkS")
      (effects (font (size 1 1) (thickness 0.15)))
    (tstamp da3508cc-bdab-483d-9843-9c3d93879254)
  )
  (fp_text value "Disp-14seg-5241BS" (at 0 0 unlocked) (layer "F.Fab")
      (effects (font (size 1 1) (thickness 0.15)))
    (tstamp 1d0e8a5f-1623-4c29-998f-987284158ab4)
  )
  (fp_text user "X.X." (at 0 8.6 unlocked) (layer "F.SilkS")
      (effects (font (size 12 8) (thickness 0.5) italic) (justify bottom))
    (tstamp dd7330cf-51a5-4bd6-9a6b-54e72d2a12ff)
  )
  (fp_text user "${REFERENCE}" (at 0 1.5 unlocked) (layer "F.Fab")
      (effects (font (size 1 1) (thickness 0.15)))
    (tstamp e54e753a-5d0a-4747-8b4b-1438baef1c9c)
  )
  (fp_text user "DIGIT SPACING = 12.7mm" (at 0 -7.4 unlocked) (layer "F.Fab")
      (effects (font (size 1 1) (thickness 0.15)) (justify bottom))
    (tstamp fee0854c-e8b3-4150-a032-f9764a5fd9fa)
  )
  (fp_rect (start -12.25 -10.25) (end 12.25 10.25)
    (stroke (width 0.12) (type default)) (fill none) (layer "F.SilkS") (tstamp 454ed77c-5be1-48a2-a5e2-b95088b3b4fd))
  (fp_circle (center -11.25 9.25) (end -10.75 9.25)
    (stroke (width 0.12) (type solid)) (fill solid) (layer "F.SilkS") (tstamp 2ff9797d-1a37-4d63-8f08-15c1669e9bcd))
  (fp_line (start -11 6.8) (end -9.8 -6.8)
    (stroke (width 0.1) (type default)) (layer "F.Fab") (tstamp aa602346-e5a0-4e97-a213-b35b1f315aa4))
  (fp_line (start -11 6.8) (end -3 6.8)
    (stroke (width 0.1) (type default)) (layer "F.Fab") (tstamp e25c13a3-88c5-4b02-9574-00975f515688))
  (fp_line (start -9.8 -6.8) (end -1.8 -6.8)
    (stroke (width 0.1) (type default)) (layer "F.Fab") (tstamp 9501775a-8b66-4425-a275-03ad5005ef85))
  (fp_line (start -3 6.8) (end -1.8 -6.8)
    (stroke (width 0.1) (type default)) (layer "F.Fab") (tstamp 6ad722d3-5794-4626-adb7-c9b74dc66c78))
  (fp_line (start 1.6 6.8) (end 2.8 -6.8)
    (stroke (width 0.1) (type default)) (layer "F.Fab") (tstamp 58f983ab-1ac4-4152-aa08-d4143814118f))
  (fp_line (start 1.6 6.8) (end 9.6 6.8)
    (stroke (width 0.1) (type default)) (layer "F.Fab") (tstamp 60fe96c9-888b-49e9-8b76-43f14a548763))
  (fp_line (start 2.8 -6.8) (end 10.8 -6.8)
    (stroke (width 0.1) (type default)) (layer "F.Fab") (tstamp 3729ac3d-2f0c-44a7-85aa-57eb2397f76d))
  (fp_line (start 9.6 6.8) (end 10.8 -6.8)
    (stroke (width 0.1) (type default)) (layer "F.Fab") (tstamp 65c64ae5-9d1f-4694-9536-708906268551))
  (fp_rect (start -12.55 -10.575) (end 12.55 10.575)
    (stroke (width 0.1) (type default)) (fill none) (layer "F.Fab") (tstamp 0fe2bc57-ab76-40b2-ab24-e576e2a0bcac))
  (pad "1" thru_hole roundrect (at -10.16 7.62) (size 1.524 1.524) (drill 0.762) (layers *.Cu *.Mask) (roundrect_rratio 0.25) (tstamp 938ba34d-4771-49af-a120-d2416fe162db))
  (pad "2" thru_hole circle (at -7.62 7.62) (size 1.524 1.524) (drill 0.762) (layers *.Cu *.Mask) (tstamp b855917e-fec3-4e1b-a55c-4675b0f9d05a))
  (pad "4" thru_hole circle (at -2.54 7.62) (size 1.524 1.524) (drill 0.762) (layers *.Cu *.Mask) (tstamp f4d92d0a-455e-497f-9c80-ad9e258fbaf0))
  (pad "5" thru_hole circle (at 0 7.62) (size 1.524 1.524) (drill 0.762) (layers *.Cu *.Mask) (tstamp d0ad4b47-ffe5-4e7c-a16f-d835a2b9b039))
  (pad "6" thru_hole circle (at 2.54 7.62) (size 1.524 1.524) (drill 0.762) (layers *.Cu *.Mask) (tstamp 6630b798-76e6-45c3-8ea6-24c002d094cf))
  (pad "7" thru_hole circle (at 5.08 7.62) (size 1.524 1.524) (drill 0.762) (layers *.Cu *.Mask) (tstamp e797631e-7fd9-41dc-a4ce-1cdd6a179bba))
  (pad "8" thru_hole circle (at 7.62 7.62) (size 1.524 1.524) (drill 0.762) (layers *.Cu *.Mask) (tstamp 7c594e3c-7a6f-45e0-8818-9e433b46d825))
  (pad "9" thru_hole circle (at 10.16 7.62) (size 1.524 1.524) (drill 0.762) (layers *.Cu *.Mask) (tstamp f7ee556a-cd84-434e-aab9-0c10cfb58664))
  (pad "10" thru_hole circle (at 10.16 -7.62) (size 1.524 1.524) (drill 0.762) (layers *.Cu *.Mask) (tstamp 774dcf00-677f-406e-b8dd-34b35b9a7efe))
  (pad "11" thru_hole circle (at 7.62 -7.62) (size 1.524 1.524) (drill 0.762) (layers *.Cu *.Mask) (tstamp eff83b83-da28-43a1-98d3-46d869cccd39))
  (pad "12" thru_hole circle (at 5.08 -7.62) (size 1.524 1.524) (drill 0.762) (layers *.Cu *.Mask) (tstamp 8f6f053e-e3e6-49fd-afdd-097f0a3da184))
  (pad "13" thru_hole circle (at 2.54 -7.62) (size 1.524 1.524) (drill 0.762) (layers *.Cu *.Mask) (tstamp 8e9c2e3b-3cbe-42fa-8aa1-2fbf03687ee3))
  (pad "14" thru_hole circle (at 0 -7.62) (size 1.524 1.524) (drill 0.762) (layers *.Cu *.Mask) (tstamp 6652a797-6b94-40c9-a954-ef5545c004fe))
  (pad "15" thru_hole circle (at -2.54 -7.62) (size 1.524 1.524) (drill 0.762) (layers *.Cu *.Mask) (tstamp ebf9e88f-61b0-462d-a33d-1cc4d93229f7))
  (pad "16" thru_hole circle (at -5.08 -7.62) (size 1.524 1.524) (drill 0.762) (layers *.Cu *.Mask) (tstamp 7f0601cb-24b8-4de6-9ddc-3d16a1d56fb4))
  (pad "17" thru_hole circle (at -7.62 -7.62) (size 1.524 1.524) (drill 0.762) (layers *.Cu *.Mask) (tstamp 2632b962-6616-430b-b76a-bee1717a086a))
  (pad "18" thru_hole circle (at -10.16 -7.62) (size 1.524 1.524) (drill 0.762) (layers *.Cu *.Mask) (tstamp 8af23512-c0a1-472c-9427-c727ca93e5d4))
  (model ":XANLIB:3d/Cube-1x1x1mm.step"
    (offset (xyz 0 0 0))
    (scale (xyz 25.1 21.15 8.5))
    (rotate (xyz 0 0 0))
  )
)
