(footprint "Fuse-Eaton-1245" (version 20221018) (generator pcbnew)
  (layer "F.Cu")
  (attr smd)
  (fp_text reference "REF**" (at 0 -1.5 unlocked) (layer "F.SilkS")
      (effects (font (size 0.8 0.8) (thickness 0.15)))
    (tstamp c453464a-3241-4159-b2ea-c2aff258545c)
  )
  (fp_text value "Fuse-Eaton-1245" (at 0 0 unlocked) (layer "F.Fab")
      (effects (font (size 0.8 0.8) (thickness 0.15)))
    (tstamp 1d5754ad-d7d6-4cd1-85d7-1b30ebb5fd83)
  )
  (fp_text user "${REFERENCE}" (at 0 1.5 unlocked) (layer "F.Fab")
      (effects (font (size 0.8 0.8) (thickness 0.15)))
    (tstamp d66d8859-643f-44f4-92ca-4a20418772d1)
  )
  (fp_line (start -3 -2.75) (end 3 -2.75)
    (stroke (width 0.2) (type default)) (layer "F.SilkS") (tstamp e4f1e635-4530-4be5-8a2c-c75df9f72b94))
  (fp_line (start -3 2.75) (end 3 2.75)
    (stroke (width 0.2) (type default)) (layer "F.SilkS") (tstamp 7ba34f8b-ad0d-4dc2-9a02-1c73b62b05d6))
  (fp_arc (start -1.5 0) (mid -0.75 -0.75) (end 0 0)
    (stroke (width 0.2) (type default)) (layer "F.SilkS") (tstamp 26706549-8643-47a1-b909-fdd6ce7cc659))
  (fp_arc (start 1.5 0) (mid 0.75 0.75) (end 0 0)
    (stroke (width 0.2) (type default)) (layer "F.SilkS") (tstamp 133a96e3-9945-4420-b118-4e6bc589d429))
  (fp_rect (start -7.15 -3.05) (end 7.15 3.05)
    (stroke (width 0.05) (type default)) (fill none) (layer "F.CrtYd") (tstamp 539e5da0-5a06-4e60-bc43-70239f5ae6e4))
  (fp_rect (start -6 -2.25) (end 6 2.25)
    (stroke (width 0.1) (type default)) (fill none) (layer "F.Fab") (tstamp 777c4d51-5c68-46cc-ac93-df7b903a6419))
  (pad "1" smd roundrect (at -5.15 0) (size 3.5 5.6) (layers "F.Cu" "F.Paste" "F.Mask") (roundrect_rratio 0.25)
    (thermal_bridge_angle 45) (tstamp 5d74707b-134a-49f9-b831-139a572f991e))
  (pad "2" smd roundrect (at 5.15 0) (size 3.5 5.6) (layers "F.Cu" "F.Paste" "F.Mask") (roundrect_rratio 0.25)
    (thermal_bridge_angle 45) (tstamp 13d99c8e-6b98-49c7-996b-153fc270680d))
)
