(footprint "Fuseholder_Clip-5x20mm_Keystone_3512_Inline_P23.62x7.27mm_D1.02x1.57mm_Horizontal" (version 20230517) (generator pcbnew)
  (layer "F.Cu")
  (descr "Fuseholder Clips, 5x20mm Cylinder Fuse, Pins Inline, Horizontal, Keystone 3512, http://www.keyelco.com/product-pdf.cfm?p=356")
  (tags "fuse clip open")
  (attr through_hole)
  (fp_text reference "REF**" (at 11.81 -4.5) (layer "F.SilkS") (tstamp 0a7544f5-5161-4eb8-9d0e-92ecb292b2b0)
    (effects (font (size 1 1) (thickness 0.15)))
  )
  (fp_text value "Fuseholder_Clip-5x20mm_Keystone_3512_Inline_P23.62x7.27mm_D1.02x1.57mm_Horizontal" (at 11.555 4.5) (layer "F.Fab") (tstamp 1436a783-6564-4cf1-b04a-2e5a11e5eb64)
    (effects (font (size 1 1) (thickness 0.15)))
  )
  (fp_line (start 0.51 -3.175) (end 0.51 -1.6)
    (stroke (width 0.12) (type solid)) (layer "F.SilkS") (tstamp 76905880-725a-462d-b269-bf15bdd3487a))
  (fp_line (start 0.51 3.175) (end 0.51 1.6)
    (stroke (width 0.12) (type solid)) (layer "F.SilkS") (tstamp 619cdd21-5bfa-43f7-a620-3f39ca77c47d))
  (fp_line (start 6.76 -3.175) (end 0.51 -3.175)
    (stroke (width 0.12) (type solid)) (layer "F.SilkS") (tstamp ba379001-8a2f-4d3a-935e-d0598e96bab4))
  (fp_line (start 6.76 -3.175) (end 6.76 -1.6)
    (stroke (width 0.12) (type solid)) (layer "F.SilkS") (tstamp 006ee3ed-debe-4691-83ff-02d6d0593074))
  (fp_line (start 6.76 3.175) (end 0.51 3.175)
    (stroke (width 0.12) (type solid)) (layer "F.SilkS") (tstamp 006e2d2d-ea55-4517-8464-6fa4323dbbb5))
  (fp_line (start 6.76 3.175) (end 6.76 1.6)
    (stroke (width 0.12) (type solid)) (layer "F.SilkS") (tstamp 3bf9d9e3-3041-4ea1-ad6f-34bc1dc2c61a))
  (fp_line (start 16.86 -3.175) (end 16.86 -1.4)
    (stroke (width 0.12) (type solid)) (layer "F.SilkS") (tstamp 74d3a132-2947-4901-bc7f-d869835b09c4))
  (fp_line (start 16.86 -2.5) (end 6.76 -2.5)
    (stroke (width 0.12) (type solid)) (layer "F.SilkS") (tstamp 1ba404f0-04ad-4385-9d95-7df0d1a185bb))
  (fp_line (start 16.86 2.5) (end 6.76 2.5)
    (stroke (width 0.12) (type solid)) (layer "F.SilkS") (tstamp b1be4d84-c1d3-4423-a438-5b8aab47cf76))
  (fp_line (start 16.86 3.175) (end 16.86 1.4)
    (stroke (width 0.12) (type solid)) (layer "F.SilkS") (tstamp 0d85a382-c005-4748-b335-df7644a39b93))
  (fp_line (start 16.86 3.175) (end 23.11 3.175)
    (stroke (width 0.12) (type solid)) (layer "F.SilkS") (tstamp 0e844798-58b5-40d6-82fe-e86239f9ed61))
  (fp_line (start 23.11 -3.175) (end 16.86 -3.175)
    (stroke (width 0.12) (type solid)) (layer "F.SilkS") (tstamp b36e399c-fd07-48dc-9ff5-2204b47fbf43))
  (fp_line (start 23.11 -1.4) (end 23.11 -3.175)
    (stroke (width 0.12) (type solid)) (layer "F.SilkS") (tstamp 092e7d37-8400-4bb1-b982-de410524d5ad))
  (fp_line (start 23.11 1.4) (end 23.11 3.175)
    (stroke (width 0.12) (type solid)) (layer "F.SilkS") (tstamp a1e1e66a-1ccb-4b67-a0ae-0e4ba63b448c))
  (fp_line (start -1.35 -3.43) (end -1.35 3.43)
    (stroke (width 0.05) (type solid)) (layer "F.CrtYd") (tstamp c5eadc3a-a238-4717-a7be-7ea411c3e051))
  (fp_line (start -1.35 -3.43) (end 24.97 -3.43)
    (stroke (width 0.05) (type solid)) (layer "F.CrtYd") (tstamp 5e23f656-42f1-49ba-9065-f0060c8bd0c8))
  (fp_line (start 24.97 3.43) (end -1.35 3.43)
    (stroke (width 0.05) (type solid)) (layer "F.CrtYd") (tstamp c4103d5d-d800-4fc4-a8aa-ae98d32157d8))
  (fp_line (start 24.97 3.43) (end 24.97 -3.43)
    (stroke (width 0.05) (type solid)) (layer "F.CrtYd") (tstamp 2bad4e8b-36aa-4a0b-ab67-e9477132d368))
  (fp_line (start 0.51 -3.175) (end 6.76 -3.175)
    (stroke (width 0.1) (type solid)) (layer "F.Fab") (tstamp bc53214e-c35a-4232-aa65-7d7a85a50d5b))
  (fp_line (start 0.51 3.175) (end 0.51 -3.175)
    (stroke (width 0.1) (type solid)) (layer "F.Fab") (tstamp 7689129e-1bb3-40b6-8372-84ac358ffd8c))
  (fp_line (start 6.76 -3.175) (end 6.76 3.175)
    (stroke (width 0.1) (type solid)) (layer "F.Fab") (tstamp 8b77f24d-f7cd-444b-ab03-794d7a0142bc))
  (fp_line (start 6.76 -2.5) (end 16.86 -2.5)
    (stroke (width 0.1) (type solid)) (layer "F.Fab") (tstamp 7808a6a2-6879-4bfa-8e14-54461307a776))
  (fp_line (start 6.76 3.175) (end 0.51 3.175)
    (stroke (width 0.1) (type solid)) (layer "F.Fab") (tstamp dd038ad4-76ef-437e-9f4f-6b7fc7622117))
  (fp_line (start 16.86 -3.175) (end 16.86 3.175)
    (stroke (width 0.1) (type solid)) (layer "F.Fab") (tstamp 08bde83c-13ad-46b4-a6d3-b0304a376443))
  (fp_line (start 16.86 2.5) (end 6.76 2.5)
    (stroke (width 0.1) (type solid)) (layer "F.Fab") (tstamp d8a8e656-94cb-4a0a-b6af-8fccae1d35bd))
  (fp_line (start 16.86 3.175) (end 23.11 3.175)
    (stroke (width 0.1) (type solid)) (layer "F.Fab") (tstamp f2518bdf-dfcb-414a-be5f-be02942363ae))
  (fp_line (start 23.11 -3.175) (end 16.86 -3.175)
    (stroke (width 0.1) (type solid)) (layer "F.Fab") (tstamp 1f237565-0c19-4f15-a7f3-5a6af74fe928))
  (fp_line (start 23.11 3.175) (end 23.11 -3.175)
    (stroke (width 0.1) (type solid)) (layer "F.Fab") (tstamp 71fb0dd0-7f7d-4578-8182-fe7618936e64))
  (fp_text user "${REFERENCE}" (at 11.81 0) (layer "F.Fab") (tstamp 481216d5-b80b-4cc5-9ced-a9b7689cce71)
    (effects (font (size 1 1) (thickness 0.15)))
  )
  (pad "1" thru_hole roundrect (at 0 0) (size 2 2.8) (drill oval 1.02 1.87) (layers "*.Cu" "*.Mask") (roundrect_rratio 0.25) (tstamp f4f19b50-41f2-4d25-9e20-0ba8b7e9341d))
  (pad "1" thru_hole roundrect (at 7.27 0) (size 2 2.8) (drill oval 1.02 1.87) (layers "*.Cu" "*.Mask") (roundrect_rratio 0.25) (tstamp d0b95d2b-fcbe-4a4e-bc55-a0bb10a8db6e))
  (pad "2" thru_hole oval (at 16.35 0) (size 2 2.8) (drill oval 1.02 1.87) (layers "*.Cu" "*.Mask") (tstamp 89d56407-28a2-4abe-be89-c96c82f164b8))
  (pad "2" thru_hole oval (at 23.62 0) (size 2 2.8) (drill oval 1.02 1.87) (layers "*.Cu" "*.Mask") (tstamp 2e710243-54dd-4d59-ae18-135e4df4f90e))
  (model ":XANLIB:3d/keystone-PN3512.STEP"
    (offset (xyz 1.3 0 0))
    (scale (xyz 1 1 1))
    (rotate (xyz -90 0 -90))
  )
  (model ":XANLIB:3d/keystone-PN3512.STEP"
    (offset (xyz 22.3 0 0))
    (scale (xyz 1 1 1))
    (rotate (xyz -90 0 90))
  )
  (model ":XANLIB:3d/5x20fuse.stp"
    (offset (xyz 12 0 5.4))
    (scale (xyz 1 1 1))
    (rotate (xyz 0 90 0))
  )
)
