(footprint "L_Bourns_SRP1038A" (version 20220621) (generator pcbnew)
  (layer "F.Cu")
  (descr "Bourns SRP1038A series SMD inductor")
  (attr smd)
  (fp_text reference "REF**" (at 0 -6) (layer "F.SilkS")
      (effects (font (size 1 1) (thickness 0.15)))
    (tstamp 7e4ca0f5-9208-47b9-b921-c0da3d20581d)
  )
  (fp_text value "L_Bourns_SRP1038A" (at 0 4) (layer "F.Fab")
      (effects (font (size 1 1) (thickness 0.15)))
    (tstamp e85025d0-4ba8-40be-8134-fd6264f8780f)
  )
  (fp_text user "${REFERENCE}" (at 0 0) (layer "F.Fab")
      (effects (font (size 1 1) (thickness 0.15)))
    (tstamp b6e97932-11c5-4d76-b73b-f6d08df9f92c)
  )
  (fp_line (start -6 -4.5) (end -6 -2.5)
    (stroke (width 0.12) (type default)) (layer "F.SilkS") (tstamp ea6b148b-4b27-4512-a437-ed63be476a49))
  (fp_line (start -6 4.5) (end -6 2.5)
    (stroke (width 0.12) (type default)) (layer "F.SilkS") (tstamp c02971bb-cc90-4ce9-b6e0-5db09a7fdfbd))
  (fp_line (start -5 -5.5) (end 5 -5.5)
    (stroke (width 0.12) (type default)) (layer "F.SilkS") (tstamp e16b8b80-ea3f-4730-ba6f-090ce42bd528))
  (fp_line (start -5 5.5) (end 5 5.5)
    (stroke (width 0.12) (type default)) (layer "F.SilkS") (tstamp 35fcc365-caad-4f2d-bced-8d22fbf361f0))
  (fp_line (start 6 -4.5) (end 6 -2.5)
    (stroke (width 0.12) (type default)) (layer "F.SilkS") (tstamp 46878c01-c4e1-4d5e-97c2-b57e1b877caf))
  (fp_line (start 6 4.5) (end 6 2.5)
    (stroke (width 0.12) (type default)) (layer "F.SilkS") (tstamp 3a5229ae-89ee-420d-ba71-19cc4b4ee364))
  (fp_arc (start -6 -4.5) (mid -5.707107 -5.207107) (end -5 -5.5)
    (stroke (width 0.12) (type default)) (layer "F.SilkS") (tstamp 1ce749b5-82b4-43c8-8365-f6bdc5187bc9))
  (fp_arc (start -5 5.5) (mid -5.707107 5.207107) (end -6 4.5)
    (stroke (width 0.12) (type default)) (layer "F.SilkS") (tstamp 87bcb934-abd3-4eb7-ac56-7c5d953da5ca))
  (fp_arc (start 5 -5.5) (mid 5.707107 -5.207107) (end 6 -4.5)
    (stroke (width 0.12) (type default)) (layer "F.SilkS") (tstamp 7108b432-0d74-4e47-9c5a-a4e3cdae9cf6))
  (fp_arc (start 6 4.5) (mid 5.707107 5.207107) (end 5 5.5)
    (stroke (width 0.12) (type default)) (layer "F.SilkS") (tstamp 5b9240b5-f32c-4ad6-a472-f2b3c910a5da))
  (fp_line (start -7.05 -2) (end -6 -2)
    (stroke (width 0.05) (type default)) (layer "F.CrtYd") (tstamp 9b07ab57-101c-42a2-9ede-8eed2d0dc8f3))
  (fp_line (start -7.05 2) (end -7.05 -2)
    (stroke (width 0.05) (type default)) (layer "F.CrtYd") (tstamp 750195c3-4cd2-4c95-a50c-eb2314fc867b))
  (fp_line (start -6 -2) (end -6 -4.5)
    (stroke (width 0.05) (type default)) (layer "F.CrtYd") (tstamp e2e1dc62-fa7b-499a-9053-32d2c03e6283))
  (fp_line (start -6 2) (end -7.05 2)
    (stroke (width 0.05) (type default)) (layer "F.CrtYd") (tstamp 868e2779-8dcb-4439-92b4-b987d2aa8f06))
  (fp_line (start -6 4.5) (end -6 2)
    (stroke (width 0.05) (type default)) (layer "F.CrtYd") (tstamp 34233eca-3b14-49ae-b643-0fe4a8e9a396))
  (fp_line (start -5 -5.5) (end 5 -5.5)
    (stroke (width 0.05) (type default)) (layer "F.CrtYd") (tstamp 7feccf99-384e-4da9-b4a9-b63dba71b731))
  (fp_line (start 5 5.5) (end -5 5.5)
    (stroke (width 0.05) (type default)) (layer "F.CrtYd") (tstamp 37687569-a110-4f22-b4ba-db09fdbba7e1))
  (fp_line (start 6 -4.5) (end 6 -2)
    (stroke (width 0.05) (type default)) (layer "F.CrtYd") (tstamp f3585552-f0a4-437d-a650-7f7c626f074f))
  (fp_line (start 6 -2) (end 7.05 -2)
    (stroke (width 0.05) (type default)) (layer "F.CrtYd") (tstamp 75ac6073-4667-488e-932f-2b2d2fa5622d))
  (fp_line (start 6 2) (end 6 4.5)
    (stroke (width 0.05) (type default)) (layer "F.CrtYd") (tstamp 0853af51-35f5-4921-81c4-a0bdf2dbc10a))
  (fp_line (start 7.05 -2) (end 7.05 2)
    (stroke (width 0.05) (type default)) (layer "F.CrtYd") (tstamp e4ee64c1-54b8-4ac8-bcf4-277b286eab58))
  (fp_line (start 7.05 2) (end 6 2)
    (stroke (width 0.05) (type default)) (layer "F.CrtYd") (tstamp 4969d3a6-f5af-463e-9f80-243e7aa86bf2))
  (fp_arc (start -6 -4.5) (mid -5.707107 -5.207107) (end -5 -5.5)
    (stroke (width 0.05) (type default)) (layer "F.CrtYd") (tstamp 9150ebb1-899c-46e0-b8bc-cd48bf99f136))
  (fp_arc (start -5 5.5) (mid -5.707107 5.207107) (end -6 4.5)
    (stroke (width 0.05) (type default)) (layer "F.CrtYd") (tstamp a265e4fb-3420-44d1-98b4-c6f7e06b05e2))
  (fp_arc (start 5 -5.5) (mid 5.707107 -5.207107) (end 6 -4.5)
    (stroke (width 0.05) (type default)) (layer "F.CrtYd") (tstamp 7d3f70df-293a-4891-81da-d5dce3220d02))
  (fp_arc (start 6 4.5) (mid 5.707107 5.207107) (end 5 5.5)
    (stroke (width 0.05) (type default)) (layer "F.CrtYd") (tstamp a8b3e035-7bb4-40b5-864e-14cda85edfe1))
  (fp_line (start -5.5 4.5) (end -5.5 -4.5)
    (stroke (width 0.1) (type default)) (layer "F.Fab") (tstamp 38202919-e668-4ac6-9ce0-1c3ea31ce338))
  (fp_line (start -5 -5) (end 5 -5)
    (stroke (width 0.1) (type default)) (layer "F.Fab") (tstamp 2e8c40d4-e631-4ee3-8892-290b4c1d7e0c))
  (fp_line (start 5 5) (end -5 5)
    (stroke (width 0.1) (type default)) (layer "F.Fab") (tstamp 0f9c1ef0-0197-48fc-b9dc-209ba7a53bc5))
  (fp_line (start 5.5 -4.5) (end 5.5 4.5)
    (stroke (width 0.1) (type default)) (layer "F.Fab") (tstamp b037518f-0e8e-4f04-975a-003d833f8b68))
  (fp_arc (start -5.5 -4.5) (mid -5.353553 -4.853553) (end -5 -5)
    (stroke (width 0.1) (type default)) (layer "F.Fab") (tstamp fc4e289f-a13c-4d84-9dd2-d6fac4a89d24))
  (fp_arc (start -5 5) (mid -5.353553 4.853553) (end -5.5 4.5)
    (stroke (width 0.1) (type default)) (layer "F.Fab") (tstamp 41c52f3e-6361-41fd-bbd1-17a1cf76f6ff))
  (fp_arc (start 5 -5) (mid 5.353553 -4.853553) (end 5.5 -4.5)
    (stroke (width 0.1) (type default)) (layer "F.Fab") (tstamp b23627ad-4866-4cd6-bf9c-e4aa3b98e302))
  (fp_arc (start 5.5 4.5) (mid 5.353553 4.853553) (end 5 5)
    (stroke (width 0.1) (type default)) (layer "F.Fab") (tstamp b55a1797-91be-4fb5-b269-cc093d644890))
  (pad "1" smd roundrect (at -4.75 0) (size 4.1 3.5) (layers "F.Cu" "F.Paste" "F.Mask") (roundrect_rratio 0.1) (tstamp aea2910a-e861-4e09-b378-a2169c5e03cb))
  (pad "2" smd roundrect (at 4.75 0) (size 4.1 3.5) (layers "F.Cu" "F.Paste" "F.Mask") (roundrect_rratio 0.1) (tstamp f656fcef-b902-4df2-952a-bf560ea141b4))
  (model "${XANLIB}/3d/SRP1038A_moved.stp"
    (offset (xyz 0 0 0))
    (scale (xyz 1 1 1))
    (rotate (xyz 0 0 0))
  )
)
