(footprint "PinHeader_1x03_P2.54mm_Vertical_Jumpered" (version 20230913) (generator pcbnew)
  (layer "F.Cu")
  (descr "Through hole straight pin header, 1x03, 2.54mm pitch, single row")
  (tags "Through hole pin header THT 1x03 2.54mm single row")
  (property "Reference" "REF**" (at 0 -2.33 0) (layer "F.SilkS") (tstamp 4a42150c-e2cb-48c8-8496-6e7fedd454bb)
    (effects (font (size 1 1) (thickness 0.15)))
  )
  (property "Value" "PinHeader_1x03_P2.54mm_Vertical_Jumpered" (at 0 7.41 0) (layer "F.Fab") (tstamp db29ad0b-b335-4faf-88c7-319c7ace35e3)
    (effects (font (size 1 1) (thickness 0.15)))
  )
  (property "Footprint" "" (at 0 0 0 unlocked) (layer "F.Fab") hide (tstamp d2cbc943-3d13-4953-ad97-a9b0128f7b1d)
    (effects (font (size 1.27 1.27)))
  )
  (property "Datasheet" "" (at 0 0 0 unlocked) (layer "F.Fab") hide (tstamp 54b64fe3-dd3b-4c19-90e3-e267ebc6507e)
    (effects (font (size 1.27 1.27)))
  )
  (property "Description" "" (at 0 0 0 unlocked) (layer "F.Fab") hide (tstamp c394f478-7843-40ed-8972-136689bf9a79)
    (effects (font (size 1.27 1.27)))
  )
  (attr through_hole)
  (fp_line (start -1.33 -1.27) (end -1.33 3.87)
    (stroke (width 0.12) (type solid)) (layer "F.SilkS") (tstamp 24199bf2-7a4c-47d7-a9d0-c8212ed52732))
  (fp_line (start -1.33 -1.27) (end 1.33 -1.27)
    (stroke (width 0.12) (type solid)) (layer "F.SilkS") (tstamp 7e0d3fed-d2a2-43ed-ac38-36961c14bfa4))
  (fp_line (start -1.33 3.87) (end 1.33 3.87)
    (stroke (width 0.12) (type solid)) (layer "F.SilkS") (tstamp 1b8d7228-c97e-4f3b-bb80-5394d1336ea8))
  (fp_line (start -1.33 4.378) (end -1.33 6.41)
    (stroke (width 0.12) (type default)) (layer "F.SilkS") (tstamp 29e6b6d7-839a-4573-a6d0-c9144bcc3b86))
  (fp_line (start 1.33 -1.27) (end 1.33 3.87)
    (stroke (width 0.12) (type solid)) (layer "F.SilkS") (tstamp 528d64f1-caad-4315-bf88-6b33a6c30761))
  (fp_line (start 1.33 4.378) (end 1.33 6.41)
    (stroke (width 0.12) (type default)) (layer "F.SilkS") (tstamp 8f81f7d7-f490-4e20-b1ce-16e197955ab3))
  (fp_line (start -1.8 -1.8) (end -1.8 6.85)
    (stroke (width 0.05) (type solid)) (layer "F.CrtYd") (tstamp 76c67b9f-3f15-4145-bbbc-8312e5795846))
  (fp_line (start -1.8 6.85) (end 1.8 6.85)
    (stroke (width 0.05) (type solid)) (layer "F.CrtYd") (tstamp 56a0eaa8-1f42-4824-9fc4-0cbfa375ec08))
  (fp_line (start 1.8 -1.8) (end -1.8 -1.8)
    (stroke (width 0.05) (type solid)) (layer "F.CrtYd") (tstamp 757b6603-0fa3-41f4-942f-2ab155c45604))
  (fp_line (start 1.8 6.85) (end 1.8 -1.8)
    (stroke (width 0.05) (type solid)) (layer "F.CrtYd") (tstamp 0624b2c1-b80d-48b5-9bf7-4536c6317e1c))
  (fp_line (start -1.27 -0.635) (end -0.635 -1.27)
    (stroke (width 0.1) (type solid)) (layer "F.Fab") (tstamp 890db0d5-b901-40c2-b3ae-477fdabfa366))
  (fp_line (start -1.27 6.35) (end -1.27 -0.635)
    (stroke (width 0.1) (type solid)) (layer "F.Fab") (tstamp f4fb5e79-dd44-4947-9d51-22633c17ad61))
  (fp_line (start -0.635 -1.27) (end 1.27 -1.27)
    (stroke (width 0.1) (type solid)) (layer "F.Fab") (tstamp 5eacb716-3494-462e-bcdc-e6b518f66765))
  (fp_line (start 1.27 -1.27) (end 1.27 6.35)
    (stroke (width 0.1) (type solid)) (layer "F.Fab") (tstamp 8e173d00-babf-4201-8f82-f5030a24fbf9))
  (fp_line (start 1.27 6.35) (end -1.27 6.35)
    (stroke (width 0.1) (type solid)) (layer "F.Fab") (tstamp 5a8bc881-5fff-4bac-96c1-41af6ae648ff))
  (fp_text user "${REFERENCE}" (at 0 2.54 90) (layer "F.Fab") (tstamp 788c9283-32be-4c0b-b74e-17c5f67f5b7f)
    (effects (font (size 1 1) (thickness 0.15)))
  )
  (pad "1" thru_hole rect (at 0 0) (size 1.7 1.7) (drill 1) (layers "*.Cu" "*.Mask")
    (tstamp c7351bc0-95e7-4de9-93f8-e2fc166956da)
  )
  (pad "2" thru_hole oval (at 0 2.54) (size 1.7 1.7) (drill 1) (layers "*.Cu" "*.Mask")
    (tstamp 2e14092c-1e97-4b3c-b1f4-9b887ef28570)
  )
  (pad "3" thru_hole oval (at 0 5.08) (size 1.7 1.7) (drill 1) (layers "*.Cu" "*.Mask")
    (tstamp 7072b420-9990-4d8f-a6b8-3c72e84d3433)
  )
  (model "${KICAD6_3DMODEL_DIR}/Connector_PinHeader_2.54mm.3dshapes/PinHeader_1x03_P2.54mm_Vertical.wrl"
    (offset (xyz 0 0 0))
    (scale (xyz 1 1 1))
    (rotate (xyz 0 0 0))
  )
  (model "${XANLIB}/3d/Header-Jumper-Wuerth-60900213421.stp"
    (offset (xyz 0 -1.27 5.56))
    (scale (xyz 1 1 1))
    (rotate (xyz 0 0 -90))
  )
)
