(footprint "PLCC-68_SMD-Socket-3M-8400-wPegs" (version 20211014) (generator pcbnew)
  (layer "F.Cu")
  (tedit 61D9C79D)
  (descr "PLCC, 68 pins, surface mount")
  (tags "plcc smt")
  (attr smd)
  (fp_text reference "REF**" (at 0 -16.475) (layer "F.SilkS")
    (effects (font (size 1 1) (thickness 0.15)))
    (tstamp 1de10e39-b66f-4eab-8536-4915b51a3800)
  )
  (fp_text value "PLCC-68_SMD-Socket" (at 0 16.475) (layer "F.Fab")
    (effects (font (size 1 1) (thickness 0.15)))
    (tstamp 3d4b43ab-5abe-44f7-b135-e396b4a32a61)
  )
  (fp_text user "${REFERENCE}" (at 0 0) (layer "F.Fab")
    (effects (font (size 1 1) (thickness 0.15)))
    (tstamp 35e5f7a6-05a9-4f99-b235-3a8264532772)
  )
  (fp_line (start 12.785 -12.785) (end 12.785 -11.135) (layer "F.SilkS") (width 0.1) (tstamp 05445c1b-cd7d-4545-8022-a2a3a37cdcbe))
  (fp_line (start 11.135 12.785) (end 12.785 12.785) (layer "F.SilkS") (width 0.1) (tstamp 167d488e-f06c-42b2-8778-1c59f8fb3e16))
  (fp_line (start -11.635 -12.785) (end -12.785 -11.635) (layer "F.SilkS") (width 0.1) (tstamp 2d6884e6-b074-4873-9e6b-1a63028351c1))
  (fp_line (start 15.625 -15.625) (end 1 -15.625) (layer "F.SilkS") (width 0.12) (tstamp 4645bb65-d5cd-475c-987c-6e45c68773c3))
  (fp_line (start -14.625 -15.625) (end -15.625 -14.625) (layer "F.SilkS") (width 0.12) (tstamp 69775868-5c08-4205-8e72-d4e36efc6168))
  (fp_line (start 12.785 12.785) (end 12.785 11.135) (layer "F.SilkS") (width 0.1) (tstamp 6e0950c7-cb84-45b5-8989-82e0ff354354))
  (fp_line (start -15.625 15.625) (end 15.625 15.625) (layer "F.SilkS") (width 0.12) (tstamp 6e949868-5826-4a66-8617-a380a341e62d))
  (fp_line (start 15.625 15.625) (end 15.625 -15.625) (layer "F.SilkS") (width 0.12) (tstamp 8914497b-f235-45e1-847c-e336c8c53733))
  (fp_line (start -12.785 12.785) (end -12.785 11.135) (layer "F.SilkS") (width 0.1) (tstamp 8d766c60-26f0-4928-a1eb-99f245e3d10a))
  (fp_line (start -11.135 12.785) (end -12.785 12.785) (layer "F.SilkS") (width 0.1) (tstamp 932d10cf-4162-43b6-8a6b-d8db223371a9))
  (fp_line (start 11.135 -12.785) (end 12.785 -12.785) (layer "F.SilkS") (width 0.1) (tstamp a0265a30-5d5c-4288-8872-e3ce7388586a))
  (fp_line (start -11.135 -12.785) (end -11.635 -12.785) (layer "F.SilkS") (width 0.1) (tstamp ac164e45-f418-4b20-98d2-3c003feef725))
  (fp_line (start -12.785 -11.635) (end -12.785 -11.135) (layer "F.SilkS") (width 0.1) (tstamp b3e510fd-d72b-4b88-bf52-672c0a0381bb))
  (fp_line (start -15.625 -14.625) (end -15.625 15.625) (layer "F.SilkS") (width 0.12) (tstamp d828e2a0-5f81-4b4d-bd6c-ac6d780ecdf5))
  (fp_line (start -1 -15.625) (end -14.625 -15.625) (layer "F.SilkS") (width 0.12) (tstamp dc853f2e-7e03-45f6-9dcf-93a04b23f4c2))
  (fp_line (start 15.95 15.95) (end 15.95 -15.95) (layer "F.CrtYd") (width 0.05) (tstamp 109a4c4e-643b-4151-a529-6eff4dc076e4))
  (fp_line (start -15.95 -15.95) (end -15.95 15.95) (layer "F.CrtYd") (width 0.05) (tstamp 82602072-d0fb-493a-9c66-b678b29d2248))
  (fp_line (start 15.95 -15.95) (end -15.95 -15.95) (layer "F.CrtYd") (width 0.05) (tstamp 8b8da0ec-4b33-4070-a0cb-5f953e87138f))
  (fp_line (start -15.95 15.95) (end 15.95 15.95) (layer "F.CrtYd") (width 0.05) (tstamp e5cfcc32-4207-4f06-9603-0777ef49326f))
  (fp_line (start 14.205 14.205) (end 14.205 -14.205) (layer "F.Fab") (width 0.1) (tstamp 06d369d9-4170-4336-828f-a22170d72116))
  (fp_line (start 14.205 -14.205) (end -14.205 -14.205) (layer "F.Fab") (width 0.1) (tstamp 0c23877a-e1f7-44ab-9c98-c280fc5907b6))
  (fp_line (start -12.635 -11.635) (end -12.635 12.635) (layer "F.Fab") (width 0.1) (tstamp 1677dc18-1ddd-4a76-9017-6dbb508a2faa))
  (fp_line (start -15.475 -14.475) (end -15.475 15.475) (layer "F.Fab") (width 0.1) (tstamp 23291455-4463-4ac4-b06a-cc9cbecb57f3))
  (fp_line (start -11.635 -12.635) (end -12.635 -11.635) (layer "F.Fab") (width 0.1) (tstamp 2ddea809-4e51-4fe7-8b66-7dc8f739c156))
  (fp_line (start -15.475 15.475) (end 15.475 15.475) (layer "F.Fab") (width 0.1) (tstamp 31f7f94b-3965-4412-b42a-d603a8c939e3))
  (fp_line (start 0 -14.475) (end 0.5 -15.475) (layer "F.Fab") (width 0.1) (tstamp 4ce35d2d-71f5-4505-b586-c5e9a977eef3))
  (fp_line (start -0.5 -15.475) (end 0 -14.475) (layer "F.Fab") (width 0.1) (tstamp 4e152d82-b2f4-4fbb-8730-d34cc787629e))
  (fp_line (start -14.205 14.205) (end 14.205 14.205) (layer "F.Fab") (width 0.1) (tstamp 58901b05-17d0-4f6d-9bb1-2abb951d2d55))
  (fp_line (start -14.205 -14.205) (end -14.205 14.205) (layer "F.Fab") (width 0.1) (tstamp a003e1b6-1636-42c7-8a2a-f0da7c35afdf))
  (fp_line (start -12.635 12.635) (end 12.635 12.635) (layer "F.Fab") (width 0.1) (tstamp b8b1b36a-81c4-43b4-ab95-bff2fb95a3fe))
  (fp_line (start 12.635 12.635) (end 12.635 -12.635) (layer "F.Fab") (width 0.1) (tstamp d6f04c90-033e-464d-88b2-967f33438f2a))
  (fp_line (start 15.475 15.475) (end 15.475 -15.475) (layer "F.Fab") (width 0.1) (tstamp d82feda3-54c7-4a23-8215-371ba5f8b1ad))
  (fp_line (start -14.475 -15.475) (end -15.475 -14.475) (layer "F.Fab") (width 0.1) (tstamp d8897811-7383-4617-991d-b491acfbf04a))
  (fp_line (start 12.635 -12.635) (end -11.635 -12.635) (layer "F.Fab") (width 0.1) (tstamp defb5a87-0275-48f7-942f-394a7664e2e0))
  (fp_line (start 15.475 -15.475) (end -14.475 -15.475) (layer "F.Fab") (width 0.1) (tstamp e129c284-dfa3-4ca3-b1b7-bdaf8b473f89))
  (pad "" np_thru_hole circle (at 13.97 -13.97) (size 1.8 1.8) (drill 1.8) (layers *.Mask) (tstamp 8c3d4f24-ba33-4901-9984-9f3f659946a2))
  (pad "" np_thru_hole circle (at 13.97 13.97) (size 1.8 1.8) (drill 1.8) (layers *.Mask) (tstamp 909bd77d-ad45-427a-bed8-b5fe240a7e1a))
  (pad "1" smd roundrect (at 0 -11.5725) (size 0.7 2.125) (layers "F.Cu" "F.Paste" "F.Mask") (roundrect_rratio 0.25) (tstamp d648a05b-688f-4928-9ba8-1f107ffdf8f0))
  (pad "2" smd roundrect (at -1.27 -11.5725) (size 0.7 2.125) (layers "F.Cu" "F.Paste" "F.Mask") (roundrect_rratio 0.25) (tstamp 0d4f32d7-e17f-4328-b854-ca7b28f6acb8))
  (pad "3" smd roundrect (at -2.54 -11.5725) (size 0.7 2.125) (layers "F.Cu" "F.Paste" "F.Mask") (roundrect_rratio 0.25) (tstamp af6258dc-e80d-4ccb-8a22-d81399e5cfdf))
  (pad "4" smd roundrect (at -3.81 -11.5725) (size 0.7 2.125) (layers "F.Cu" "F.Paste" "F.Mask") (roundrect_rratio 0.25) (tstamp 6eb8c84c-bc9a-4642-b0b0-01dea3d14097))
  (pad "5" smd roundrect (at -5.08 -11.5725) (size 0.7 2.125) (layers "F.Cu" "F.Paste" "F.Mask") (roundrect_rratio 0.25) (tstamp 94c42bf6-d407-4b94-be46-7d6e9c18db9b))
  (pad "6" smd roundrect (at -6.35 -11.5725) (size 0.7 2.125) (layers "F.Cu" "F.Paste" "F.Mask") (roundrect_rratio 0.25) (tstamp 8067e0bc-d36a-4dd3-a29f-d99601d89938))
  (pad "7" smd roundrect (at -7.62 -11.5725) (size 0.7 2.125) (layers "F.Cu" "F.Paste" "F.Mask") (roundrect_rratio 0.25) (tstamp 04199085-2006-4d9d-9a4f-5a54f2c5049f))
  (pad "8" smd roundrect (at -8.89 -11.5725) (size 0.7 2.125) (layers "F.Cu" "F.Paste" "F.Mask") (roundrect_rratio 0.25) (tstamp c958ea37-d6a8-4e74-80e6-686af1bb5c68))
  (pad "9" smd roundrect (at -10.16 -11.5725) (size 0.7 2.125) (layers "F.Cu" "F.Paste" "F.Mask") (roundrect_rratio 0.25)
    (chamfer_ratio 0.4) (chamfer bottom_left) (tstamp 63ee109e-9c3e-4c05-93c9-fb36de18a3d3))
  (pad "10" smd roundrect (at -11.5725 -10.16) (size 2.125 0.7) (layers "F.Cu" "F.Paste" "F.Mask") (roundrect_rratio 0.25)
    (chamfer_ratio 0.4) (chamfer top_right) (tstamp 810433aa-aed5-4b6f-970d-879a58b402f2))
  (pad "11" smd roundrect (at -11.5725 -8.89) (size 2.125 0.7) (layers "F.Cu" "F.Paste" "F.Mask") (roundrect_rratio 0.25) (tstamp f093e052-a89d-4fe0-8bff-420be975fa73))
  (pad "12" smd roundrect (at -11.5725 -7.62) (size 2.125 0.7) (layers "F.Cu" "F.Paste" "F.Mask") (roundrect_rratio 0.25) (tstamp 3be54eda-4754-4055-9ebf-de4da0a6fbd6))
  (pad "13" smd roundrect (at -11.5725 -6.35) (size 2.125 0.7) (layers "F.Cu" "F.Paste" "F.Mask") (roundrect_rratio 0.25) (tstamp 78d73150-db4e-40c2-b05f-8c7f6caf6808))
  (pad "14" smd roundrect (at -11.5725 -5.08) (size 2.125 0.7) (layers "F.Cu" "F.Paste" "F.Mask") (roundrect_rratio 0.25) (tstamp 3649e946-b1b7-45a9-97cb-c6a6bc156088))
  (pad "15" smd roundrect (at -11.5725 -3.81) (size 2.125 0.7) (layers "F.Cu" "F.Paste" "F.Mask") (roundrect_rratio 0.25) (tstamp bcb4bb0e-9871-4ece-9fa8-83630dff73e3))
  (pad "16" smd roundrect (at -11.5725 -2.54) (size 2.125 0.7) (layers "F.Cu" "F.Paste" "F.Mask") (roundrect_rratio 0.25) (tstamp 1990d93f-c4ba-427e-99b6-4e113e2741b3))
  (pad "17" smd roundrect (at -11.5725 -1.27) (size 2.125 0.7) (layers "F.Cu" "F.Paste" "F.Mask") (roundrect_rratio 0.25) (tstamp 236be6d0-cc7d-4d87-bebc-501a75988738))
  (pad "18" smd roundrect (at -11.5725 0) (size 2.125 0.7) (layers "F.Cu" "F.Paste" "F.Mask") (roundrect_rratio 0.25) (tstamp 6558b3c0-f5bb-4b29-b9dc-7ac28b0df3ef))
  (pad "19" smd roundrect (at -11.5725 1.27) (size 2.125 0.7) (layers "F.Cu" "F.Paste" "F.Mask") (roundrect_rratio 0.25) (tstamp 56260fb6-e427-4b63-b135-0417dba0e4e5))
  (pad "20" smd roundrect (at -11.5725 2.54) (size 2.125 0.7) (layers "F.Cu" "F.Paste" "F.Mask") (roundrect_rratio 0.25) (tstamp 2c821646-86b4-44e7-84e6-1a9a13cff132))
  (pad "21" smd roundrect (at -11.5725 3.81) (size 2.125 0.7) (layers "F.Cu" "F.Paste" "F.Mask") (roundrect_rratio 0.25) (tstamp 22efbad0-b7b4-4663-a95c-1b9c9b2520e0))
  (pad "22" smd roundrect (at -11.5725 5.08) (size 2.125 0.7) (layers "F.Cu" "F.Paste" "F.Mask") (roundrect_rratio 0.25) (tstamp dc91a046-3b8f-4374-8a8a-bd7a8289ff31))
  (pad "23" smd roundrect (at -11.5725 6.35) (size 2.125 0.7) (layers "F.Cu" "F.Paste" "F.Mask") (roundrect_rratio 0.25) (tstamp 96057f17-6179-48e1-b3ef-1e73a9b34529))
  (pad "24" smd roundrect (at -11.5725 7.62) (size 2.125 0.7) (layers "F.Cu" "F.Paste" "F.Mask") (roundrect_rratio 0.25) (tstamp b66d7bee-a1b8-411a-ae5f-ae58950dbc7a))
  (pad "25" smd roundrect (at -11.5725 8.89) (size 2.125 0.7) (layers "F.Cu" "F.Paste" "F.Mask") (roundrect_rratio 0.25) (tstamp 2bbebea1-1f0f-4bf5-a6f7-439b340eaaeb))
  (pad "26" smd roundrect (at -11.5725 10.16) (size 2.125 0.7) (layers "F.Cu" "F.Paste" "F.Mask") (roundrect_rratio 0.25)
    (chamfer_ratio 0.4) (chamfer bottom_right) (tstamp 70c58e0c-b414-4ea4-acb8-60c6d892ec30))
  (pad "27" smd roundrect (at -10.16 11.5725) (size 0.7 2.125) (layers "F.Cu" "F.Paste" "F.Mask") (roundrect_rratio 0.25)
    (chamfer_ratio 0.4) (chamfer top_left) (tstamp 25a82e3e-6432-4fee-a73f-ee258a4f4161))
  (pad "28" smd roundrect (at -8.89 11.5725) (size 0.7 2.125) (layers "F.Cu" "F.Paste" "F.Mask") (roundrect_rratio 0.25) (tstamp 47f58907-ba56-4652-89ed-b0630692ff44))
  (pad "29" smd roundrect (at -7.62 11.5725) (size 0.7 2.125) (layers "F.Cu" "F.Paste" "F.Mask") (roundrect_rratio 0.25) (tstamp b4c051c1-76ad-4594-98c3-1e147a3851e1))
  (pad "30" smd roundrect (at -6.35 11.5725) (size 0.7 2.125) (layers "F.Cu" "F.Paste" "F.Mask") (roundrect_rratio 0.25) (tstamp 3163335e-2f2f-49eb-99e3-b97ad7cf7fa8))
  (pad "31" smd roundrect (at -5.08 11.5725) (size 0.7 2.125) (layers "F.Cu" "F.Paste" "F.Mask") (roundrect_rratio 0.25) (tstamp 6872972b-4a6b-4411-9a2c-198b11afb050))
  (pad "32" smd roundrect (at -3.81 11.5725) (size 0.7 2.125) (layers "F.Cu" "F.Paste" "F.Mask") (roundrect_rratio 0.25) (tstamp 2698f3e6-0433-4a16-b9d4-7058bbdd1cf3))
  (pad "33" smd roundrect (at -2.54 11.5725) (size 0.7 2.125) (layers "F.Cu" "F.Paste" "F.Mask") (roundrect_rratio 0.25) (tstamp 5f9a5151-4b6e-426b-9005-55e62dc501f1))
  (pad "34" smd roundrect (at -1.27 11.5725) (size 0.7 2.125) (layers "F.Cu" "F.Paste" "F.Mask") (roundrect_rratio 0.25) (tstamp 81c5f4e5-7ec3-4daf-98a4-d34d3dd77b45))
  (pad "35" smd roundrect (at 0 11.5725) (size 0.7 2.125) (layers "F.Cu" "F.Paste" "F.Mask") (roundrect_rratio 0.25) (tstamp da3e95f8-bcb9-4e5f-9611-999178cc3061))
  (pad "36" smd roundrect (at 1.27 11.5725) (size 0.7 2.125) (layers "F.Cu" "F.Paste" "F.Mask") (roundrect_rratio 0.25) (tstamp aee4cd13-bf60-47eb-b19b-c96a55f679ab))
  (pad "37" smd roundrect (at 2.54 11.5725) (size 0.7 2.125) (layers "F.Cu" "F.Paste" "F.Mask") (roundrect_rratio 0.25) (tstamp b1ea4bbf-09c3-46b2-9b22-cd250f9644f0))
  (pad "38" smd roundrect (at 3.81 11.5725) (size 0.7 2.125) (layers "F.Cu" "F.Paste" "F.Mask") (roundrect_rratio 0.25) (tstamp 1c309c74-49ac-4f44-b2e7-df521d1456e6))
  (pad "39" smd roundrect (at 5.08 11.5725) (size 0.7 2.125) (layers "F.Cu" "F.Paste" "F.Mask") (roundrect_rratio 0.25) (tstamp c9c7b978-f56f-4c1c-babb-f6d0a6110443))
  (pad "40" smd roundrect (at 6.35 11.5725) (size 0.7 2.125) (layers "F.Cu" "F.Paste" "F.Mask") (roundrect_rratio 0.25) (tstamp cd6682ac-7871-46f7-b05f-757327ec71b0))
  (pad "41" smd roundrect (at 7.62 11.5725) (size 0.7 2.125) (layers "F.Cu" "F.Paste" "F.Mask") (roundrect_rratio 0.25) (tstamp 667ce48f-8b2a-4121-be51-d2c2f57b5da2))
  (pad "42" smd roundrect (at 8.89 11.5725) (size 0.7 2.125) (layers "F.Cu" "F.Paste" "F.Mask") (roundrect_rratio 0.25) (tstamp 6521a993-8b89-4352-af2a-62307ade1c35))
  (pad "43" smd roundrect (at 10.16 11.5725) (size 0.7 2.125) (layers "F.Cu" "F.Paste" "F.Mask") (roundrect_rratio 0.25)
    (chamfer_ratio 0.4) (chamfer top_right) (tstamp c5d82a93-39e5-4ff5-8670-03296f9b3547))
  (pad "44" smd roundrect (at 11.5725 10.16) (size 2.125 0.7) (layers "F.Cu" "F.Paste" "F.Mask") (roundrect_rratio 0.25)
    (chamfer_ratio 0.4) (chamfer bottom_left) (tstamp d72816bf-c0a6-430c-a634-add564d9aaf5))
  (pad "45" smd roundrect (at 11.5725 8.89) (size 2.125 0.7) (layers "F.Cu" "F.Paste" "F.Mask") (roundrect_rratio 0.25) (tstamp 5420ee0c-b1bd-4342-a7be-4e49ed01f510))
  (pad "46" smd roundrect (at 11.5725 7.62) (size 2.125 0.7) (layers "F.Cu" "F.Paste" "F.Mask") (roundrect_rratio 0.25) (tstamp 665d6a32-04cc-460b-8042-2b33266c4c42))
  (pad "47" smd roundrect (at 11.5725 6.35) (size 2.125 0.7) (layers "F.Cu" "F.Paste" "F.Mask") (roundrect_rratio 0.25) (tstamp 0f56f4f8-7204-4b8a-aa63-5680c5fb040a))
  (pad "48" smd roundrect (at 11.5725 5.08) (size 2.125 0.7) (layers "F.Cu" "F.Paste" "F.Mask") (roundrect_rratio 0.25) (tstamp f5d7fc09-d1eb-4b6e-9ba8-bee5e8ec3fc4))
  (pad "49" smd roundrect (at 11.5725 3.81) (size 2.125 0.7) (layers "F.Cu" "F.Paste" "F.Mask") (roundrect_rratio 0.25) (tstamp 6798efd9-04df-495f-9232-f0a0cee90663))
  (pad "50" smd roundrect (at 11.5725 2.54) (size 2.125 0.7) (layers "F.Cu" "F.Paste" "F.Mask") (roundrect_rratio 0.25) (tstamp a16af877-f4e6-41f2-bd09-f603b4ed3661))
  (pad "51" smd roundrect (at 11.5725 1.27) (size 2.125 0.7) (layers "F.Cu" "F.Paste" "F.Mask") (roundrect_rratio 0.25) (tstamp 25e29765-17ce-4f5d-8245-969a98311823))
  (pad "52" smd roundrect (at 11.5725 0) (size 2.125 0.7) (layers "F.Cu" "F.Paste" "F.Mask") (roundrect_rratio 0.25) (tstamp 1313d8e3-e224-4bd0-a6f2-44c57ef32870))
  (pad "53" smd roundrect (at 11.5725 -1.27) (size 2.125 0.7) (layers "F.Cu" "F.Paste" "F.Mask") (roundrect_rratio 0.25) (tstamp 5be2efa5-f5a0-4d77-b14a-f4805f10fe06))
  (pad "54" smd roundrect (at 11.5725 -2.54) (size 2.125 0.7) (layers "F.Cu" "F.Paste" "F.Mask") (roundrect_rratio 0.25) (tstamp ac7a8d46-5113-477c-b3f0-7d17f1f69e6c))
  (pad "55" smd roundrect (at 11.5725 -3.81) (size 2.125 0.7) (layers "F.Cu" "F.Paste" "F.Mask") (roundrect_rratio 0.25) (tstamp db1e9712-068b-45a1-b144-bbf906cdaa61))
  (pad "56" smd roundrect (at 11.5725 -5.08) (size 2.125 0.7) (layers "F.Cu" "F.Paste" "F.Mask") (roundrect_rratio 0.25) (tstamp 574a2d4b-1a5e-4cfb-bc9c-86e62e5d94cd))
  (pad "57" smd roundrect (at 11.5725 -6.35) (size 2.125 0.7) (layers "F.Cu" "F.Paste" "F.Mask") (roundrect_rratio 0.25) (tstamp 18095b80-2702-41b7-b723-db2141470046))
  (pad "58" smd roundrect (at 11.5725 -7.62) (size 2.125 0.7) (layers "F.Cu" "F.Paste" "F.Mask") (roundrect_rratio 0.25) (tstamp cc604112-751d-48ba-b601-08166b46e15b))
  (pad "59" smd roundrect (at 11.5725 -8.89) (size 2.125 0.7) (layers "F.Cu" "F.Paste" "F.Mask") (roundrect_rratio 0.25) (tstamp 9a53eeb4-ae33-4fc6-9663-50aea16c0267))
  (pad "60" smd roundrect (at 11.5725 -10.16) (size 2.125 0.7) (layers "F.Cu" "F.Paste" "F.Mask") (roundrect_rratio 0.25)
    (chamfer_ratio 0.4) (chamfer top_left) (tstamp 2b2132e6-e5d9-450a-9b81-6cc0d4cb98d8))
  (pad "61" smd roundrect (at 10.16 -11.5725) (size 0.7 2.125) (layers "F.Cu" "F.Paste" "F.Mask") (roundrect_rratio 0.25)
    (chamfer_ratio 0.4) (chamfer bottom_right) (tstamp aa5d720a-2553-4b35-992d-9bf81d551b25))
  (pad "62" smd roundrect (at 8.89 -11.5725) (size 0.7 2.125) (layers "F.Cu" "F.Paste" "F.Mask") (roundrect_rratio 0.25) (tstamp 11650d0d-12fb-4da2-830c-530f20ba70ce))
  (pad "63" smd roundrect (at 7.62 -11.5725) (size 0.7 2.125) (layers "F.Cu" "F.Paste" "F.Mask") (roundrect_rratio 0.25) (tstamp 9be541b4-426a-43dc-8f9d-88ada3d53b30))
  (pad "64" smd roundrect (at 6.35 -11.5725) (size 0.7 2.125) (layers "F.Cu" "F.Paste" "F.Mask") (roundrect_rratio 0.25) (tstamp 13be45ec-de22-40aa-9f6d-d6cec3123fa2))
  (pad "65" smd roundrect (at 5.08 -11.5725) (size 0.7 2.125) (layers "F.Cu" "F.Paste" "F.Mask") (roundrect_rratio 0.25) (tstamp 51d3bb8b-ca18-4ffb-9262-746c351b7464))
  (pad "66" smd roundrect (at 3.81 -11.5725) (size 0.7 2.125) (layers "F.Cu" "F.Paste" "F.Mask") (roundrect_rratio 0.25) (tstamp b783f8d8-4185-4943-b029-83d819b1a31b))
  (pad "67" smd roundrect (at 2.54 -11.5725) (size 0.7 2.125) (layers "F.Cu" "F.Paste" "F.Mask") (roundrect_rratio 0.25) (tstamp ee881747-3896-4917-8e46-314f0a3886e6))
  (pad "68" smd roundrect (at 1.27 -11.5725) (size 0.7 2.125) (layers "F.Cu" "F.Paste" "F.Mask") (roundrect_rratio 0.25) (tstamp 51abbd8d-61ed-41bd-87f2-75997b86a392))
  (model "${XANLIB}/3d/8468-21a1-01.stp"
    (offset (xyz 15.5 19 -2.3))
    (scale (xyz 1 1 1))
    (rotate (xyz 0 0 180))
  )
  (model "${XANLIB}/3d/plcc68.wrl"
    (offset (xyz 0 0 1))
    (scale (xyz 1 1 1))
    (rotate (xyz 0 0 -180))
  )
)
