(footprint "Pomona-6883" (version 20221018) (generator pcbnew)
  (layer "F.Cu")
  (attr through_hole)
  (fp_text reference "REF**" (at 0 -11.025 unlocked) (layer "F.SilkS")
      (effects (font (size 1 1) (thickness 0.15)))
    (tstamp 4b0d2b4d-7e4f-4971-8287-f9205d3c25af)
  )
  (fp_text value "Pomona-6883" (at 0 -9.525 unlocked) (layer "F.Fab")
      (effects (font (size 1 1) (thickness 0.15)))
    (tstamp cb07e642-86de-454f-b662-954af90216be)
  )
  (fp_text user "${REFERENCE}" (at 0 -8.025 unlocked) (layer "F.Fab")
      (effects (font (size 1 1) (thickness 0.15)))
    (tstamp e4bdd976-e50f-4fe0-a842-79f6b8d28d73)
  )
  (fp_line (start -8.763 -19.05) (end -8.763 0)
    (stroke (width 0.12) (type default)) (layer "F.SilkS") (tstamp 091e7f55-2073-4554-b88b-c041f3942335))
  (fp_line (start 8.763 0) (end 8.763 -19.05)
    (stroke (width 0.12) (type default)) (layer "F.SilkS") (tstamp ad8ab6f2-8f97-4c30-93db-6acdf1f48ab3))
  (fp_arc (start -8.763 -19.05) (mid 0 -27.813) (end 8.763 -19.05)
    (stroke (width 0.12) (type default)) (layer "F.SilkS") (tstamp 5a4163d3-c719-46d8-8e08-447b38959da7))
  (fp_arc (start 8.763 0) (mid 0 8.763) (end -8.763 0)
    (stroke (width 0.12) (type default)) (layer "F.SilkS") (tstamp 1a97c049-c248-499f-a834-e71e99cc556b))
  (fp_line (start -9.017 -19.05) (end -9.017 0)
    (stroke (width 0.05) (type default)) (layer "F.CrtYd") (tstamp 1d8a5d72-8b77-41fb-a705-9b0f63646b59))
  (fp_line (start 9.017 0) (end 9.017 -19.05)
    (stroke (width 0.05) (type default)) (layer "F.CrtYd") (tstamp 34f1ca3d-016d-40dd-9782-cfe6b87ba100))
  (fp_arc (start -9.017 -19.05) (mid 0 -28.067) (end 9.017 -19.05)
    (stroke (width 0.05) (type default)) (layer "F.CrtYd") (tstamp 99b66209-393b-4197-a30f-5cc01152ac5d))
  (fp_arc (start 9.017 0) (mid 0 9.017) (end -9.017 0)
    (stroke (width 0.05) (type default)) (layer "F.CrtYd") (tstamp 7165b50c-27cf-43cb-966b-939bbafa5f45))
  (fp_line (start -8.255 -19.05) (end -8.255 0)
    (stroke (width 0.1) (type default)) (layer "F.Fab") (tstamp 6e6ee103-97e8-45d8-a140-2d7a6800027b))
  (fp_line (start 8.255 -19.05) (end 8.255 0)
    (stroke (width 0.1) (type default)) (layer "F.Fab") (tstamp 7cc70a51-909a-4f2c-8225-f570fba6364b))
  (fp_arc (start -8.255 -19.05) (mid 0 -27.305) (end 8.255 -19.05)
    (stroke (width 0.1) (type default)) (layer "F.Fab") (tstamp cd14ea42-9b34-49fb-a4db-63db249e7ed7))
  (fp_arc (start 8.255 0) (mid 0 8.255) (end -8.255 0)
    (stroke (width 0.1) (type default)) (layer "F.Fab") (tstamp 3ae20170-3c5d-4374-b6a3-68ef8a756e9c))
  (fp_circle (center 0 -19.05) (end 2.54 -19.05)
    (stroke (width 0.1) (type default)) (fill none) (layer "F.Fab") (tstamp 5013367c-821d-4233-8db6-2e18cb69a53d))
  (fp_circle (center 0 0) (end 2.54 0)
    (stroke (width 0.1) (type default)) (fill none) (layer "F.Fab") (tstamp 37a40065-a184-4d61-b307-4439c9ed4823))
  (pad "" np_thru_hole circle (at 0 -19.05) (size 13.97 13.97) (drill 13.97) (layers "*.Mask") (tstamp bd97cc32-80b9-4633-916a-36fb27a9b9f2))
  (pad "" np_thru_hole circle (at 0 0) (size 13.97 13.97) (drill 13.97) (layers "*.Mask") (tstamp 40fbcc95-f8cf-4d73-8f2b-59cd161b58f4))
)
