(footprint "Qualtek-703W-00_54" (version 20221018) (generator pcbnew)
  (layer "F.Cu")
  (attr through_hole)
  (fp_text reference "REF**" (at 0 0) (layer "F.SilkS")
      (effects (font (size 1 1) (thickness 0.15)))
    (tstamp 2b802ef4-3aa9-4f53-af97-bd32faa2b776)
  )
  (fp_text value "Qualtek-703W-00/54" (at 0 0) (layer "F.Fab")
      (effects (font (size 1 1) (thickness 0.1)))
    (tstamp 6f2ea201-4bbc-4a00-83a2-4ec30be124ca)
  )
  (fp_line (start 0 0) (end 0 -18)
    (stroke (width 0.127) (type solid)) (layer "F.SilkS") (tstamp b0a44c1d-d885-468f-8cef-f97ef8a15125))
  (fp_line (start 50 -18) (end 50 0)
    (stroke (width 0.127) (type solid)) (layer "F.SilkS") (tstamp d5d84659-5bfe-45a1-bef5-f37ac8b46224))
  (fp_line (start 50 0) (end 0 0)
    (stroke (width 0.127) (type solid)) (layer "F.SilkS") (tstamp c5acbec3-b465-4ee2-84cd-27d9fd2b852e))
  (fp_line (start 0 -19) (end 10 -19)
    (stroke (width 0.127) (type solid)) (layer "F.Fab") (tstamp 677f873c-c91b-42b1-8648-0936bf0a2f61))
  (fp_line (start 10 -22) (end 40 -22)
    (stroke (width 0.127) (type solid)) (layer "F.Fab") (tstamp e8f943c7-5c3d-4e42-bda7-c0af3019eb80))
  (fp_line (start 10 -19) (end 10 -22)
    (stroke (width 0.127) (type solid)) (layer "F.Fab") (tstamp f6b10c08-13f3-4c2e-9a06-5a95ad6b45cf))
  (fp_line (start 10 -19) (end 40 -19)
    (stroke (width 0.127) (type solid)) (layer "F.Fab") (tstamp facefee2-9a7a-40b4-9ebe-baac05e6f867))
  (fp_line (start 40 -22) (end 40 -19)
    (stroke (width 0.127) (type solid)) (layer "F.Fab") (tstamp 6535c04c-ac67-423e-ac8b-b8b17aa4231e))
  (fp_line (start 40 -19) (end 50 -19)
    (stroke (width 0.127) (type solid)) (layer "F.Fab") (tstamp 2ba30f6b-e74f-4102-b935-313532e6c168))
  (pad "" np_thru_hole circle (at 5 -10) (size 3.5 3.5) (drill 3.5) (layers "*.Mask")
    (solder_mask_margin 1) (tstamp e992be60-9975-4615-a8e4-4a9477087073))
  (pad "" np_thru_hole circle (at 45 -10) (size 3.5 3.5) (drill 3.5) (layers "*.Mask") (tstamp c58c1163-a9c4-41a3-ae19-150ed08381b9))
  (pad "E" thru_hole circle (at 25 -2.7) (size 3 3) (drill 1.8) (layers "*.Cu" "*.Mask") (tstamp a0f95a80-067a-44b0-9608-0fca061c2d13))
  (pad "L" thru_hole circle (at 32 -2.7) (size 3 3) (drill 1.8) (layers "*.Cu" "*.Mask") (tstamp d57a33ff-1c23-4a84-a97b-92e0111bd153))
  (pad "N" thru_hole circle (at 18 -2.7) (size 3 3) (drill 1.8) (layers "*.Cu" "*.Mask") (tstamp e92893fc-4a88-4a8a-940f-9a67c6287486))
  (model ":XANLIB:3d/703W-00_53.step"
    (offset (xyz 25 21.7 16))
    (scale (xyz 1 1 1))
    (rotate (xyz -90 0 180))
  )
)
