(footprint "R_Susumu_HPT2012" (version 20211014) (generator pcbnew)
  (layer "F.Cu")
  (tedit 5F68FEEE)
  (descr "Resistor, SMT, like 0805, RF high power termination")
  (tags "resistor")
  (attr smd)
  (fp_text reference "REF**" (at 0 -1.65) (layer "F.SilkS")
    (effects (font (size 0.8 0.8) (thickness 0.15)))
    (tstamp 62840cf5-9445-4c5a-ab3c-e9152b818416)
  )
  (fp_text value "R_Susumu_HPT2012" (at 0 1.65) (layer "F.Fab")
    (effects (font (size 1 1) (thickness 0.15)))
    (tstamp 7edfa8e0-7cb1-459d-906d-c3fdcb12e54c)
  )
  (fp_text user "${REFERENCE}" (at 0 0) (layer "F.Fab")
    (effects (font (size 0.5 0.5) (thickness 0.08)))
    (tstamp 1eec4645-21cf-4f64-b840-1f73f0e8aabc)
  )
  (fp_line (start -0.725 -0.9) (end -0.270872 -0.9) (layer "F.SilkS") (width 0.12) (tstamp 14c1058f-6b70-4754-b847-675f18e937d6))
  (fp_line (start -0.725 0.9) (end -0.270872 0.9) (layer "F.SilkS") (width 0.12) (tstamp 7654a952-e069-4eaf-8d2c-81ef132c4b3c))
  (fp_line (start 1.68 -0.95) (end 1.68 0.95) (layer "F.CrtYd") (width 0.05) (tstamp 1385ab85-0043-4ac5-8c79-9d324988b659))
  (fp_line (start -1.68 0.95) (end -1.68 -0.95) (layer "F.CrtYd") (width 0.05) (tstamp 4b70d37a-f67e-4f22-9961-5b711e8e6206))
  (fp_line (start -1.68 -0.95) (end 1.68 -0.95) (layer "F.CrtYd") (width 0.05) (tstamp a548e2d9-99b0-45b9-b859-b9fe31cfe694))
  (fp_line (start 1.68 0.95) (end -1.68 0.95) (layer "F.CrtYd") (width 0.05) (tstamp e1e5cb74-0a25-4b22-b47b-8cfafd5c684d))
  (fp_line (start 1 -0.625) (end 1 0.625) (layer "F.Fab") (width 0.1) (tstamp 35b95b9d-86a2-49b1-a143-cc8d5b8386d4))
  (fp_line (start 1 0.625) (end -1 0.625) (layer "F.Fab") (width 0.1) (tstamp 47594ea7-4c26-4a53-bfcf-43737b860d35))
  (fp_line (start -1 -0.625) (end 1 -0.625) (layer "F.Fab") (width 0.1) (tstamp 7b0d2f0b-642a-441b-8802-b4d4fe4198d3))
  (fp_line (start -1 0.625) (end -1 -0.625) (layer "F.Fab") (width 0.1) (tstamp dfce6a7d-93db-4254-a72a-8e85233166ff))
  (pad "1" smd roundrect (at -1.1125 0) (size 0.625 1.6) (layers "F.Cu" "F.Paste" "F.Mask") (roundrect_rratio 0.2) (tstamp de4d0513-9445-4035-b873-f5a528596c53))
  (pad "2" smd roundrect (at 0.4625 0) (size 1.925 1.5) (layers "F.Cu" "F.Paste" "F.Mask") (roundrect_rratio 0.08333333333)
    (solder_paste_margin_ratio -0.1) (tstamp 37daf061-21a1-4291-b57c-9225c9e4aba4))
  (model "${KICAD6_3DMODEL_DIR}/Resistor_SMD.3dshapes/R_0805_2012Metric.wrl"
    (offset (xyz 0 0 0))
    (scale (xyz 1 1 1))
    (rotate (xyz 0 0 0))
  )
)
