(footprint "Transformer-Murata-5300" (version 20210722) (generator pcbnew) (layer "F.Cu")
  (tedit 611897DC)
  (attr smd)
  (fp_text reference "REF**" (at 0 -0.5 unlocked) (layer "F.SilkS")
    (effects (font (size 0.8 0.8) (thickness 0.2)))
    (tstamp af5869fa-6d2e-45fb-a2c6-fada616d5194)
  )
  (fp_text value "Transformer-Murata-5300" (at 0 1 unlocked) (layer "F.Fab")
    (effects (font (size 1 1) (thickness 0.15)))
    (tstamp cbc5b840-5be4-49f3-a54c-c95de9d6412a)
  )
  (fp_text user "${REF}" (at 0 2.5 unlocked) (layer "F.Fab")
    (effects (font (size 1 1) (thickness 0.15)))
    (tstamp 7b155723-6e8b-4361-b4ea-f495aeae280e)
  )
  (fp_line (start 4.135 -4.565) (end -4.135 -4.565) (layer "F.SilkS") (width 0.2) (tstamp 1e3fd2d4-fc63-4f1d-8ea1-ec6ac3b197e2))
  (fp_line (start -4.135 -4.565) (end -4.135 4.565) (layer "F.SilkS") (width 0.2) (tstamp 241b399f-0c57-43f5-9269-1d8f9cc43aa9))
  (fp_line (start -4.135 4.565) (end 4.135 4.565) (layer "F.SilkS") (width 0.2) (tstamp 2bc87f5e-cda5-4930-9d92-76cf8f76df91))
  (fp_line (start 4.135 4.565) (end 4.135 -4.565) (layer "F.SilkS") (width 0.2) (tstamp 8f99c615-01dc-4ef9-b131-be9ea189a706))
  (fp_circle (center -3.5 3.75) (end -3.25 3.75) (layer "F.SilkS") (width 0.12) (fill solid) (tstamp 0bdb5b5f-1be9-4c07-ab1d-71aa0f96966f))
  (fp_rect (start -4.135 -4.565) (end 4.135 4.565) (layer "F.CrtYd") (width 0.05) (fill none) (tstamp 92cb177a-ef57-4e53-9516-0e2dedfee76f))
  (pad "1" smd roundrect (at -1.85 3.555) (size 1.27 1.52) (layers "F.Cu" "F.Paste" "F.Mask") (roundrect_rratio 0.25) (tstamp e3e8de40-1c9f-47ff-9eb1-60b3dfebc4a0))
  (pad "2" smd roundrect (at 0 3.555) (size 1.27 1.52) (layers "F.Cu" "F.Paste" "F.Mask") (roundrect_rratio 0.25) (tstamp 506b894a-0b64-4cf6-b668-ea8982e591bd))
  (pad "3" smd roundrect (at 1.85 3.555) (size 1.27 1.52) (layers "F.Cu" "F.Paste" "F.Mask") (roundrect_rratio 0.25) (tstamp df949f6d-b071-4fe5-bf15-5a6a6d116005))
  (pad "4" smd roundrect (at 1.85 -3.555) (size 1.27 1.52) (layers "F.Cu" "F.Paste" "F.Mask") (roundrect_rratio 0.25) (tstamp a4e7cbfc-e1af-40e9-b8fc-3589c9e9b01f))
  (pad "5" smd roundrect (at 0 -3.555) (size 1.27 1.52) (layers "F.Cu" "F.Paste" "F.Mask") (roundrect_rratio 0.25) (tstamp 7c6e2146-3560-43d2-8f73-ddf87c5f3ac0))
  (pad "6" smd roundrect (at -1.85 -3.555) (size 1.27 1.52) (layers "F.Cu" "F.Paste" "F.Mask") (roundrect_rratio 0.25) (tstamp 0447ce44-7c25-4f37-838c-2f3293ce2148))
  (pad "7" smd roundrect (at 2.615 0) (size 2.54 3.05) (layers "F.Cu" "F.Paste" "F.Mask") (roundrect_rratio 0.25) (tstamp 0d8496cb-3afd-4214-a771-c033aa901c14))
  (pad "8" smd roundrect (at -2.615 0) (size 2.54 3.05) (layers "F.Cu" "F.Paste" "F.Mask") (roundrect_rratio 0.25) (tstamp 3829bd48-ae5d-4727-9275-f5113759fdd8))
)
